<?xml version="1.0" encoding="UTF-8"?>
<svg width="24px" height="24px" viewBox="0 0 24 24" version="1.1" xmlns="http://www.w3.org/2000/svg" xmlns:xlink="http://www.w3.org/1999/xlink">
    <!-- Generator: Sketch 48.1 (47250) - http://www.bohemiancoding.com/sketch -->
    <title>icon/20px/add-circle</title>
    <desc>Created with Sketch.</desc>
    <defs>
        <path d="M12,22 C6.4771525,22 2,17.5228475 2,12 C2,6.4771525 6.4771525,2 12,2 C17.5228475,2 22,6.4771525 22,12 C22,17.5228475 17.5228475,22 12,22 Z M11.0463475,7.95842075 L11.0463475,11.0463475 L7.95842075,11.0463475 C7.43009727,11.0463475 7,11.4697692 7,12 C7,12.5264162 7.43009727,12.9536525 7.95842075,12.9536525 L11.0463475,12.9536525 L11.0463475,16.0415792 C11.0463475,16.5699027 11.4697692,17 12,17 C12.5264162,17 12.9536525,16.5699027 12.9536525,16.0415792 L12.9536525,12.9536525 L16.0415792,12.9536525 C16.5708564,12.9536525 17,12.5302308 17,12 C17,11.4735838 16.5699027,11.0463475 16.0415792,11.0463475 L12.9536525,11.0463475 L12.9536525,7.95842075 C12.9536525,7.42914362 12.5302308,7 12,7 C11.4735838,7 11.0463475,7.43009727 11.0463475,7.95842075 Z" id="path-1"></path>
    </defs>
    <g id="Symbols" stroke="none" stroke-width="1" fill="none" fill-rule="evenodd">
        <g id="icon/20px/add-circle">
            <mask id="mask-2" fill="white">
                <use xlink:href="#path-1"></use>
            </mask>
            <use id="add-circle" fill="#405070" xlink:href="#path-1"></use>
        </g>
    </g>
</svg>