<?xml version="1.0" encoding="UTF-8"?>
<svg width="24px" height="24px" viewBox="0 0 24 24" version="1.1" xmlns="http://www.w3.org/2000/svg" xmlns:xlink="http://www.w3.org/1999/xlink">
    <!-- Generator: Sketch 48.1 (47250) - http://www.bohemiancoding.com/sketch -->
    <title>icon/20px/audio-circle</title>
    <desc>Created with Sketch.</desc>
    <defs>
        <path d="M12,22 C6.4771525,22 2,17.5228475 2,12 C2,6.4771525 6.4771525,2 12,2 C17.5228475,2 22,6.4771525 22,12 C22,17.5228475 17.5228475,22 12,22 Z M16,9.28311395 L16,8.38677596 C16,8.14921323 15.8068085,7.97684007 15.5684948,8.00253808 L10.4315052,8.55647349 C10.1861474,8.58293108 10,8.79586537 10,9.0337721 L10,10.056612 L10,13.0853529 C9.84361054,13.0300771 9.67531771,13 9.5,13 C8.67157288,13 8,13.6715729 8,14.5 C8,15.3284271 8.67157288,16 9.5,16 C10.2948243,16 10.945261,15.3818031 10.9967195,14.5999999 L11,14.5999999 L11,10.4361596 L15,10.0048288 L15,12.0853529 C14.8436105,12.0300771 14.6753177,12 14.5,12 C13.6715729,12 13,12.6715729 13,13.5 C13,14.3284271 13.6715729,15 14.5,15 C15.2948243,15 15.9452609,14.3818032 15.9967195,13.6 L16,13.6 L16,9.28311395 Z" id="path-1"></path>
    </defs>
    <g id="Symbols" stroke="none" stroke-width="1" fill="none" fill-rule="evenodd">
        <g id="icon/20px/audio-circle">
            <mask id="mask-2" fill="white">
                <use xlink:href="#path-1"></use>
            </mask>
            <use id="Combined-Shape" fill="#3F4F71" fill-rule="nonzero" xlink:href="#path-1"></use>
        </g>
    </g>
</svg>