<?xml version="1.0" encoding="UTF-8"?>
<svg width="24px" height="24px" viewBox="0 0 24 24" version="1.1" xmlns="http://www.w3.org/2000/svg" xmlns:xlink="http://www.w3.org/1999/xlink">
    <!-- Generator: Sketch 48.1 (47250) - http://www.bohemiancoding.com/sketch -->
    <title>icon/20px/filter</title>
    <desc>Created with Sketch.</desc>
    <defs>
        <path d="M6.99956838,13 L5.99956838,11 L17.9995684,11 L16.9995684,13 L6.99956838,13 Z M3.99296606,6 L20.0061707,6 C20.5546221,6 20.7992818,6.4005731 20.5522158,6.89470506 L19.9995684,8 L3.99956838,8 L3.44692091,6.89470506 C3.2019333,6.40472984 3.44432767,6 3.99296606,6 Z M10.777636,17.5561352 L9.99956838,16 L13.9995684,16 L13.2215008,17.5561352 C13.0991081,17.8009205 12.7736135,18 12.4948839,18 L11.5042528,18 C11.2136034,18 10.9002059,17.8012749 10.777636,17.5561352 Z" id="path-1"></path>
    </defs>
    <g id="Symbols" stroke="none" stroke-width="1" fill="none" fill-rule="evenodd">
        <g id="icon/20px/filter">
            <mask id="mask-2" fill="white">
                <use xlink:href="#path-1"></use>
            </mask>
            <use id="Combined-Shape" fill="#3F4F71" xlink:href="#path-1"></use>
        </g>
    </g>
</svg>