<?xml version="1.0" encoding="UTF-8"?>
<svg width="24px" height="24px" viewBox="0 0 24 24" version="1.1" xmlns="http://www.w3.org/2000/svg" xmlns:xlink="http://www.w3.org/1999/xlink">
    <!-- Generator: Sketch 48.1 (47250) - http://www.bohemiancoding.com/sketch -->
    <title>icon/20px/issue</title>
    <desc>Created with Sketch.</desc>
    <defs>
        <path d="M5,6 L19,6 C20.1045695,6 21,6.8954305 21,8 L21,16 C21,17.1045695 20.1045695,18 19,18 L5,18 C3.8954305,18 3,17.1045695 3,16 L3,8 C3,6.8954305 3.8954305,6 5,6 Z M5,8 L5,16 L19,16 L19,8 L5,8 Z M10.6741727,14.3311118 L9.26884189,12.925781 C8.91038604,12.5673252 8.91038604,11.9855238 9.26884189,11.6261488 C9.62821687,11.2676929 10.2100183,11.2676929 10.5684741,11.6261488 L11.3230697,12.3807443 L13.4306063,10.2704503 C13.7890621,9.90923714 14.3727018,9.91107537 14.7302385,10.2686121 C15.0896135,10.627068 15.0896135,11.2088694 14.7320768,11.5682444 L11.974724,14.3301927 C11.6153491,14.6904868 11.0335476,14.6904868 10.6741727,14.3311118 Z" id="path-1"></path>
    </defs>
    <g id="Symbols" stroke="none" stroke-width="1" fill="none" fill-rule="evenodd">
        <g id="icon/20px/issue">
            <mask id="mask-2" fill="white">
                <use xlink:href="#path-1"></use>
            </mask>
            <use id="Combined-Shape" fill="#172B4D" xlink:href="#path-1"></use>
        </g>
    </g>
</svg>