<?xml version="1.0" encoding="UTF-8"?>
<svg width="24px" height="24px" viewBox="0 0 24 24" version="1.1" xmlns="http://www.w3.org/2000/svg" xmlns:xlink="http://www.w3.org/1999/xlink">
    <!-- Generator: Sketch 48.1 (47250) - http://www.bohemiancoding.com/sketch -->
    <title>icon/20px/issues</title>
    <desc>Created with Sketch.</desc>
    <defs>
        <path d="M5,2.99539345 L19,2.99539345 C20.1045695,2.99539345 21,3.89082395 21,4.99539345 L21,12.9953935 C21,14.099963 20.1045695,14.9953935 19,14.9953935 L5,14.9953935 C3.8954305,14.9953935 3,14.099963 3,12.9953935 L3,4.99539345 C3,3.89082395 3.8954305,2.99539345 5,2.99539345 Z M5,4.99539345 L5,12.9953935 L19,12.9953935 L19,4.99539345 L5,4.99539345 Z M10.6741727,11.3265053 L9.26884189,9.92117449 C8.91038604,9.56271863 8.91038604,8.9809172 9.26884189,8.62154223 C9.62821687,8.26308637 10.2100183,8.26308637 10.5684741,8.62154223 L11.3230697,9.37613776 L13.4306063,7.2658438 C13.7890621,6.90463059 14.3727018,6.90646883 14.7302385,7.26400557 C15.0896135,7.62246142 15.0896135,8.20426285 14.7320768,8.56363782 L11.974724,11.3255861 C11.6153491,11.6858802 11.0335476,11.6858802 10.6741727,11.3265053 Z M3.97286174,16.0046065 L19.9728617,16.0046065 C19.9728617,17.109176 19.0774312,18.0046065 17.9728617,18.0046065 L5.97286174,18.0046065 C4.86829224,18.0046065 3.97286174,17.109176 3.97286174,16.0046065 Z M4.92511362,19.0046065 L18.9250794,19.0046065 C18.9250794,20.109176 18.0296489,21.0046065 16.9250794,21.0046065 L6.92511362,21.0046065 C5.82054412,21.0046065 4.92511362,20.109176 4.92511362,19.0046065 Z" id="path-1"></path>
    </defs>
    <g id="Symbols" stroke="none" stroke-width="1" fill="none" fill-rule="evenodd">
        <g id="icon/20px/issues">
            <mask id="mask-2" fill="white">
                <use xlink:href="#path-1"></use>
            </mask>
            <use id="Combined-Shape" fill="#3F4F71" xlink:href="#path-1"></use>
        </g>
    </g>
</svg>