<?xml version="1.0" encoding="UTF-8"?>
<svg width="24px" height="24px" viewBox="0 0 24 24" version="1.1" xmlns="http://www.w3.org/2000/svg" xmlns:xlink="http://www.w3.org/1999/xlink">
    <!-- Generator: Sketch 48.1 (47250) - http://www.bohemiancoding.com/sketch -->
    <title>icon/20px/like</title>
    <desc>Created with Sketch.</desc>
    <defs>
        <path d="M4.0741702,12.0000055 L4.0741702,19.0000055 C4.06772247,19.2619521 4.16687232,19.5154898 4.34930999,19.7035699 C4.53174766,19.8916499 4.78214869,19.998474 5.0441702,20.0000055 L6.0541702,20.0000055 L6.0541702,11.0000055 L5.0441702,11.0000055 C4.78214869,11.0015369 4.53174766,11.108361 4.34930999,11.296441 C4.16687232,11.4845211 4.06772247,11.7380588 4.0741702,12.0000055 Z M19.2141702,11.0400055 C18.6412051,10.3648297 17.7996903,9.97663521 16.9141702,9.97900546 L14.3041702,9.97900546 C14.3441702,9.79800546 14.3841702,9.61900546 14.4141702,9.44700546 C14.9241702,6.51300546 14.4141702,5.44700546 13.9141702,4.85300546 C13.4570047,4.31076267 12.7834129,3.99849428 12.0741702,4.00000546 C10.5441052,4.052745 9.28830951,5.22781093 9.1341702,6.75100546 C8.7441702,8.59000546 8.6841702,8.75100546 8.1741702,9.47600546 L7.4141702,10.5650055 C7.18193052,10.9003704 7.05644676,11.2980842 7.0541702,11.7060055 L7.0541702,17.9790055 C7.05549463,18.510765 7.26800634,19.0202188 7.64495482,19.3952919 C8.0219033,19.770365 8.53241064,19.9803332 9.0641702,19.9790055 L16.2441702,19.9790055 C17.7157521,19.9868039 18.974822,18.9240132 19.2141702,17.4720055 L19.8841702,13.4720055 C20.0316062,12.6021404 19.7862793,11.7116405 19.2141702,11.0400055 Z M17.2341702,17.1400055 C17.1533215,17.6233025 16.7341797,17.9768211 16.2441702,17.9750055 L9.0641702,17.9750124 L9.0641702,11.7060055 L9.8241702,10.6170055 C10.5388878,9.5726089 10.982231,8.36664657 11.1141702,7.10800546 C11.1501993,6.56547134 11.5422959,6.11292644 12.0741702,6.00000546 C12.8341702,6.00000546 12.6441702,7.91600546 12.4341702,9.10000546 C12.2207986,10.0810382 11.9333069,11.0444696 11.5741702,11.9820055 L16.9141702,11.9740055 C17.2088763,11.9729128 17.4890585,12.1018716 17.6798978,12.3264451 C17.8707371,12.5510186 17.9527991,12.848337 17.9041702,13.1390055 L17.2341702,17.1400055 Z" id="path-1"></path>
    </defs>
    <g id="Symbols" stroke="none" stroke-width="1" fill="none" fill-rule="evenodd">
        <g id="icon/20px/like">
            <mask id="mask-2" fill="white">
                <use xlink:href="#path-1"></use>
            </mask>
            <use id="Mask" fill="#42526E" xlink:href="#path-1"></use>
        </g>
    </g>
</svg>