<?xml version="1.0" encoding="UTF-8"?>
<svg width="24px" height="24px" viewBox="0 0 24 24" version="1.1" xmlns="http://www.w3.org/2000/svg" xmlns:xlink="http://www.w3.org/1999/xlink">
    <!-- Generator: Sketch 48.1 (47250) - http://www.bohemiancoding.com/sketch -->
    <title>icon/20px/unlink</title>
    <desc>Created with Sketch.</desc>
    <defs>
        <path d="M12.7213863,14.2392165 C13.0928712,14.6110731 13.0928712,15.2126631 12.7213863,15.5845196 L10.6383479,17.6696421 C9.87981847,18.4289304 8.88595046,18.8085746 7.89208244,18.8085746 C6.89821443,18.8085746 5.90434642,18.4289304 5.14581701,17.6696421 L5.13706475,17.6608811 C3.62097842,16.1423045 3.62097842,13.6814316 5.13706475,12.162855 L7.20454361,10.0933077 C7.58478079,9.71366355 8.20035657,9.71366355 8.57962128,10.0933077 L8.5825387,10.096228 C8.96277587,10.4768456 8.9618034,11.0940107 8.58156622,11.4736549 L7.89402739,12.1599347 L7.89208244,12.1589613 L6.5714633,13.4809017 C5.86253005,14.1905442 5.73416354,15.3469987 6.36821632,16.123809 C6.75817823,16.6017713 7.30470839,16.8616815 7.89208244,16.8616815 C8.41041087,16.8616815 8.89664767,16.6592046 9.26327021,16.2931887 L11.351171,14.2343493 C11.7323807,13.8585989 12.3440666,13.8615193 12.7213863,14.2392165 Z M9.27861368,9.37793265 C8.90712877,9.00607607 8.90712877,8.40448611 9.27861368,8.03262953 L11.3616521,5.94750704 C12.1201815,5.18821874 13.1140495,4.80857458 14.1079176,4.80857458 C15.1017856,4.80857458 16.0956536,5.18821874 16.854183,5.94750704 L16.8629352,5.95626806 C18.3790216,7.47484466 18.3790216,9.93571752 16.8629352,11.4542941 L14.7954564,13.5238415 C14.4152192,13.9034856 13.7996434,13.9034856 13.4203787,13.5238415 L13.4174613,13.5209211 C13.0372241,13.1403035 13.0381966,12.5231384 13.4184338,12.1434943 L14.1059726,11.4572145 L14.1079176,11.4581879 L15.4285367,10.1362475 C16.1374699,9.42660498 16.2658365,8.27015049 15.6317837,7.49334015 C15.2418218,7.01537789 14.6952916,6.75546767 14.1079176,6.75546767 C13.5895891,6.75546767 13.1033523,6.95794455 12.7367298,7.32493389 L10.648829,9.38279988 C10.2676193,9.75855025 9.65593344,9.75562991 9.27861368,9.37793265 Z M7.92423169,4.42622542 L8.32523169,5.39422542 C8.53623169,5.90422542 8.29423169,6.48922542 7.78423169,6.70022542 C7.27323169,6.91222542 6.68823169,6.66922542 6.47723169,6.15922542 L6.07623169,5.19122542 C5.86523169,4.68122542 6.10723169,4.09622542 6.61723169,3.88522542 C7.12823169,3.67322542 7.71323169,3.91622542 7.92423169,4.42622542 Z M4.38323169,6.88480628 L5.35123169,7.28580628 C5.86123169,7.49780628 6.10323169,8.08280628 5.89223169,8.59280628 C5.68023169,9.10280628 5.09523169,9.34480628 4.58523169,9.13380628 L3.61723169,8.73280628 C3.10723169,8.52080628 2.86523169,7.93580628 3.07623169,7.42580628 C3.28823169,6.91580628 3.87323169,6.67380628 4.38323169,6.88480628 Z M14.315,17.2987746 C14.44,17.2477746 14.57,17.2227746 14.697,17.2227746 C15.09,17.2227746 15.463,17.4557746 15.622,17.8407746 L16.023,18.8077746 C16.234,19.3197746 15.991,19.9047746 15.482,20.1147746 C14.971,20.3267746 14.386,20.0837746 14.175,19.5737746 L13.773,18.6057746 C13.563,18.0957746 13.806,17.5107746 14.315,17.2987746 Z M16.491,15.1247746 C16.65,14.7387746 17.023,14.5057746 17.415,14.5057746 C17.543,14.5057746 17.672,14.5307746 17.797,14.5827746 L18.766,14.9837746 C19.275,15.1957746 19.518,15.7797746 19.307,16.2897746 C19.095,16.8007746 18.509,17.0427746 18,16.8317746 L17.031,16.4307746 C16.522,16.2187746 16.279,15.6337746 16.491,15.1247746 Z" id="path-1"></path>
    </defs>
    <g id="Symbols" stroke="none" stroke-width="1" fill="none" fill-rule="evenodd">
        <g id="icon/20px/unlink">
            <mask id="mask-2" fill="white">
                <use xlink:href="#path-1"></use>
            </mask>
            <use id="Combined-Shape" fill="#42526E" xlink:href="#path-1"></use>
        </g>
    </g>
</svg>