<?xml version="1.0" encoding="UTF-8"?>
<svg width="24px" height="24px" viewBox="0 0 24 24" version="1.1" xmlns="http://www.w3.org/2000/svg" xmlns:xlink="http://www.w3.org/1999/xlink">
    <!-- Generator: Sketch 48.1 (47250) - http://www.bohemiancoding.com/sketch -->
    <title>icon/20px/vid-backward</title>
    <desc>Created with Sketch.</desc>
    <defs>
        <path d="M13,10.2537464 L20.2486012,4.17430283 C20.3891916,4.05598818 20.5212326,4 20.6342749,4 C20.85276,4 21,4.21338892 21,4.60108066 L21,19.3882987 C21,19.9724772 20.6523237,20.1753023 20.2144036,19.8340914 L13,14.2163165 L13,19.3882987 C13,19.9724772 12.6523237,20.1753023 12.2144036,19.8340914 L3.33535897,12.9200792 C2.9021885,12.5820374 2.8860396,12.0263811 3.30211123,11.6777754 L12.2486012,4.17430283 C12.3891916,4.05598818 12.5212326,4 12.6342749,4 C12.85276,4 13,4.21338892 13,4.60108066 L13,10.2537464 Z" id="path-1"></path>
    </defs>
    <g id="Symbols" stroke="none" stroke-width="1" fill="none" fill-rule="evenodd">
        <g id="icon/20px/vid-backward">
            <mask id="mask-2" fill="white">
                <use xlink:href="#path-1"></use>
            </mask>
            <use id="Combined-Shape" fill="#3F4F71" xlink:href="#path-1"></use>
        </g>
    </g>
</svg>