<?xml version="1.0" encoding="UTF-8"?>
<svg width="16px" height="16px" viewBox="0 0 16 16" version="1.1" xmlns="http://www.w3.org/2000/svg" xmlns:xlink="http://www.w3.org/1999/xlink">
    <!-- Generator: Sketch 52.5 (67469) - http://www.bohemiancoding.com/sketch -->
    <title>icon/16px/appswitcher</title>
    <desc>Created with Sketch.</desc>
    <defs>
        <path d="M0.5,0 L3.5,0 C3.77614237,0 4,0.223857625 4,0.5 L4,3.5 C4,3.77614237 3.77614237,4 3.5,4 L0.5,4 C0.223857625,4 0,3.77614237 0,3.5 L0,0.5 C0,0.223857625 0.223857625,0 0.5,0 Z M6.5,0 L9.5,0 C9.77614237,0 10,0.223857625 10,0.5 L10,3.5 C10,3.77614237 9.77614237,4 9.5,4 L6.5,4 C6.22385763,4 6,3.77614237 6,3.5 L6,0.5 C6,0.223857625 6.22385763,0 6.5,0 Z M0.5,6 L3.5,6 C3.77614237,6 4,6.22385763 4,6.5 L4,9.5 C4,9.77614237 3.77614237,10 3.5,10 L0.5,10 C0.223857625,10 0,9.77614237 0,9.5 L0,6.5 C0,6.22385763 0.223857625,6 0.5,6 Z M6.5,6 L9.5,6 C9.77614237,6 10,6.22385763 10,6.5 L10,9.5 C10,9.77614237 9.77614237,10 9.5,10 L6.5,10 C6.22385763,10 6,9.77614237 6,9.5 L6,6.5 C6,6.22385763 6.22385763,6 6.5,6 Z M12.5,6 L15.5,6 C15.7761424,6 16,6.22385763 16,6.5 L16,9.5 C16,9.77614237 15.7761424,10 15.5,10 L12.5,10 C12.2238576,10 12,9.77614237 12,9.5 L12,6.5 C12,6.22385763 12.2238576,6 12.5,6 Z M0.5,12 L3.5,12 C3.77614237,12 4,12.2238576 4,12.5 L4,15.5 C4,15.7761424 3.77614237,16 3.5,16 L0.5,16 C0.223857625,16 0,15.7761424 0,15.5 L0,12.5 C0,12.2238576 0.223857625,12 0.5,12 Z M6.5,12 L9.5,12 C9.77614237,12 10,12.2238576 10,12.5 L10,15.5 C10,15.7761424 9.77614237,16 9.5,16 L6.5,16 C6.22385763,16 6,15.7761424 6,15.5 L6,12.5 C6,12.2238576 6.22385763,12 6.5,12 Z M12.5,12 L15.5,12 C15.7761424,12 16,12.2238576 16,12.5 L16,15.5 C16,15.7761424 15.7761424,16 15.5,16 L12.5,16 C12.2238576,16 12,15.7761424 12,15.5 L12,12.5 C12,12.2238576 12.2238576,12 12.5,12 Z M12.5,0 L15.5,0 C15.7761424,0 16,0.223857625 16,0.5 L16,3.5 C16,3.77614237 15.7761424,4 15.5,4 L12.5,4 C12.2238576,4 12,3.77614237 12,3.5 L12,0.5 C12,0.223857625 12.2238576,0 12.5,0 Z" id="path-1"/>
    </defs>
    <g id="icon/16px/appswitcher" stroke="none" stroke-width="1" fill="none" fill-rule="evenodd">
        <use id="Mask" fill="#42526E" xlink:href="#path-1"/>
    </g>
</svg>