<?xml version="1.0" encoding="UTF-8"?>
<svg width="16px" height="16px" viewBox="0 0 16 16" version="1.1" xmlns="http://www.w3.org/2000/svg" xmlns:xlink="http://www.w3.org/1999/xlink">
    <!-- Generator: Sketch 48.2 (47327) - http://www.bohemiancoding.com/sketch -->
    <title>icon/16px/arrow-down-small-16px</title>
    <desc>Created with Sketch.</desc>
    <defs>
        <path d="M4.291875,5.7935 C3.902875,6.1855 3.902875,6.8205 4.291875,7.2125 L7.230875,10.1775 C7.448875,10.3925 7.730875,10.4995 8.009875,10.4995 C8.288875,10.4995 8.565875,10.3925 8.778875,10.1775 L11.708875,7.2225 C12.096875,6.8305 12.096875,6.1955 11.708875,5.8035 C11.319875,5.4115 10.690875,5.4115 10.302875,5.8035 L8.004875,8.1205 L5.697875,5.7935 C5.503875,5.5985 5.248875,5.5005 4.994875,5.5005 C4.739875,5.5005 4.484875,5.5985 4.291875,5.7935 Z" id="path-1"></path>
    </defs>
    <g id="Symbols" stroke="none" stroke-width="1" fill="none" fill-rule="evenodd">
        <g id="icon/16px/arrow-down-small">
            <mask id="mask-2" fill="white">
                <use xlink:href="#path-1"></use>
            </mask>
            <use id="chevron-down" fill="#3F4F71" xlink:href="#path-1"></use>
        </g>
    </g>
</svg>