<?xml version="1.0" encoding="UTF-8"?>
<svg width="16px" height="16px" viewBox="0 0 16 16" version="1.1" xmlns="http://www.w3.org/2000/svg" xmlns:xlink="http://www.w3.org/1999/xlink">
    <!-- Generator: Sketch 48.2 (47327) - http://www.bohemiancoding.com/sketch -->
    <title>icon/16px/arrow-down-right-16px</title>
    <desc>Created with Sketch.</desc>
    <defs>
        <path d="M12.252251,6.594564 C12.433251,6.775564 12.544251,7.026564 12.544251,7.302564 L12.533251,11.526564 C12.530251,12.080564 12.080251,12.530564 11.527251,12.531564 L7.30425096,12.544564 C7.02625096,12.542564 6.77625096,12.432564 6.59425096,12.250564 C6.41525096,12.071564 6.30425096,11.820564 6.30325096,11.543564 C6.30625096,10.989564 6.75525096,10.540564 7.30925096,10.538564 L9.11225096,10.532564 L8.19425096,9.615564 L6.84325096,8.263564 L3.74825096,5.169564 C3.35725096,4.778564 3.35825096,4.142564 3.75125096,3.750564 C4.14425096,3.358564 4.77825096,3.356564 5.16925096,3.747564 L8.26525096,6.842564 L9.61625096,8.194564 L10.533251,9.111564 L10.539251,7.307564 C10.541251,6.754564 10.990251,6.304564 11.544251,6.302564 C11.821251,6.302564 12.071251,6.413564 12.252251,6.594564" id="path-1"></path>
    </defs>
    <g id="Symbols" stroke="none" stroke-width="1" fill="none" fill-rule="evenodd">
        <g id="icon/16px/arrow-down-right">
            <mask id="mask-2" fill="white">
                <use xlink:href="#path-1"></use>
            </mask>
            <use id="Fill-1" fill="#42526E" xlink:href="#path-1"></use>
        </g>
    </g>
</svg>