<?xml version="1.0" encoding="UTF-8"?>
<svg width="16px" height="16px" viewBox="0 0 16 16" version="1.1" xmlns="http://www.w3.org/2000/svg" xmlns:xlink="http://www.w3.org/1999/xlink">
    <!-- Generator: Sketch 48.2 (47327) - http://www.bohemiancoding.com/sketch -->
    <title>icon/16px/arrow-right-16px</title>
    <desc>Created with Sketch.</desc>
    <defs>
        <path d="M10.02175,4 C10.27775,4 10.53375,4.098 10.72975,4.294 L13.70775,7.289 C14.09775,7.683 14.09775,8.319 13.70775,8.711 L10.72975,11.706 C10.53275,11.901 10.27775,12 10.02075,12 C9.76675,12 9.51075,11.901 9.31475,11.706 C8.92475,11.312 8.92475,10.677 9.31475,10.284 L10.58575,9.005 L9.28875,9.005 L7.37775,9.005 L3.00075,9.005 C2.44775,9.005 1.99975,8.555 1.99975,8 C1.99975,7.445 2.44775,6.995 3.00075,6.995 L7.37775,6.995 L9.28875,6.995 L10.58575,6.995 L9.31475,5.716 C8.92475,5.323 8.92475,4.687 9.31475,4.294 C9.50975,4.098 9.76575,4 10.02175,4" id="path-1"></path>
    </defs>
    <g id="Symbols" stroke="none" stroke-width="1" fill="none" fill-rule="evenodd">
        <g id="icon/16px/arrow-right">
            <mask id="mask-2" fill="white">
                <use xlink:href="#path-1"></use>
            </mask>
            <use id="arrow-right-small" fill="#42526E" xlink:href="#path-1"></use>
        </g>
    </g>
</svg>