<?xml version="1.0" encoding="UTF-8"?>
<svg width="16px" height="16px" viewBox="0 0 16 16" version="1.1" xmlns="http://www.w3.org/2000/svg" xmlns:xlink="http://www.w3.org/1999/xlink">
    <!-- Generator: Sketch 48.2 (47327) - http://www.bohemiancoding.com/sketch -->
    <title>icon/16px/chevron-down-16px</title>
    <desc>Created with Sketch.</desc>
    <defs>
        <path d="M11.708,5.804 C11.32,5.412 10.69,5.412 10.301,5.804 L8.004,8.121 L5.697,5.794 C5.503,5.598 5.249,5.5 4.994,5.5 C4.739,5.5 4.485,5.598 4.291,5.794 C4.096,5.99 4,6.246 4,6.503 L4,6.504 C4,6.76 4.096,7.017 4.291,7.213 L7.23,10.178 C7.449,10.393 7.729,10.5 8.008,10.5 C8.288,10.5 8.565,10.393 8.778,10.178 L11.708,7.223 C11.902,7.027 12,6.77 12,6.513 C12,6.256 11.902,6 11.708,5.804" id="path-1"></path>
    </defs>
    <g id="Symbols" stroke="none" stroke-width="1" fill="none" fill-rule="evenodd">
        <g id="icon/16px/chevron-down">
            <mask id="mask-2" fill="white">
                <use xlink:href="#path-1"></use>
            </mask>
            <use id="chevron-down-small" fill="#3F4F71" xlink:href="#path-1"></use>
        </g>
    </g>
</svg>