<?xml version="1.0" encoding="UTF-8"?>
<svg width="16px" height="16px" viewBox="0 0 16 16" version="1.1" xmlns="http://www.w3.org/2000/svg" xmlns:xlink="http://www.w3.org/1999/xlink">
    <!-- Generator: Sketch 48.2 (47327) - http://www.bohemiancoding.com/sketch -->
    <title>icon/16px/lightbulb-filled-16px</title>
    <desc>Created with Sketch.</desc>
    <defs>
        <path d="M8,1.07999992 C5.13606122,1.07999992 2.81500006,3.40208956 2.81500006,6.26729736 C2.81500006,8.18550772 4.79287266,10.1452303 4.79287266,10.1452303 C5.13001004,10.4799225 5.40663557,11.10693 5.40663557,11.5384841 C5.40663557,11.9700382 5.79564024,12.322892 6.27109038,12.322892 L9.72890962,12.322892 C10.2043598,12.322892 10.5933644,11.9700382 10.5933644,11.5384841 C10.5933644,11.10693 10.86999,10.4799225 11.2071273,10.1452303 C11.2071273,10.1452303 13.1849999,8.18550772 13.1849999,6.26729736 C13.1849999,3.40208956 10.8639388,1.07999992 8,1.07999992 L8,1.07999992 Z M10.5630221,14.0525677 C10.5630221,13.5769069 10.1740174,13.1877299 9.69856725,13.1877299 L6.24074802,13.1877299 C5.76529787,13.1877299 5.37629321,13.5769069 5.37629321,14.0525677 L5.37629321,14.0551622 C5.37629321,14.530823 5.76529787,14.9200001 6.24074802,14.9200001 L9.69856725,14.9200001 C10.1740174,14.9200001 10.5630221,14.530823 10.5630221,14.0551622 L10.5630221,14.0525677 Z" id="path-1"></path>
    </defs>
    <g id="Symbols" stroke="none" stroke-width="1" fill="none" fill-rule="evenodd">
        <g id="icon/16px/lightbulb-filled">
            <mask id="mask-2" fill="white">
                <use xlink:href="#path-1"></use>
            </mask>
            <use id="Shape" fill="#42526E" xlink:href="#path-1"></use>
        </g>
    </g>
</svg>