<?xml version="1.0" encoding="UTF-8"?>
<svg width="16px" height="16px" viewBox="0 0 16 16" version="1.1" xmlns="http://www.w3.org/2000/svg" xmlns:xlink="http://www.w3.org/1999/xlink">
    <!-- Generator: Sketch 48.2 (47327) - http://www.bohemiancoding.com/sketch -->
    <title>icon/16px/more-vertical-16px</title>
    <desc>Created with Sketch.</desc>
    <defs>
        <path d="M8,11.5 C7.172,11.5 6.5,12.172 6.5,13 C6.5,13.828 7.172,14.5 8,14.5 C8.828,14.5 9.5,13.828 9.5,13 C9.5,12.172 8.828,11.5 8,11.5 M8,6.5 C7.172,6.5 6.5,7.172 6.5,8 C6.5,8.828 7.172,9.5 8,9.5 C8.828,9.5 9.5,8.828 9.5,8 C9.5,7.172 8.828,6.5 8,6.5 M6.5,3 C6.5,2.172 7.172,1.5 8,1.5 C8.828,1.5 9.5,2.172 9.5,3 C9.5,3.828 8.828,4.5 8,4.5 C7.172,4.5 6.5,3.828 6.5,3" id="path-1"></path>
    </defs>
    <g id="Symbols" stroke="none" stroke-width="1" fill="none" fill-rule="evenodd">
        <g id="icon/16px/more-vertical">
            <mask id="mask-2" fill="white">
                <use xlink:href="#path-1"></use>
            </mask>
            <use id="more-vertical-small" fill="#42526E" xlink:href="#path-1"></use>
        </g>
    </g>
</svg>