<?xml version="1.0" encoding="UTF-8"?>
<svg width="16px" height="16px" viewBox="0 0 16 16" version="1.1" xmlns="http://www.w3.org/2000/svg" xmlns:xlink="http://www.w3.org/1999/xlink">
    <!-- Generator: Sketch 48.2 (47327) - http://www.bohemiancoding.com/sketch -->
    <title>icon/16px/people-group-16px</title>
    <desc>Created with Sketch.</desc>
    <defs>
        <path d="M5.35751359,6.63577784 C5.49554569,7.17207014 5.79253146,7.64454987 6.19525386,8 L5.95389167,8 C4.82725886,8 3.90733351,8.91497171 3.90733351,10.0436465 L3.90733351,12.0648047 C2.45736532,11.9449058 1.17888918,11.4380319 1.17888918,10.5441832 L1.17888918,7.99985306 C1.17888918,7.24649512 1.78421726,6.63577784 2.54284872,6.63577784 L5.35751359,6.63577784 Z M10.6424864,6.63577784 L13.4571513,6.63577784 C14.2104453,6.63577784 14.8211108,7.23975677 14.8211108,8.0002128 L14.8211108,10.5441832 C14.8211108,11.4380319 13.5426347,11.9449058 12.0926665,12.0648047 L12.0926665,10.0436854 C12.0926665,8.91621851 11.1763912,8 10.0461083,8 L9.80474614,8 C10.2074685,7.64454987 10.5044543,7.17207014 10.6424864,6.63577784 Z M6.61335455,3.60335385 C5.84175089,4.05956976 5.31428086,4.8849309 5.27403243,5.83634929 C5.05998293,5.91231663 4.82954268,5.95366675 4.58944459,5.95366675 C3.45928594,5.95366675 2.54311134,5.03749215 2.54311134,3.90733351 C2.54311134,2.77717486 3.45928594,1.86100026 4.58944459,1.86100026 C5.6163105,1.86100026 6.46651974,2.61735738 6.61335455,3.60335385 Z M10.726097,5.83639523 C10.6868658,4.88423099 10.1591057,4.05813602 9.38682917,3.60212273 C9.53418808,2.61672785 10.3841169,1.86100026 11.4105554,1.86100026 C12.5407141,1.86100026 13.4568887,2.77717486 13.4568887,3.90733351 C13.4568887,5.03749215 12.5407141,5.95366675 11.4105554,5.95366675 C11.1705057,5.95366675 10.94011,5.9123333 10.726097,5.83639523 Z M4.58944459,10.0461863 C4.58944459,9.29282836 5.19477267,8.68211108 5.95340413,8.68211108 L10.0465959,8.68211108 C10.7998899,8.68211108 11.4105554,9.28609002 11.4105554,10.0465461 L11.4105554,12.5905165 C11.4105554,14.6551608 4.58944459,14.6551608 4.58944459,12.5905165 L4.58944459,10.0461863 Z M8,8 C6.86984136,8 5.95366675,7.0838254 5.95366675,5.95366675 C5.95366675,4.82350811 6.86984136,3.90733351 8,3.90733351 C9.13015864,3.90733351 10.0463332,4.82350811 10.0463332,5.95366675 C10.0463332,7.0838254 9.13015864,8 8,8 Z" id="path-1"></path>
    </defs>
    <g id="Symbols" stroke="none" stroke-width="1" fill="none" fill-rule="evenodd">
        <g id="icon/16px/people-group">
            <mask id="mask-2" fill="white">
                <use xlink:href="#path-1"></use>
            </mask>
            <use id="group-small" fill="#42526E" xlink:href="#path-1"></use>
        </g>
    </g>
</svg>