<?xml version="1.0" encoding="UTF-8"?>
<svg width="16px" height="16px" viewBox="0 0 16 16" version="1.1" xmlns="http://www.w3.org/2000/svg" xmlns:xlink="http://www.w3.org/1999/xlink">
    <!-- Generator: Sketch 48.2 (47327) - http://www.bohemiancoding.com/sketch -->
    <title>icon/16px/unlock-filled-16px</title>
    <desc>Created with Sketch.</desc>
    <defs>
        <path d="M8,11.75 C7.171,11.75 6.5,11.079 6.5,10.25 C6.5,9.421 7.171,8.75 8,8.75 C8.829,8.75 9.5,9.421 9.5,10.25 C9.5,11.079 8.829,11.75 8,11.75 M11.5,5.75 L6.5,5.75 L6.5,3.75 C6.5,2.233 5.267,1 3.75,1 C2.233,1 1,2.233 1,3.75 C1,4.164 1.336,4.5 1.75,4.5 C2.164,4.5 2.5,4.164 2.5,3.75 C2.5,3.061 3.061,2.5 3.75,2.5 C4.439,2.5 5,3.061 5,3.75 L5,5.75 L4.5,5.75 C3.4,5.75 2.5,6.65 2.5,7.75 L2.5,12.75 C2.5,13.85 3.4,14.75 4.5,14.75 L11.5,14.75 C12.6,14.75 13.5,13.85 13.5,12.75 L13.5,7.75 C13.5,6.65 12.6,5.75 11.5,5.75" id="path-1"></path>
    </defs>
    <g id="Symbols" stroke="none" stroke-width="1" fill="none" fill-rule="evenodd">
        <g id="icon/16px/unlock-filled">
            <mask id="mask-2" fill="white">
                <use xlink:href="#path-1"></use>
            </mask>
            <use id="unlock-filled" fill="#42526E" xlink:href="#path-1"></use>
        </g>
    </g>
</svg>
