<?xml version="1.0" encoding="UTF-8"?>
<svg width="16px" height="16px" viewBox="0 0 16 16" version="1.1" xmlns="http://www.w3.org/2000/svg" xmlns:xlink="http://www.w3.org/1999/xlink">
    <!-- Generator: Sketch 48.2 (47327) - http://www.bohemiancoding.com/sketch -->
    <title>icon/16px/upload-16px</title>
    <desc>Created with Sketch.</desc>
    <defs>
        <path d="M7.99229973,5.95670924 C7.99486316,5.95668061 7.99742994,5.95666625 8,5.95666625 C8.12303455,5.95666625 8.23848348,5.98956161 8.33813596,6.0470699 C8.39920414,6.08052748 8.45656403,6.12327181 8.50810885,6.1753029 L9.84649209,7.5239028 C10.1087198,7.78885501 10.1087198,8.21795497 9.84581098,8.48290718 C9.58290211,8.74785938 9.15720769,8.74717827 8.89429882,8.48222607 L8.68127383,8.26744713 L8.68179217,13.4441201 C8.68179217,13.823499 8.37733553,14.129999 8.00068111,14.129999 C7.62470781,14.1306801 7.31957005,13.823499 7.31957005,13.4441201 L7.31904848,8.23572841 L7.10570118,8.45089496 C6.84279231,8.71584716 6.41709789,8.71584716 6.15418902,8.45089496 C5.89059904,8.18594275 5.89059904,7.75616167 6.15418902,7.49120947 L7.46056004,6.17462179 C7.6056367,6.02954514 7.79498557,5.95666625 7.98433445,5.95666625 C7.98698945,5.95666625 7.98964459,5.95668058 7.99229973,5.95670924 Z M5.23332687,3.55983643 C6.00775015,2.48368095 7.31957005,1.88430322 8.6647644,1.86999989 C10.594352,1.89656322 12.1922386,3.15321312 12.6737841,4.99698077 C13.9174929,5.27691741 14.8111106,6.41028622 14.8111106,7.77182723 C14.8111106,9.33157156 13.5204051,10.7244437 12.0492053,10.7244437 L9.34928101,10.7244437 L9.34928101,9.36698933 L12.0492053,9.36698933 C12.7868485,9.36698933 13.4591052,8.59392828 13.4591052,7.77182723 C13.4591052,6.95517507 12.8869719,6.30198956 12.1132297,6.30198956 L11.9402275,6.30198956 C11.9327353,6.30198956 11.9334164,6.298584 11.9245619,6.298584 C11.519982,6.298584 11.4716231,5.9410007 11.4716231,5.9410007 L11.440292,5.70942294 C11.2550298,4.28181415 10.0869243,3.25061201 8.66885106,3.22745423 C7.6369678,3.24311978 6.63505343,3.75327197 6.13784236,4.67072857 L6.0356757,4.85258522 C6.0356757,4.85258522 5.85177571,5.18905409 5.43970352,5.02013854 L5.32391464,4.97722855 C5.1304791,4.90979855 4.92818911,4.87506189 4.66323691,4.87506189 L4.65506358,4.87506189 C3.54144699,4.87506189 2.54089485,5.76663627 2.54089485,6.97765173 C2.54089485,8.23430164 3.53395477,9.36698933 4.6625558,9.36698933 L6.62483677,9.36698933 L6.62483677,10.7244437 L4.6625558,10.7244437 C2.81333927,10.7244437 1.18888939,8.95900381 1.18888939,6.97765173 C1.18888939,5.01673299 2.79358705,3.51760754 4.70410358,3.51692643 C4.88187356,3.51692643 5.05896244,3.53122976 5.23332687,3.55983643 Z" id="path-1"></path>
    </defs>
    <g id="Symbols" stroke="none" stroke-width="1" fill="none" fill-rule="evenodd">
        <g id="icon/16px/upload">
            <mask id="mask-2" fill="white">
                <use xlink:href="#path-1"></use>
            </mask>
            <use id="upload-small" fill="#42526E" xlink:href="#path-1"></use>
        </g>
    </g>
</svg>