[
    {
        "relativeUrl": "demonstration/dialog2/",
        "friendlyName": "Component Dialog 2 - Scrollable content test",
        "actions": [
            {
                "action": "waitFor",
                "element": "#dialog-with-lots-of-content-button"
            },
            {
                "action": "click",
                "element": "#dialog-with-lots-of-content-button"
            },
            {
                "action": "waitFor",
                "element": "#dialog-with-lots-of-content"
            }
        ]
    },
    {
        "relativeUrl": "demonstration/dialog2/",
        "friendlyName": "Component Dialog 2 - Dialog with changed primary button order",
        "actions": [
            {
                "action": "waitFor",
                "element": "#dialog-with-changed-focus-order-open-button"
            },
            {
                "action": "click",
                "element": "#dialog-with-changed-focus-order-open-button"
            },
            {
                "action": "waitFor",
                "element": "#dialog-with-changed-focus-order"
            }
        ]
    },
    {
        "relativeUrl": "integrationExamples/dialog2/",
        "friendlyName": "Integration Dialog 2 - Stacking dialog tests",
        "actions": [
            {
                "action": "waitFor",
                "element": "#dialog-stacking-show-button"
            },
            {
                "action": "click",
                "element": "#dialog-stacking-show-button"
            },
            {
                "action": "waitFor",
                "element": "#dialog-stacking-large-open-button"
            },
            {
                "action": "click",
                "element": "#dialog-stacking-large-open-button"
            },
            {
                "action": "waitFor",
                "element": "#dialog-stacking-medium-open-button"
            },
            {
                "action": "click",
                "element": "#dialog-stacking-medium-open-button"
            },
            {
                "action": "waitFor",
                "element": "#dialog-stacking-small-close-button"
            }
        ]
    },
    {
        "relativeUrl": "integrationExamples/dialog2/",
        "friendlyName": "Integration Dialog 2 - Dropdown stacking",
        "actions": [
            {
                "action": "waitFor",
                "element": "#dialog2-dropdown-stacking-show-button"
            },
            {
                "action": "click",
                "element": "#dialog2-dropdown-stacking-show-button"
            },
            {
                "action": "waitFor",
                "element": "#dialog2-dropdown-stacking"
            },
            {
                "action": "click",
                "element": "#dialog2-dropdown-stacking .aui-button.aui-dropdown2-trigger"
            },
            {
                "action": "waitFor",
                "element": "#example-dropdown"
            }
        ]
    },

    {
        "relativeUrl": "demonstration/buttons/",
        "friendlyName": "Component Button",
        "waitFor": ".aui-button"
    },
    {
        "relativeUrl": "integrationExamples/buttons/",
        "friendlyName": "Integration Button",
        "waitFor": ".aui-button.aui-dropdown2-trigger"
    },

    {
        "relativeUrl": "demonstration/dropdown2/",
        "friendlyName": "Component Dropdown 2",
        "actions": [
            {
                "action": "waitFor",
                "element": "#alignment-container-1"
            },
            {
                "action": "click",
                "element": "#alignment-container-1 .aui-dropdown2-trigger.aui-button"
            },
            {
                "action": "waitFor",
                "element": "#aligment-container-left"
            }
        ]
    },
    {
        "relativeUrl": "integrationExamples/dropdown2/",
        "friendlyName": "Integration Dropdown 2",
        "actions": [
            {
                "action": "waitFor",
                "element": "#dropdown2-test-icons"
            },
            {
                "action": "click",
                "element": "#dropdown2-test-icons .aui-dropdown2-trigger"
            },
            {
                "action": "waitFor",
                "element": "#dropdown2-icons"
            }
        ]
    },

    {
        "relativeUrl": "demonstration/select2/",
        "friendlyName": "Component Select 2",
        "actions": [
            {
                "action": "waitFor",
                "element": "#s2id_aui-select2-multi"
            },
            {
                "action": "click",
                "element": "#s2id_aui-select2-multi"
            },
            {
                "action": "waitFor",
                "element": "#select2-drop"
            }
        ]
    },
    {
        "relativeUrl": "demonstration/singleSelect/",
        "friendlyName": "Component Single Select",
        "actions": [
            {
                "action": "waitFor",
                "element": "#foo-fighters0"
            },
            {
                "action": "click",
                "element": "#foo-fighters0"
            },
            {
                "action": "waitFor",
                "element": "#aui-uid-0"
            }
        ]
    },

    {
        "relativeUrl": "demonstration/datePicker/",
        "friendlyName": "Component Date Picker",
        "waitFor": "#test-basic"
    },
    {
        "relativeUrl": "demonstration/datePicker/withIframes/",
        "friendlyName": "Component Date Picker in iframe",
        "waitFor": "#main"
    },

    {
        "relativeUrl": "demonstration/spinner/",
        "friendlyName": "Component Spinner",
        "waitFor": "#main"
    },
    {
        "relativeUrl": "integrationExamples/spinner/",
        "friendlyName": "Integration Spinner",
        "waitFor": "#main"
    },

    {
        "relativeUrl": "demonstration/expander/",
        "friendlyName": "Component Expander",
        "actions": [
            {
                "action": "waitFor",
                "element": "#replace-text-trigger"
            },
            {
                "action": "click",
                "element": "#replace-text-trigger"
            },
            {
                "action": "waitFor",
                "element": "#expander-with-replace-text-content"
            }
        ]
    },
    {
        "relativeUrl": "demonstration/labels/",
        "friendlyName": "Component Label",
        "waitFor": "#main"
    },
    {
        "relativeUrl": "demonstration/progressTracker/",
        "friendlyName": "Component Progress tracker",
        "waitFor": "#main"
    },
    {
        "relativeUrl": "demonstration/textField/",
        "friendlyName": "Component Text Field",
        "waitFor": "#main"
    },

    {
        "relativeUrl": "experimental/avatar/sizes/",
        "friendlyName": "Component Avatar - sizes",
        "waitFor": "#page"
    },
    {
        "relativeUrl": "experimental/avatar/examples/",
        "friendlyName": "Component Avatar - examples",
        "waitFor": "#page"
    },
    {
        "relativeUrl": "experimental/avatar/bulletproofing/",
        "friendlyName": "Component Avatar - bulletproofing",
        "waitFor": "#page"
    },
    {
        "relativeUrl": "experimental/avatar/component/",
        "friendlyName": "Component Avatar - component",
        "waitFor": "#page"
    },
    {
        "relativeUrl": "demonstration/avatars/",
        "friendlyName": "Component Avatar",
        "actions": [
            {
                "action": "waitFor",
                "element": "#main"
            }
        ]
    },

    {
        "relativeUrl": "auiBadge/",
        "friendlyName": "Component Badge",
        "waitFor": "#main"
    },

    {
        "relativeUrl": "closeButton/",
        "friendlyName": "Component Close button",
        "waitFor": "#main"
    },

    {
        "relativeUrl": "help/",
        "friendlyName": "Help text",
        "waitFor": "#main"
    },

    {
        "relativeUrl": "demonstration/inlineDialog2/",
        "friendlyName": "Component Inline Dialog 2",
        "actions": [
            {
                "action": "waitFor",
                "element": "aui-inline-dialog"
            },
            {
                "action": "waitFor",
                "element": "#inline-dialog2-open"
            }
        ]
    },

    {
        "relativeUrl": "forms/default/",
        "friendlyName": "Form - default",
        "waitFor": "#main"
    },
    {
        "relativeUrl": "forms/longLabels/",
        "friendlyName": "Form - long labels",
        "waitFor": "#main"
    },
    {
        "relativeUrl": "forms/topLabels/",
        "friendlyName": "Form - top labels",
        "waitFor": "#main"
    },
    {
        "relativeUrl": "forms/inlineForm/",
        "friendlyName": "Form - inline form",
        "waitFor": "#main"
    },
    {
        "relativeUrl": "forms/inlineHelp/",
        "friendlyName": "Form - inline help",
        "waitFor": "#main"
    },
    {
        "relativeUrl": "forms/fieldsAndStates/",
        "friendlyName": "Form - fields and states",
        "waitFor": "#main"
    },
    {
        "relativeUrl": "forms/dropDownConsistency/",
        "friendlyName": "Form - drop down consistency",
        "waitFor": "#main"
    },
    {
        "relativeUrl": "forms/auiSelectField/",
        "friendlyName": "Form - aui select field",
        "waitFor": "#main"
    },

    {
        "relativeUrl": "i18n/fontStacks/",
        "friendlyName": "I18n font stacks",
        "waitFor": "#main"
    },
    {
        "relativeUrl": "demonstration/lozenges/",
        "friendlyName": "Lozenge",
        "waitFor": "#main"
    },
    {
        "relativeUrl": "messages/",
        "friendlyName": "Message",
        "waitFor": "#main"
    },
    {
        "relativeUrl": "restfultable/",
        "friendlyName": "Restful Table",
        "waitFor": "#main"
    },
    {
        "relativeUrl": "tables/",
        "friendlyName": "Tables",
        "waitFor": "#main"
    },
    {
        "relativeUrl": "tabs/",
        "friendlyName": "Tabs",
        "waitFor": "#main"
    },
    {
        "relativeUrl": "demonstration/toolbar2/",
        "friendlyName": "Toolbar 2",
        "waitFor": "#main"
    },

    {
        "relativeUrl": "demonstration/banners/",
        "friendlyName": "Banner",
        "actions": [
            {
                "action": "waitFor",
                "element": "#show-error-banner"
            },
            {
                "action": "click",
                "element": "#show-error-banner"
            },
            {
                "action": "waitFor",
                "element": ".aui-banner"
            }
        ]
    },

    {
        "relativeUrl": "flags/",
        "friendlyName": "Flags",
        "actions": [
            {
                "action": "waitFor",
                "element": ".aui-flag"
            }
        ]
    },

    {
        "relativeUrl": "forms/formValidation/",
        "friendlyName": "Form Validation",
        "actions": [
            {
                "action": "waitFor",
                "element": "#main"
            }
        ]
    },
    {
        "relativeUrl": "forms/formNotification/",
        "friendlyName": "Form Notification",
        "actions": [
            {
                "action": "waitFor",
                "element": "#main"
            }
        ]
    },
    {
        "relativeUrl": "integrationExamples/formValidationNotification/signup/",
        "friendlyName": "Signup Page",
        "waitFor": "#main"
    },
    {
        "relativeUrl": "integrationExamples/formValidationNotification/createTask/",
        "friendlyName": "Create Bamboo task page",
        "waitFor": "#main"
    },

    {
        "relativeUrl": "progressIndicator/",
        "friendlyName": "Progress indicator",
        "waitFor": "#main"
    },
    {
        "relativeUrl": "experimental/tablesSortable/",
        "friendlyName": "Sortable table",
        "waitFor": "#main"
    },
    {
        "relativeUrl": "demonstration/tooltips/",
        "friendlyName": "Component Tooltip",
        "waitFor": "#main"
    },
    {
        "relativeUrl": "checkboxMultiSelect/",
        "friendlyName": "Checkbox multiselect",
        "waitFor": "#main"
    },

    {
        "relativeUrl": "experimental/pageLayout/layouts/default/",
        "friendlyName": "Layouts - Default Page",
        "waitFor": "#main"
    },
    {
        "relativeUrl": "experimental/pageLayout/layouts/fixed/",
        "friendlyName": "Layouts - Fixed width page",
        "waitFor": "#main"
    },
    {
        "relativeUrl": "experimental/pageLayout/layouts/focused/",
        "friendlyName": "Layouts - Focused task page",
        "waitFor": "#main"
    },
    {
        "relativeUrl": "experimental/pageLayout/layouts/groups/",
        "friendlyName": "Layouts - Groups",
        "waitFor": "#main"
    },
    {
        "relativeUrl": "experimental/pageLayout/layouts/hybrid/",
        "friendlyName": "Layouts - Hybrid page",
        "waitFor": "#main"
    },
    {
        "relativeUrl": "experimental/pageLayout/layouts/module/",
        "friendlyName": "Layouts - Modules",
        "waitFor": "#main"
    },
    {
        "relativeUrl": "experimental/pageLayout/layouts/notification/",
        "friendlyName": "Layouts - Notification",
        "waitFor": "#main"
    },
    {
        "relativeUrl": "experimental/pageLayout/layouts/navigation/default/",
        "friendlyName": "Layouts - Navigation - Default",
        "waitFor": "#main"
    },
    {
        "relativeUrl": "experimental/pageLayout/layouts/navigation/vertical/",
        "friendlyName": "Layouts - Navigation - Vertical",
        "waitFor": "#main"
    },
    {
        "relativeUrl": "experimental/pageLayout/layouts/navigation/horizontal/",
        "friendlyName": "Layouts - Navigation - Horizontal",
        "waitFor": "#main"
    },
    {
        "relativeUrl": "experimental/pageLayout/layouts/simple/",
        "friendlyName": "Layouts - Simple",
        "waitFor": "#content"
    },
    {
        "relativeUrl": "experimental/pageLayout/layouts/tabs/",
        "friendlyName": "Layouts - Tabs",
        "waitFor": "#main"
    },
    {
        "relativeUrl": "experimental/pageLayout/layouts/tests/bulletproofing/",
        "friendlyName": "Layouts - Bulletproofing test",
        "waitFor": "#main"
    },
    {
        "relativeUrl": "experimental/pageLayout/layouts/tests/content/",
        "friendlyName": "Layouts - Content test",
        "waitFor": "#main"
    },
    {
        "relativeUrl": "experimental/pageLayout/layouts/tests/lists/",
        "friendlyName": "Layouts - Lists test",
        "waitFor": "#main"
    },
    {
        "relativeUrl": "experimental/pageLayout/layouts/tests/other/",
        "friendlyName": "Layouts - Other layout tests",
        "waitFor": "#main"
    },
    {
        "relativeUrl": "experimental/pageLayout/layouts/tests/tables/",
        "friendlyName": "Layout - Tables test",
        "waitFor": "#main"
    },

    {
        "relativeUrl": "experimental/pageLayout/header/auiHeader/",
        "friendlyName": "Headers - AUI header",
        "waitFor": "#main"
    },
    {
        "relativeUrl": "experimental/pageLayout/header/pageHeader/",
        "friendlyName": "Headers - Page header",
        "waitFor": "#main"
    },
    {
        "relativeUrl": "experimental/pageLayout/header/pageHeaderBulletproofing/",
        "friendlyName": "Headers - Page header (bulletproofing)",
        "waitFor": "#content"
    },
    {
        "relativeUrl": "experimental/pageLayout/header/pageHeaderVariations/",
        "friendlyName": "Headers - Page header (variations)",
        "waitFor": "#content"
    },

    {
        "relativeUrl": "experimental/pageLayout/panels/content/",
        "friendlyName": "Layouts - Content only",
        "waitFor": "#main"
    },
    {
        "relativeUrl": "experimental/pageLayout/panels/navContent/",
        "friendlyName": "Layouts - Nav + Content",
        "waitFor": "#main"
    },
    {
        "relativeUrl": "experimental/pageLayout/panels/contentSidebar/",
        "friendlyName": "Layouts - Content + Sidebar",
        "waitFor": "#main"
    },
    {
        "relativeUrl": "experimental/pageLayout/panels/navContentSidebar/",
        "friendlyName": "Layouts - Nav + Content + Sidebar",
        "waitFor": "#main"
    },
    {
        "relativeUrl": "experimental/pageLayout/panels/itemItem/",
        "friendlyName": "Layouts - Item + Item",
        "waitFor": "#content"
    },

    {
        "relativeUrl": "experimental/pageLayout/interops/horizontalNav/",
        "friendlyName": "Interops - Horizontal nav",
        "waitFor": "#main"
    },
    {
        "relativeUrl": "experimental/pageLayout/interops/verticalNav/",
        "friendlyName": "Interops - Vertical nav",
        "waitFor": "#main"
    },
    {
        "relativeUrl": "experimental/pageLayout/interops/horizontalTabs/",
        "friendlyName": "Interops - Horizontal tabs",
        "waitFor": "#main"
    },
    {
        "relativeUrl": "experimental/pageLayout/interops/verticalTabs/",
        "friendlyName": "Interops - Vertical tabs",
        "waitFor": "#main"
    },
    {
        "relativeUrl": "experimental/pageLayout/interops/headerMessages/",
        "friendlyName": "Interops - Header messages",
        "waitFor": "#main"
    },
    {
        "relativeUrl": "experimental/pageLayout/interops/headerMessagesBulletproofing/",
        "friendlyName": "Interops - Header messages bulletproofing",
        "waitFor": "#main"
    },

    {
        "relativeUrl": "messages/dialog2Messages/",
        "friendlyName": "Interops - Dialog2 Messages",
        "waitFor": "#content"
    },

    {
        "relativeUrl": "layering/",
        "friendlyName": "Interops - Layering",
        "waitFor": "#main"
    },

    {
        "relativeUrl": "fouc/",
        "friendlyName": "FOUC",
        "waitFor": ".aui-group"
    },

    {
        "relativeUrl": "sidebar/",
        "friendlyName": "Sidebar with most navigation variants",
        "waitFor": "#main"
    },
    {
        "relativeUrl": "sidebar/default/",
        "friendlyName": "Sidebar page",
        "waitFor": "#main"
    },
    {
        "relativeUrl": "sidebar/pageHeader/",
        "friendlyName": "Sidebar with page header",
        "waitFor": "#main"
    },
    {
        "relativeUrl": "sidebar/pageHeaderAndNav/",
        "friendlyName": "Sidebar with page header + nav",
        "waitFor": "#main"
    },
    {
        "relativeUrl": "sidebar/appHeaderAndNav/",
        "friendlyName": "Sidebar with app header",
        "waitFor": "#main"
    },
    {
        "relativeUrl": "sidebar/snapshots/confluence_6_7_0/",
        "friendlyName": "Confluence 6.7.0 snapshot",
        "waitFor": "#page"
    },

    {
        "relativeUrl": "soy/",
        "friendlyName": "Soy test",
        "waitFor": "#main"
    },

    {
        "relativeUrl": "demonstration/checkbox",
        "friendlyName": "Checkbox",
        "waitFor": "#main"
    },

    {
        "relativeUrl": "demonstration/radio",
        "friendlyName": "Radio buttons",
        "waitFor": "#main"
    },

    {
        "relativeUrl": "demonstration/textarea",
        "friendlyName": "Textarea",
        "waitFor": "#main"
    },
    {
        "relativeUrl": "demonstration/icons/",
        "friendlyName": "Icon",
        "waitFor": "#main"
    },
    {
        "relativeUrl": "demonstration/fileUpload",
        "friendlyName": "File upload",
        "waitFor": "#main"
    },
    {
        "relativeUrl": "demonstration/multiSelect",
        "friendlyName": "Multi-select",
        "waitFor": "#main"
    }
]
