{
  "documentTitle": "AUI - Flatapp (aui)Banners",
  "pageUrl": "http://127.0.0.1:7000/demonstration/banners/",
  "issues": [
    {
      "code": "atlassian-color-contrast",
      "type": "error",
      "typeCode": 1,
      "message": "Controls border and background have minimal contrast ratio of 3.",
      "context": "<button class=\"aui-button\" id=\"timer-start\" resolved=\"\">Start timer</button>",
      "selector": "#timer-start",
      "runner": "atl-extended-axe-runner",
      "runnerExtras": {
        "impact": "critical",
        "help": "Controls border and background have minimal contrast ratio of 3.",
        "checks": [
          {
            "id": "border-contrast-ratio",
            "data": {
              "mixedColors": {
                "targetColor": "rgba(235, 237, 240, 1)",
                "surroundingElementsColors": {
                  "top": "rgba(255, 255, 255, 1)",
                  "left": "rgba(255, 255, 255, 1)",
                  "right": "rgba(255, 255, 255, 1)",
                  "bottom": "rgba(255, 255, 255, 1)"
                },
                "borderColors": {
                  "top": "rgba(235, 237, 240, 1)",
                  "left": "rgba(235, 237, 240, 1)",
                  "right": "rgba(235, 237, 240, 1)",
                  "bottom": "rgba(235, 237, 240, 1)"
                }
              },
              "contrastRatio": {
                "top": 1.17,
                "left": 1.17,
                "right": 1.17,
                "bottom": 1.17
              }
            },
            "relatedNodes": [],
            "title": "Contrast issues with border",
            "description": "Contrast issues with border",
            "impact": "critical",
            "message": "Contrast ratio between target's border and surrounding elements is less than 3"
          },
          {
            "id": "background-contrast-ratio",
            "data": {
              "mixedColors": {
                "targetColor": "rgba(235, 237, 240, 1)",
                "surroundingElementsColors": {
                  "top": "rgba(255, 255, 255, 1)",
                  "left": "rgba(255, 255, 255, 1)",
                  "right": "rgba(255, 255, 255, 1)",
                  "bottom": "rgba(255, 255, 255, 1)"
                }
              },
              "contrastRatio": {
                "top": 1.17,
                "left": 1.17,
                "right": 1.17,
                "bottom": 1.17
              }
            },
            "relatedNodes": [],
            "title": "Contrast issues with background",
            "description": "Contrast issues with background",
            "impact": "critical",
            "message": "Contrast ratio between the target's background and surrounding elements is less than 3"
          }
        ]
      }
    },
    {
      "code": "atlassian-color-contrast",
      "type": "error",
      "typeCode": 1,
      "message": "Controls border and background have minimal contrast ratio of 3.",
      "context": "<button class=\"aui-button\" id=\"show-announcement-banner\" resolved=\"\">Show announcement banner</button>",
      "selector": "#show-announcement-banner",
      "runner": "atl-extended-axe-runner",
      "runnerExtras": {
        "impact": "critical",
        "help": "Controls border and background have minimal contrast ratio of 3.",
        "checks": [
          {
            "id": "border-contrast-ratio",
            "data": {
              "mixedColors": {
                "targetColor": "rgba(235, 237, 240, 1)",
                "surroundingElementsColors": {
                  "top": "rgba(255, 255, 255, 1)",
                  "left": "rgba(255, 255, 255, 1)",
                  "right": "rgba(255, 255, 255, 1)",
                  "bottom": "rgba(255, 255, 255, 1)"
                },
                "borderColors": {
                  "top": "rgba(235, 237, 240, 1)",
                  "left": "rgba(235, 237, 240, 1)",
                  "right": "rgba(235, 237, 240, 1)",
                  "bottom": "rgba(235, 237, 240, 1)"
                }
              },
              "contrastRatio": {
                "top": 1.17,
                "left": 1.17,
                "right": 1.17,
                "bottom": 1.17
              }
            },
            "relatedNodes": [],
            "title": "Contrast issues with border",
            "description": "Contrast issues with border",
            "impact": "critical",
            "message": "Contrast ratio between target's border and surrounding elements is less than 3"
          },
          {
            "id": "background-contrast-ratio",
            "data": {
              "mixedColors": {
                "targetColor": "rgba(235, 237, 240, 1)",
                "surroundingElementsColors": {
                  "top": "rgba(255, 255, 255, 1)",
                  "left": "rgba(255, 255, 255, 1)",
                  "right": "rgba(255, 255, 255, 1)",
                  "bottom": "rgba(255, 255, 255, 1)"
                }
              },
              "contrastRatio": {
                "top": 1.17,
                "left": 1.17,
                "right": 1.17,
                "bottom": 1.17
              }
            },
            "relatedNodes": [],
            "title": "Contrast issues with background",
            "description": "Contrast issues with background",
            "impact": "critical",
            "message": "Contrast ratio between the target's background and surrounding elements is less than 3"
          }
        ]
      }
    },
    {
      "code": "atlassian-color-contrast",
      "type": "error",
      "typeCode": 1,
      "message": "Controls border and background have minimal contrast ratio of 3.",
      "context": "<button class=\"aui-button\" id=\"show-warning-banner\" resolved=\"\">Show warning banner</button>",
      "selector": "#show-warning-banner",
      "runner": "atl-extended-axe-runner",
      "runnerExtras": {
        "impact": "critical",
        "help": "Controls border and background have minimal contrast ratio of 3.",
        "checks": [
          {
            "id": "border-contrast-ratio",
            "data": {
              "mixedColors": {
                "targetColor": "rgba(235, 237, 240, 1)",
                "surroundingElementsColors": {
                  "top": "rgba(255, 255, 255, 1)",
                  "left": "rgba(255, 255, 255, 1)",
                  "right": "rgba(255, 255, 255, 1)",
                  "bottom": "rgba(255, 255, 255, 1)"
                },
                "borderColors": {
                  "top": "rgba(235, 237, 240, 1)",
                  "left": "rgba(235, 237, 240, 1)",
                  "right": "rgba(235, 237, 240, 1)",
                  "bottom": "rgba(235, 237, 240, 1)"
                }
              },
              "contrastRatio": {
                "top": 1.17,
                "left": 1.17,
                "right": 1.17,
                "bottom": 1.17
              }
            },
            "relatedNodes": [],
            "title": "Contrast issues with border",
            "description": "Contrast issues with border",
            "impact": "critical",
            "message": "Contrast ratio between target's border and surrounding elements is less than 3"
          },
          {
            "id": "background-contrast-ratio",
            "data": {
              "mixedColors": {
                "targetColor": "rgba(235, 237, 240, 1)",
                "surroundingElementsColors": {
                  "top": "rgba(255, 255, 255, 1)",
                  "left": "rgba(255, 255, 255, 1)",
                  "right": "rgba(255, 255, 255, 1)",
                  "bottom": "rgba(255, 255, 255, 1)"
                }
              },
              "contrastRatio": {
                "top": 1.17,
                "left": 1.17,
                "right": 1.17,
                "bottom": 1.17
              }
            },
            "relatedNodes": [],
            "title": "Contrast issues with background",
            "description": "Contrast issues with background",
            "impact": "critical",
            "message": "Contrast ratio between the target's background and surrounding elements is less than 3"
          }
        ]
      }
    },
    {
      "code": "atlassian-color-contrast",
      "type": "error",
      "typeCode": 1,
      "message": "Controls border and background have minimal contrast ratio of 3.",
      "context": "<button class=\"aui-button\" id=\"show-error-banner\" resolved=\"\">Show error banner</button>",
      "selector": "#show-error-banner",
      "runner": "atl-extended-axe-runner",
      "runnerExtras": {
        "impact": "critical",
        "help": "Controls border and background have minimal contrast ratio of 3.",
        "checks": [
          {
            "id": "border-contrast-ratio",
            "data": {
              "mixedColors": {
                "targetColor": "rgba(223, 226, 230, 1)",
                "surroundingElementsColors": {
                  "top": "rgba(255, 255, 255, 1)",
                  "left": "rgba(255, 255, 255, 1)",
                  "right": "rgba(255, 255, 255, 1)",
                  "bottom": "rgba(255, 255, 255, 1)"
                },
                "borderColors": {
                  "top": "rgba(223, 226, 230, 1)",
                  "left": "rgba(223, 226, 230, 1)",
                  "right": "rgba(223, 226, 230, 1)",
                  "bottom": "rgba(223, 226, 230, 1)"
                }
              },
              "contrastRatio": {
                "top": 1.3,
                "left": 1.3,
                "right": 1.3,
                "bottom": 1.3
              }
            },
            "relatedNodes": [],
            "title": "Contrast issues with border",
            "description": "Contrast issues with border",
            "impact": "critical",
            "message": "Contrast ratio between target's border and surrounding elements is less than 3"
          },
          {
            "id": "background-contrast-ratio",
            "data": {
              "mixedColors": {
                "targetColor": "rgba(223, 226, 230, 1)",
                "surroundingElementsColors": {
                  "top": "rgba(255, 255, 255, 1)",
                  "left": "rgba(255, 255, 255, 1)",
                  "right": "rgba(255, 255, 255, 1)",
                  "bottom": "rgba(255, 255, 255, 1)"
                }
              },
              "contrastRatio": {
                "top": 1.3,
                "left": 1.3,
                "right": 1.3,
                "bottom": 1.3
              }
            },
            "relatedNodes": [],
            "title": "Contrast issues with background",
            "description": "Contrast issues with background",
            "impact": "critical",
            "message": "Contrast ratio between the target's background and surrounding elements is less than 3"
          }
        ]
      }
    }
  ]
}