{
  "documentTitle": "AUI - Flatapp (aui)Select2 Test Page",
  "pageUrl": "http://127.0.0.1:7000/demonstration/select2/",
  "issues": [
    {
      "code": "aria-required-parent",
      "type": "error",
      "typeCode": 1,
      "message": "Certain ARIA roles must be contained by particular parents",
      "context": "<div class=\"select2-result-label\" id=\"select2-result-label-12\" role=\"option\"><span class=\"select2-match\"></s...</div>",
      "selector": "#select2-result-label-12",
      "runner": "atl-extended-axe-runner",
      "runnerExtras": {
        "description": "Ensures elements with an ARIA role that require parent roles are contained by them",
        "impact": "critical",
        "help": "Certain ARIA roles must be contained by particular parents",
        "helpUrl": "https://dequeuniversity.com/rules/axe/4.9/aria-required-parent?application=axeAPI"
      }
    },
    {
      "code": "aria-required-parent",
      "type": "error",
      "typeCode": 1,
      "message": "Certain ARIA roles must be contained by particular parents",
      "context": "<div class=\"select2-result-label\" id=\"select2-result-label-13\" role=\"option\"><span class=\"select2-match\"></s...</div>",
      "selector": "#select2-result-label-13",
      "runner": "atl-extended-axe-runner",
      "runnerExtras": {
        "description": "Ensures elements with an ARIA role that require parent roles are contained by them",
        "impact": "critical",
        "help": "Certain ARIA roles must be contained by particular parents",
        "helpUrl": "https://dequeuniversity.com/rules/axe/4.9/aria-required-parent?application=axeAPI"
      }
    },
    {
      "code": "aria-required-parent",
      "type": "error",
      "typeCode": 1,
      "message": "Certain ARIA roles must be contained by particular parents",
      "context": "<div class=\"select2-result-label\" id=\"select2-result-label-14\" role=\"option\"><span class=\"select2-match\"></s...</div>",
      "selector": "#select2-result-label-14",
      "runner": "atl-extended-axe-runner",
      "runnerExtras": {
        "description": "Ensures elements with an ARIA role that require parent roles are contained by them",
        "impact": "critical",
        "help": "Certain ARIA roles must be contained by particular parents",
        "helpUrl": "https://dequeuniversity.com/rules/axe/4.9/aria-required-parent?application=axeAPI"
      }
    },
    {
      "code": "aria-required-parent",
      "type": "error",
      "typeCode": 1,
      "message": "Certain ARIA roles must be contained by particular parents",
      "context": "<div class=\"select2-result-label\" id=\"select2-result-label-15\" role=\"option\"><span class=\"select2-match\"></s...</div>",
      "selector": "#select2-result-label-15",
      "runner": "atl-extended-axe-runner",
      "runnerExtras": {
        "description": "Ensures elements with an ARIA role that require parent roles are contained by them",
        "impact": "critical",
        "help": "Certain ARIA roles must be contained by particular parents",
        "helpUrl": "https://dequeuniversity.com/rules/axe/4.9/aria-required-parent?application=axeAPI"
      }
    },
    {
      "code": "aria-required-parent",
      "type": "error",
      "typeCode": 1,
      "message": "Certain ARIA roles must be contained by particular parents",
      "context": "<div class=\"select2-result-label\" id=\"select2-result-label-16\" role=\"option\"><span class=\"select2-match\"></s...</div>",
      "selector": "#select2-result-label-16",
      "runner": "atl-extended-axe-runner",
      "runnerExtras": {
        "description": "Ensures elements with an ARIA role that require parent roles are contained by them",
        "impact": "critical",
        "help": "Certain ARIA roles must be contained by particular parents",
        "helpUrl": "https://dequeuniversity.com/rules/axe/4.9/aria-required-parent?application=axeAPI"
      }
    },
    {
      "code": "aria-required-parent",
      "type": "error",
      "typeCode": 1,
      "message": "Certain ARIA roles must be contained by particular parents",
      "context": "<div class=\"select2-result-label\" id=\"select2-result-label-17\" role=\"option\"><span class=\"select2-match\"></s...</div>",
      "selector": "#select2-result-label-17",
      "runner": "atl-extended-axe-runner",
      "runnerExtras": {
        "description": "Ensures elements with an ARIA role that require parent roles are contained by them",
        "impact": "critical",
        "help": "Certain ARIA roles must be contained by particular parents",
        "helpUrl": "https://dequeuniversity.com/rules/axe/4.9/aria-required-parent?application=axeAPI"
      }
    },
    {
      "code": "aria-required-parent",
      "type": "error",
      "typeCode": 1,
      "message": "Certain ARIA roles must be contained by particular parents",
      "context": "<div class=\"select2-result-label\" id=\"select2-result-label-18\" role=\"option\"><span class=\"select2-match\"></s...</div>",
      "selector": "#select2-result-label-18",
      "runner": "atl-extended-axe-runner",
      "runnerExtras": {
        "description": "Ensures elements with an ARIA role that require parent roles are contained by them",
        "impact": "critical",
        "help": "Certain ARIA roles must be contained by particular parents",
        "helpUrl": "https://dequeuniversity.com/rules/axe/4.9/aria-required-parent?application=axeAPI"
      }
    },
    {
      "code": "aria-required-parent",
      "type": "error",
      "typeCode": 1,
      "message": "Certain ARIA roles must be contained by particular parents",
      "context": "<div class=\"select2-result-label\" id=\"select2-result-label-19\" role=\"option\"><span class=\"select2-match\"></s...</div>",
      "selector": "#select2-result-label-19",
      "runner": "atl-extended-axe-runner",
      "runnerExtras": {
        "description": "Ensures elements with an ARIA role that require parent roles are contained by them",
        "impact": "critical",
        "help": "Certain ARIA roles must be contained by particular parents",
        "helpUrl": "https://dequeuniversity.com/rules/axe/4.9/aria-required-parent?application=axeAPI"
      }
    },
    {
      "code": "aria-required-parent",
      "type": "error",
      "typeCode": 1,
      "message": "Certain ARIA roles must be contained by particular parents",
      "context": "<div class=\"select2-result-label\" id=\"select2-result-label-20\" role=\"option\"><span class=\"select2-match\"></s...</div>",
      "selector": "#select2-result-label-20",
      "runner": "atl-extended-axe-runner",
      "runnerExtras": {
        "description": "Ensures elements with an ARIA role that require parent roles are contained by them",
        "impact": "critical",
        "help": "Certain ARIA roles must be contained by particular parents",
        "helpUrl": "https://dequeuniversity.com/rules/axe/4.9/aria-required-parent?application=axeAPI"
      }
    },
    {
      "code": "aria-required-parent",
      "type": "error",
      "typeCode": 1,
      "message": "Certain ARIA roles must be contained by particular parents",
      "context": "<div class=\"select2-result-label\" id=\"select2-result-label-21\" role=\"option\"><span class=\"select2-match\"></s...</div>",
      "selector": "#select2-result-label-21",
      "runner": "atl-extended-axe-runner",
      "runnerExtras": {
        "description": "Ensures elements with an ARIA role that require parent roles are contained by them",
        "impact": "critical",
        "help": "Certain ARIA roles must be contained by particular parents",
        "helpUrl": "https://dequeuniversity.com/rules/axe/4.9/aria-required-parent?application=axeAPI"
      }
    },
    {
      "code": "color-contrast",
      "type": "error",
      "typeCode": 1,
      "message": "Elements must meet minimum color contrast ratio thresholds",
      "context": "<span class=\"select2-chosen\" id=\"select2-chosen-8\">Select a user</span>",
      "selector": "#select2-chosen-8",
      "runner": "atl-extended-axe-runner",
      "runnerExtras": {
        "description": "Ensures the contrast between foreground and background colors meets WCAG 2 AA minimum contrast ratio thresholds",
        "impact": "serious",
        "help": "Elements must meet minimum color contrast ratio thresholds",
        "helpUrl": "https://dequeuniversity.com/rules/axe/4.9/color-contrast?application=axeAPI"
      }
    },
    {
      "code": "color-contrast",
      "type": "error",
      "typeCode": 1,
      "message": "Elements must meet minimum color contrast ratio thresholds",
      "context": "<input type=\"text\" autocomplete=\"off\" autocorrect=\"off\" autocapitalize=\"off\" spellcheck=\"false\" class=\"select2-input select2-default\" id=\"s2id_autogen9\" placeholder=\"\" style=\"width: 476px;\">",
      "selector": "#s2id_autogen9",
      "runner": "atl-extended-axe-runner",
      "runnerExtras": {
        "description": "Ensures the contrast between foreground and background colors meets WCAG 2 AA minimum contrast ratio thresholds",
        "impact": "serious",
        "help": "Elements must meet minimum color contrast ratio thresholds",
        "helpUrl": "https://dequeuniversity.com/rules/axe/4.9/color-contrast?application=axeAPI"
      }
    },
    {
      "code": "color-contrast",
      "type": "error",
      "typeCode": 1,
      "message": "Elements must meet minimum color contrast ratio thresholds",
      "context": "<span class=\"select2-chosen\" id=\"select2-chosen-2\">should show options</span>",
      "selector": "#select2-chosen-2",
      "runner": "atl-extended-axe-runner",
      "runnerExtras": {
        "description": "Ensures the contrast between foreground and background colors meets WCAG 2 AA minimum contrast ratio thresholds",
        "impact": "serious",
        "help": "Elements must meet minimum color contrast ratio thresholds",
        "helpUrl": "https://dequeuniversity.com/rules/axe/4.9/color-contrast?application=axeAPI"
      }
    },
    {
      "code": "color-contrast",
      "type": "error",
      "typeCode": 1,
      "message": "Elements must meet minimum color contrast ratio thresholds",
      "context": "<span class=\"select2-chosen\" id=\"select2-chosen-3\">should show error</span>",
      "selector": "#select2-chosen-3",
      "runner": "atl-extended-axe-runner",
      "runnerExtras": {
        "description": "Ensures the contrast between foreground and background colors meets WCAG 2 AA minimum contrast ratio thresholds",
        "impact": "serious",
        "help": "Elements must meet minimum color contrast ratio thresholds",
        "helpUrl": "https://dequeuniversity.com/rules/axe/4.9/color-contrast?application=axeAPI"
      }
    },
    {
      "code": "color-contrast",
      "type": "error",
      "typeCode": 1,
      "message": "Elements must meet minimum color contrast ratio thresholds",
      "context": "<span class=\"select2-chosen\" id=\"select2-chosen-4\">should automatically close</span>",
      "selector": "#select2-chosen-4",
      "runner": "atl-extended-axe-runner",
      "runnerExtras": {
        "description": "Ensures the contrast between foreground and background colors meets WCAG 2 AA minimum contrast ratio thresholds",
        "impact": "serious",
        "help": "Elements must meet minimum color contrast ratio thresholds",
        "helpUrl": "https://dequeuniversity.com/rules/axe/4.9/color-contrast?application=axeAPI"
      }
    },
    {
      "code": "link-in-text-block",
      "type": "error",
      "typeCode": 1,
      "message": "Links must be distinguishable without relying on color",
      "context": "<a href=\"https://aui.atlassian.com/aui/latest/docs/auiselect2.html\">docs</a>",
      "selector": "#main > div:nth-child(1) > div > h1 > a",
      "runner": "atl-extended-axe-runner",
      "runnerExtras": {
        "description": "Ensure links are distinguished from surrounding text in a way that does not rely on color",
        "impact": "serious",
        "help": "Links must be distinguishable without relying on color",
        "helpUrl": "https://dequeuniversity.com/rules/axe/4.9/link-in-text-block?application=axeAPI"
      }
    },
    {
      "code": "list",
      "type": "error",
      "typeCode": 1,
      "message": "<ul> and <ol> must only directly contain <li>, <script> or <template> elements",
      "context": "<ul class=\"select2-results\"><li class=\"select2-results-dept...</ul>",
      "selector": "#select2-drop > ul",
      "runner": "atl-extended-axe-runner",
      "runnerExtras": {
        "description": "Ensures that lists are structured correctly",
        "impact": "serious",
        "help": "<ul> and <ol> must only directly contain <li>, <script> or <template> elements",
        "helpUrl": "https://dequeuniversity.com/rules/axe/4.9/list?application=axeAPI"
      }
    },
    {
      "code": "list",
      "type": "error",
      "typeCode": 1,
      "message": "<ul> and <ol> must only directly contain <li>, <script> or <template> elements",
      "context": "<ul class=\"select2-result-sub\"><li class=\"select2-results-dept...</ul>",
      "selector": "#select2-drop > ul > li:nth-child(2) > ul",
      "runner": "atl-extended-axe-runner",
      "runnerExtras": {
        "description": "Ensures that lists are structured correctly",
        "impact": "serious",
        "help": "<ul> and <ol> must only directly contain <li>, <script> or <template> elements",
        "helpUrl": "https://dequeuniversity.com/rules/axe/4.9/list?application=axeAPI"
      }
    },
    {
      "code": "scrollable-region-focusable",
      "type": "error",
      "typeCode": 1,
      "message": "Scrollable region must have keyboard access",
      "context": "<ul class=\"select2-results\"><li class=\"select2-results-dept...</ul>",
      "selector": "#select2-drop > ul",
      "runner": "atl-extended-axe-runner",
      "runnerExtras": {
        "description": "Ensure elements that have scrollable content are accessible by keyboard",
        "impact": "serious",
        "help": "Scrollable region must have keyboard access",
        "helpUrl": "https://dequeuniversity.com/rules/axe/4.9/scrollable-region-focusable?application=axeAPI"
      }
    }
  ]
}