{
  "documentTitle": "AUI - Flatapp (aui)AUI Avatars Test Page",
  "pageUrl": "http://127.0.0.1:7000/demonstration/avatars/",
  "issues": [
    {
      "code": "color-contrast",
      "type": "error",
      "typeCode": 1,
      "message": "Elements must meet minimum color contrast ratio thresholds",
      "context": "<button class=\"aui-avatar-group-dropdown-button aui-avatar-inner\" aria-expanded=\"false\" aria-haspopup=\"dialog\">+2</button>",
      "selector": "#avatar-group-section > aui-avatar-group:nth-child(2) > div > button",
      "runner": "atl-extended-axe-runner",
      "runnerExtras": {
        "description": "Ensures the contrast between foreground and background colors meets WCAG 2 AA minimum contrast ratio thresholds",
        "impact": "serious",
        "help": "Elements must meet minimum color contrast ratio thresholds",
        "helpUrl": "https://dequeuniversity.com/rules/axe/4.9/color-contrast?application=axeAPI"
      }
    },
    {
      "code": "color-contrast",
      "type": "error",
      "typeCode": 1,
      "message": "Elements must meet minimum color contrast ratio thresholds",
      "context": "<button class=\"aui-avatar-group-dropdown-button aui-avatar-inner\" aria-expanded=\"false\" aria-haspopup=\"dialog\">+4</button>",
      "selector": "#avatar-group-section > aui-avatar-group:nth-child(3) > div > button",
      "runner": "atl-extended-axe-runner",
      "runnerExtras": {
        "description": "Ensures the contrast between foreground and background colors meets WCAG 2 AA minimum contrast ratio thresholds",
        "impact": "serious",
        "help": "Elements must meet minimum color contrast ratio thresholds",
        "helpUrl": "https://dequeuniversity.com/rules/axe/4.9/color-contrast?application=axeAPI"
      }
    },
    {
      "code": "color-contrast",
      "type": "error",
      "typeCode": 1,
      "message": "Elements must meet minimum color contrast ratio thresholds",
      "context": "<button class=\"aui-avatar-group-dropdown-button aui-avatar-inner\" aria-expanded=\"false\" aria-haspopup=\"dialog\">+2</button>",
      "selector": "#avatar-group-section > aui-avatar-group:nth-child(4) > div > button",
      "runner": "atl-extended-axe-runner",
      "runnerExtras": {
        "description": "Ensures the contrast between foreground and background colors meets WCAG 2 AA minimum contrast ratio thresholds",
        "impact": "serious",
        "help": "Elements must meet minimum color contrast ratio thresholds",
        "helpUrl": "https://dequeuniversity.com/rules/axe/4.9/color-contrast?application=axeAPI"
      }
    },
    {
      "code": "color-contrast",
      "type": "error",
      "typeCode": 1,
      "message": "Elements must meet minimum color contrast ratio thresholds",
      "context": "<button class=\"aui-avatar-group-dropdown-button aui-avatar-inner\" aria-expanded=\"false\" aria-haspopup=\"dialog\">+14</button>",
      "selector": "#avatar-group-test > div > button",
      "runner": "atl-extended-axe-runner",
      "runnerExtras": {
        "description": "Ensures the contrast between foreground and background colors meets WCAG 2 AA minimum contrast ratio thresholds",
        "impact": "serious",
        "help": "Elements must meet minimum color contrast ratio thresholds",
        "helpUrl": "https://dequeuniversity.com/rules/axe/4.9/color-contrast?application=axeAPI"
      }
    }
  ]
}