{
  "documentTitle": "AUI - Flatapp (aui)Form notification",
  "pageUrl": "http://127.0.0.1:7000/forms/formNotification/",
  "issues": [
    {
      "code": "link-in-text-block",
      "type": "error",
      "typeCode": 1,
      "message": "Links must be distinguishable without relying on color",
      "context": "<a href=\"http://www.google.com\">fatal error</a>",
      "selector": "#aui-notification-side2-description > a:nth-child(1)",
      "runner": "atl-extended-axe-runner",
      "runnerExtras": {
        "description": "Ensure links are distinguished from surrounding text in a way that does not rely on color",
        "impact": "serious",
        "help": "Links must be distinguishable without relying on color",
        "helpUrl": "https://dequeuniversity.com/rules/axe/4.9/link-in-text-block?application=axeAPI"
      }
    },
    {
      "code": "link-in-text-block",
      "type": "error",
      "typeCode": 1,
      "message": "Links must be distinguishable without relying on color",
      "context": "<a href=\"http://www.google.com\">unexpected error</a>",
      "selector": "#aui-notification-side2-description > a:nth-child(2)",
      "runner": "atl-extended-axe-runner",
      "runnerExtras": {
        "description": "Ensure links are distinguished from surrounding text in a way that does not rely on color",
        "impact": "serious",
        "help": "Links must be distinguishable without relying on color",
        "helpUrl": "https://dequeuniversity.com/rules/axe/4.9/link-in-text-block?application=axeAPI"
      }
    },
    {
      "code": "link-in-text-block",
      "type": "error",
      "typeCode": 1,
      "message": "Links must be distinguishable without relying on color",
      "context": "<a href=\"http://www.google.com\">user data error</a>",
      "selector": "#aui-notification-side2-description > a:nth-child(3)",
      "runner": "atl-extended-axe-runner",
      "runnerExtras": {
        "description": "Ensure links are distinguished from surrounding text in a way that does not rely on color",
        "impact": "serious",
        "help": "Links must be distinguishable without relying on color",
        "helpUrl": "https://dequeuniversity.com/rules/axe/4.9/link-in-text-block?application=axeAPI"
      }
    },
    {
      "code": "atlassian-color-contrast",
      "type": "error",
      "typeCode": 1,
      "message": "Controls border and background have minimal contrast ratio of 3.",
      "context": "<input class=\"text\" type=\"text\" name=\"aui-notification-side\" id=\"aui-notification-side\" aria-describedby=\"aui-notification-side-description\">",
      "selector": "#aui-notification-side",
      "runner": "atl-extended-axe-runner",
      "runnerExtras": {
        "impact": "critical",
        "help": "Controls border and background have minimal contrast ratio of 3.",
        "checks": [
          {
            "id": "border-contrast-ratio",
            "data": {
              "mixedColors": {
                "targetColor": "rgba(250, 251, 252, 1)",
                "surroundingElementsColors": {
                  "top": "rgba(255, 255, 255, 1)",
                  "left": "rgba(255, 255, 255, 1)",
                  "right": "rgba(255, 255, 255, 1)",
                  "bottom": "rgba(255, 255, 255, 1)"
                },
                "borderColors": {
                  "top": "rgba(223, 225, 230, 1)",
                  "left": "rgba(223, 225, 230, 1)",
                  "right": "rgba(223, 225, 230, 1)",
                  "bottom": "rgba(223, 225, 230, 1)"
                }
              },
              "contrastRatio": {
                "top": 1.31,
                "left": 1.31,
                "right": 1.31,
                "bottom": 1.31
              }
            },
            "relatedNodes": [],
            "title": "Contrast issues with border",
            "description": "Contrast issues with border",
            "impact": "critical",
            "message": "Contrast ratio between target's border and surrounding elements is less than 3"
          },
          {
            "id": "background-contrast-ratio",
            "data": {
              "mixedColors": {
                "targetColor": "rgba(250, 251, 252, 1)",
                "surroundingElementsColors": {
                  "top": "rgba(255, 255, 255, 1)",
                  "left": "rgba(255, 255, 255, 1)",
                  "right": "rgba(255, 255, 255, 1)",
                  "bottom": "rgba(255, 255, 255, 1)"
                }
              },
              "contrastRatio": {
                "top": 1.04,
                "left": 1.04,
                "right": 1.04,
                "bottom": 1.04
              }
            },
            "relatedNodes": [],
            "title": "Contrast issues with background",
            "description": "Contrast issues with background",
            "impact": "critical",
            "message": "Contrast ratio between the target's background and surrounding elements is less than 3"
          }
        ]
      }
    },
    {
      "code": "atlassian-color-contrast",
      "type": "error",
      "typeCode": 1,
      "message": "Controls border and background have minimal contrast ratio of 3.",
      "context": "<input class=\"text\" type=\"text\" name=\"aui-notification-side2\" id=\"aui-notification-side2\" aria-describedby=\"aui-notification-side2-description\">",
      "selector": "#aui-notification-side2",
      "runner": "atl-extended-axe-runner",
      "runnerExtras": {
        "impact": "critical",
        "help": "Controls border and background have minimal contrast ratio of 3.",
        "checks": [
          {
            "id": "border-contrast-ratio",
            "data": {
              "mixedColors": {
                "targetColor": "rgba(250, 251, 252, 1)",
                "surroundingElementsColors": {
                  "top": "rgba(255, 255, 255, 1)",
                  "left": "rgba(255, 255, 255, 1)",
                  "right": "rgba(255, 255, 255, 1)",
                  "bottom": "rgba(255, 255, 255, 1)"
                },
                "borderColors": {
                  "top": "rgba(223, 225, 230, 1)",
                  "left": "rgba(223, 225, 230, 1)",
                  "right": "rgba(223, 225, 230, 1)",
                  "bottom": "rgba(223, 225, 230, 1)"
                }
              },
              "contrastRatio": {
                "top": 1.31,
                "left": 1.31,
                "right": 1.31,
                "bottom": 1.31
              }
            },
            "relatedNodes": [],
            "title": "Contrast issues with border",
            "description": "Contrast issues with border",
            "impact": "critical",
            "message": "Contrast ratio between target's border and surrounding elements is less than 3"
          },
          {
            "id": "background-contrast-ratio",
            "data": {
              "mixedColors": {
                "targetColor": "rgba(250, 251, 252, 1)",
                "surroundingElementsColors": {
                  "top": "rgba(255, 255, 255, 1)",
                  "left": "rgba(255, 255, 255, 1)",
                  "right": "rgba(255, 255, 255, 1)",
                  "bottom": "rgba(255, 255, 255, 1)"
                }
              },
              "contrastRatio": {
                "top": 1.04,
                "left": 1.04,
                "right": 1.04,
                "bottom": 1.04
              }
            },
            "relatedNodes": [],
            "title": "Contrast issues with background",
            "description": "Contrast issues with background",
            "impact": "critical",
            "message": "Contrast ratio between the target's background and surrounding elements is less than 3"
          }
        ]
      }
    },
    {
      "code": "atlassian-color-contrast",
      "type": "error",
      "typeCode": 1,
      "message": "Controls border and background have minimal contrast ratio of 3.",
      "context": "<input class=\"text\" type=\"text\" name=\"aui-notification-side3\" id=\"aui-notification-side3\" aria-describedby=\"aui-notification-side3-description\">",
      "selector": "#aui-notification-side3",
      "runner": "atl-extended-axe-runner",
      "runnerExtras": {
        "impact": "critical",
        "help": "Controls border and background have minimal contrast ratio of 3.",
        "checks": [
          {
            "id": "border-contrast-ratio",
            "data": {
              "mixedColors": {
                "targetColor": "rgba(250, 251, 252, 1)",
                "surroundingElementsColors": {
                  "top": "rgba(255, 255, 255, 1)",
                  "left": "rgba(255, 255, 255, 1)",
                  "right": "rgba(255, 255, 255, 1)",
                  "bottom": "rgba(255, 255, 255, 1)"
                },
                "borderColors": {
                  "top": "rgba(223, 225, 230, 1)",
                  "left": "rgba(223, 225, 230, 1)",
                  "right": "rgba(223, 225, 230, 1)",
                  "bottom": "rgba(223, 225, 230, 1)"
                }
              },
              "contrastRatio": {
                "top": 1.31,
                "left": 1.31,
                "right": 1.31,
                "bottom": 1.31
              }
            },
            "relatedNodes": [],
            "title": "Contrast issues with border",
            "description": "Contrast issues with border",
            "impact": "critical",
            "message": "Contrast ratio between target's border and surrounding elements is less than 3"
          },
          {
            "id": "background-contrast-ratio",
            "data": {
              "mixedColors": {
                "targetColor": "rgba(250, 251, 252, 1)",
                "surroundingElementsColors": {
                  "top": "rgba(255, 255, 255, 1)",
                  "left": "rgba(255, 255, 255, 1)",
                  "right": "rgba(255, 255, 255, 1)",
                  "bottom": "rgba(255, 255, 255, 1)"
                }
              },
              "contrastRatio": {
                "top": 1.04,
                "left": 1.04,
                "right": 1.04,
                "bottom": 1.04
              }
            },
            "relatedNodes": [],
            "title": "Contrast issues with background",
            "description": "Contrast issues with background",
            "impact": "critical",
            "message": "Contrast ratio between the target's background and surrounding elements is less than 3"
          }
        ]
      }
    }
  ]
}