{
  "documentTitle": "AUI - Flatapp (aui)AUI module",
  "pageUrl": "http://127.0.0.1:7000/experimental/pageLayout/layouts/module/",
  "issues": [
    {
      "code": "atlassian-color-contrast",
      "type": "error",
      "typeCode": 1,
      "message": "Controls border and background have minimal contrast ratio of 3.",
      "context": "<button class=\"aui-button\" resolved=\"\">Edit</button>",
      "selector": "#content > div > div > div > div > div:nth-child(1) > div:nth-child(1) > div:nth-child(3) > div > div > div:nth-child(2) > div > button:nth-child(1)",
      "runner": "atl-extended-axe-runner",
      "runnerExtras": {
        "impact": "critical",
        "help": "Controls border and background have minimal contrast ratio of 3.",
        "checks": [
          {
            "id": "border-contrast-ratio",
            "data": {
              "mixedColors": {
                "targetColor": "rgba(160, 201, 217, 1)",
                "surroundingElementsColors": {
                  "top": "rgba(173, 216, 230, 1)",
                  "left": "rgba(173, 216, 230, 1)",
                  "right": "rgba(173, 216, 230, 1)",
                  "bottom": "rgba(173, 216, 230, 1)"
                },
                "borderColors": {
                  "top": "rgba(160, 201, 217, 1)",
                  "left": "rgba(160, 201, 217, 1)",
                  "right": "rgba(160, 201, 217, 1)",
                  "bottom": "rgba(160, 201, 217, 1)"
                }
              },
              "contrastRatio": {
                "top": 1.16,
                "left": 1.16,
                "right": 1.16,
                "bottom": 1.16
              }
            },
            "relatedNodes": [],
            "title": "Contrast issues with border",
            "description": "Contrast issues with border",
            "impact": "critical",
            "message": "Contrast ratio between target's border and surrounding elements is less than 3"
          },
          {
            "id": "background-contrast-ratio",
            "data": {
              "mixedColors": {
                "targetColor": "rgba(160, 201, 217, 1)",
                "surroundingElementsColors": {
                  "top": "rgba(173, 216, 230, 1)",
                  "left": "rgba(173, 216, 230, 1)",
                  "right": "rgba(173, 216, 230, 1)",
                  "bottom": "rgba(173, 216, 230, 1)"
                }
              },
              "contrastRatio": {
                "top": 1.16,
                "left": 1.16,
                "right": 1.16,
                "bottom": 1.16
              }
            },
            "relatedNodes": [],
            "title": "Contrast issues with background",
            "description": "Contrast issues with background",
            "impact": "critical",
            "message": "Contrast ratio between the target's background and surrounding elements is less than 3"
          }
        ]
      }
    },
    {
      "code": "atlassian-color-contrast",
      "type": "error",
      "typeCode": 1,
      "message": "Controls border and background have minimal contrast ratio of 3.",
      "context": "<button class=\"aui-button\" resolved=\"\">View</button>",
      "selector": "#content > div > div > div > div > div:nth-child(1) > div:nth-child(1) > div:nth-child(3) > div > div > div:nth-child(2) > div > button:nth-child(2)",
      "runner": "atl-extended-axe-runner",
      "runnerExtras": {
        "impact": "critical",
        "help": "Controls border and background have minimal contrast ratio of 3.",
        "checks": [
          {
            "id": "border-contrast-ratio",
            "data": {
              "mixedColors": {
                "targetColor": "rgba(160, 201, 217, 1)",
                "surroundingElementsColors": {
                  "top": "rgba(173, 216, 230, 1)",
                  "left": "rgba(173, 216, 230, 1)",
                  "right": "rgba(173, 216, 230, 1)",
                  "bottom": "rgba(173, 216, 230, 1)"
                },
                "borderColors": {
                  "top": "rgba(160, 201, 217, 1)",
                  "left": "rgba(160, 201, 217, 1)",
                  "right": "rgba(160, 201, 217, 1)",
                  "bottom": "rgba(160, 201, 217, 1)"
                }
              },
              "contrastRatio": {
                "top": 1.16,
                "left": 1.16,
                "right": 1.16,
                "bottom": 1.16
              }
            },
            "relatedNodes": [],
            "title": "Contrast issues with border",
            "description": "Contrast issues with border",
            "impact": "critical",
            "message": "Contrast ratio between target's border and surrounding elements is less than 3"
          },
          {
            "id": "background-contrast-ratio",
            "data": {
              "mixedColors": {
                "targetColor": "rgba(160, 201, 217, 1)",
                "surroundingElementsColors": {
                  "top": "rgba(173, 216, 230, 1)",
                  "left": "rgba(173, 216, 230, 1)",
                  "right": "rgba(173, 216, 230, 1)",
                  "bottom": "rgba(173, 216, 230, 1)"
                }
              },
              "contrastRatio": {
                "top": 1.16,
                "left": 1.16,
                "right": 1.16,
                "bottom": 1.16
              }
            },
            "relatedNodes": [],
            "title": "Contrast issues with background",
            "description": "Contrast issues with background",
            "impact": "critical",
            "message": "Contrast ratio between the target's background and surrounding elements is less than 3"
          }
        ]
      }
    },
    {
      "code": "atlassian-color-contrast",
      "type": "error",
      "typeCode": 1,
      "message": "Controls border and background have minimal contrast ratio of 3.",
      "context": "<button class=\"aui-button\" resolved=\"\">More</button>",
      "selector": "#content > div > div > div > div > div:nth-child(1) > div:nth-child(1) > div:nth-child(3) > div > div > div:nth-child(2) > div > button:nth-child(3)",
      "runner": "atl-extended-axe-runner",
      "runnerExtras": {
        "impact": "critical",
        "help": "Controls border and background have minimal contrast ratio of 3.",
        "checks": [
          {
            "id": "border-contrast-ratio",
            "data": {
              "mixedColors": {
                "targetColor": "rgba(160, 201, 217, 1)",
                "surroundingElementsColors": {
                  "top": "rgba(173, 216, 230, 1)",
                  "left": "rgba(173, 216, 230, 1)",
                  "right": "rgba(255, 255, 255, 1)",
                  "bottom": "rgba(173, 216, 230, 1)"
                },
                "borderColors": {
                  "top": "rgba(160, 201, 217, 1)",
                  "left": "rgba(160, 201, 217, 1)",
                  "right": "rgba(160, 201, 217, 1)",
                  "bottom": "rgba(160, 201, 217, 1)"
                }
              },
              "contrastRatio": {
                "top": 1.16,
                "left": 1.16,
                "right": 1.77,
                "bottom": 1.16
              }
            },
            "relatedNodes": [],
            "title": "Contrast issues with border",
            "description": "Contrast issues with border",
            "impact": "critical",
            "message": "Contrast ratio between target's border and surrounding elements is less than 3"
          },
          {
            "id": "background-contrast-ratio",
            "data": {
              "mixedColors": {
                "targetColor": "rgba(160, 201, 217, 1)",
                "surroundingElementsColors": {
                  "top": "rgba(173, 216, 230, 1)",
                  "left": "rgba(173, 216, 230, 1)",
                  "right": "rgba(255, 255, 255, 1)",
                  "bottom": "rgba(173, 216, 230, 1)"
                }
              },
              "contrastRatio": {
                "top": 1.16,
                "left": 1.16,
                "right": 1.77,
                "bottom": 1.16
              }
            },
            "relatedNodes": [],
            "title": "Contrast issues with background",
            "description": "Contrast issues with background",
            "impact": "critical",
            "message": "Contrast ratio between the target's background and surrounding elements is less than 3"
          }
        ]
      }
    },
    {
      "code": "atlassian-color-contrast",
      "type": "error",
      "typeCode": 1,
      "message": "Controls border and background have minimal contrast ratio of 3.",
      "context": "<button class=\"aui-button\" resolved=\"\">Edit</button>",
      "selector": "#content > div > div > div > div > div:nth-child(1) > div:nth-child(2) > div:nth-child(1) > div > div > div:nth-child(2) > div > button:nth-child(1)",
      "runner": "atl-extended-axe-runner",
      "runnerExtras": {
        "impact": "critical",
        "help": "Controls border and background have minimal contrast ratio of 3.",
        "checks": [
          {
            "id": "border-contrast-ratio",
            "data": {
              "mixedColors": {
                "targetColor": "rgba(160, 201, 217, 1)",
                "surroundingElementsColors": {
                  "top": "rgba(173, 216, 230, 1)",
                  "left": "rgba(173, 216, 230, 1)",
                  "right": "rgba(173, 216, 230, 1)",
                  "bottom": "rgba(173, 216, 230, 1)"
                },
                "borderColors": {
                  "top": "rgba(160, 201, 217, 1)",
                  "left": "rgba(160, 201, 217, 1)",
                  "right": "rgba(160, 201, 217, 1)",
                  "bottom": "rgba(160, 201, 217, 1)"
                }
              },
              "contrastRatio": {
                "top": 1.16,
                "left": 1.16,
                "right": 1.16,
                "bottom": 1.16
              }
            },
            "relatedNodes": [],
            "title": "Contrast issues with border",
            "description": "Contrast issues with border",
            "impact": "critical",
            "message": "Contrast ratio between target's border and surrounding elements is less than 3"
          },
          {
            "id": "background-contrast-ratio",
            "data": {
              "mixedColors": {
                "targetColor": "rgba(160, 201, 217, 1)",
                "surroundingElementsColors": {
                  "top": "rgba(173, 216, 230, 1)",
                  "left": "rgba(173, 216, 230, 1)",
                  "right": "rgba(173, 216, 230, 1)",
                  "bottom": "rgba(173, 216, 230, 1)"
                }
              },
              "contrastRatio": {
                "top": 1.16,
                "left": 1.16,
                "right": 1.16,
                "bottom": 1.16
              }
            },
            "relatedNodes": [],
            "title": "Contrast issues with background",
            "description": "Contrast issues with background",
            "impact": "critical",
            "message": "Contrast ratio between the target's background and surrounding elements is less than 3"
          }
        ]
      }
    },
    {
      "code": "atlassian-color-contrast",
      "type": "error",
      "typeCode": 1,
      "message": "Controls border and background have minimal contrast ratio of 3.",
      "context": "<button class=\"aui-button\" resolved=\"\">View</button>",
      "selector": "#content > div > div > div > div > div:nth-child(1) > div:nth-child(2) > div:nth-child(1) > div > div > div:nth-child(2) > div > button:nth-child(2)",
      "runner": "atl-extended-axe-runner",
      "runnerExtras": {
        "impact": "critical",
        "help": "Controls border and background have minimal contrast ratio of 3.",
        "checks": [
          {
            "id": "border-contrast-ratio",
            "data": {
              "mixedColors": {
                "targetColor": "rgba(160, 201, 217, 1)",
                "surroundingElementsColors": {
                  "top": "rgba(173, 216, 230, 1)",
                  "left": "rgba(173, 216, 230, 1)",
                  "right": "rgba(173, 216, 230, 1)",
                  "bottom": "rgba(173, 216, 230, 1)"
                },
                "borderColors": {
                  "top": "rgba(160, 201, 217, 1)",
                  "left": "rgba(160, 201, 217, 1)",
                  "right": "rgba(160, 201, 217, 1)",
                  "bottom": "rgba(160, 201, 217, 1)"
                }
              },
              "contrastRatio": {
                "top": 1.16,
                "left": 1.16,
                "right": 1.16,
                "bottom": 1.16
              }
            },
            "relatedNodes": [],
            "title": "Contrast issues with border",
            "description": "Contrast issues with border",
            "impact": "critical",
            "message": "Contrast ratio between target's border and surrounding elements is less than 3"
          },
          {
            "id": "background-contrast-ratio",
            "data": {
              "mixedColors": {
                "targetColor": "rgba(160, 201, 217, 1)",
                "surroundingElementsColors": {
                  "top": "rgba(173, 216, 230, 1)",
                  "left": "rgba(173, 216, 230, 1)",
                  "right": "rgba(173, 216, 230, 1)",
                  "bottom": "rgba(173, 216, 230, 1)"
                }
              },
              "contrastRatio": {
                "top": 1.16,
                "left": 1.16,
                "right": 1.16,
                "bottom": 1.16
              }
            },
            "relatedNodes": [],
            "title": "Contrast issues with background",
            "description": "Contrast issues with background",
            "impact": "critical",
            "message": "Contrast ratio between the target's background and surrounding elements is less than 3"
          }
        ]
      }
    },
    {
      "code": "atlassian-color-contrast",
      "type": "error",
      "typeCode": 1,
      "message": "Controls border and background have minimal contrast ratio of 3.",
      "context": "<button class=\"aui-button\" resolved=\"\">More</button>",
      "selector": "#content > div > div > div > div > div:nth-child(1) > div:nth-child(2) > div:nth-child(1) > div > div > div:nth-child(2) > div > button:nth-child(3)",
      "runner": "atl-extended-axe-runner",
      "runnerExtras": {
        "impact": "critical",
        "help": "Controls border and background have minimal contrast ratio of 3.",
        "checks": [
          {
            "id": "border-contrast-ratio",
            "data": {
              "mixedColors": {
                "targetColor": "rgba(160, 201, 217, 1)",
                "surroundingElementsColors": {
                  "top": "rgba(173, 216, 230, 1)",
                  "left": "rgba(173, 216, 230, 1)",
                  "right": "rgba(255, 255, 255, 1)",
                  "bottom": "rgba(173, 216, 230, 1)"
                },
                "borderColors": {
                  "top": "rgba(160, 201, 217, 1)",
                  "left": "rgba(160, 201, 217, 1)",
                  "right": "rgba(160, 201, 217, 1)",
                  "bottom": "rgba(160, 201, 217, 1)"
                }
              },
              "contrastRatio": {
                "top": 1.16,
                "left": 1.16,
                "right": 1.77,
                "bottom": 1.16
              }
            },
            "relatedNodes": [],
            "title": "Contrast issues with border",
            "description": "Contrast issues with border",
            "impact": "critical",
            "message": "Contrast ratio between target's border and surrounding elements is less than 3"
          },
          {
            "id": "background-contrast-ratio",
            "data": {
              "mixedColors": {
                "targetColor": "rgba(160, 201, 217, 1)",
                "surroundingElementsColors": {
                  "top": "rgba(173, 216, 230, 1)",
                  "left": "rgba(173, 216, 230, 1)",
                  "right": "rgba(255, 255, 255, 1)",
                  "bottom": "rgba(173, 216, 230, 1)"
                }
              },
              "contrastRatio": {
                "top": 1.16,
                "left": 1.16,
                "right": 1.77,
                "bottom": 1.16
              }
            },
            "relatedNodes": [],
            "title": "Contrast issues with background",
            "description": "Contrast issues with background",
            "impact": "critical",
            "message": "Contrast ratio between the target's background and surrounding elements is less than 3"
          }
        ]
      }
    },
    {
      "code": "atlassian-color-contrast",
      "type": "error",
      "typeCode": 1,
      "message": "Controls border and background have minimal contrast ratio of 3.",
      "context": "<button class=\"aui-button\" resolved=\"\">Edit</button>",
      "selector": "#content > div > div > div > div > div:nth-child(1) > div:nth-child(2) > div:nth-child(3) > div > div > div:nth-child(2) > div > button:nth-child(1)",
      "runner": "atl-extended-axe-runner",
      "runnerExtras": {
        "impact": "critical",
        "help": "Controls border and background have minimal contrast ratio of 3.",
        "checks": [
          {
            "id": "border-contrast-ratio",
            "data": {
              "mixedColors": {
                "targetColor": "rgba(160, 201, 217, 1)",
                "surroundingElementsColors": {
                  "top": "rgba(173, 216, 230, 1)",
                  "left": "rgba(173, 216, 230, 1)",
                  "right": "rgba(173, 216, 230, 1)",
                  "bottom": "rgba(173, 216, 230, 1)"
                },
                "borderColors": {
                  "top": "rgba(160, 201, 217, 1)",
                  "left": "rgba(160, 201, 217, 1)",
                  "right": "rgba(160, 201, 217, 1)",
                  "bottom": "rgba(160, 201, 217, 1)"
                }
              },
              "contrastRatio": {
                "top": 1.16,
                "left": 1.16,
                "right": 1.16,
                "bottom": 1.16
              }
            },
            "relatedNodes": [],
            "title": "Contrast issues with border",
            "description": "Contrast issues with border",
            "impact": "critical",
            "message": "Contrast ratio between target's border and surrounding elements is less than 3"
          },
          {
            "id": "background-contrast-ratio",
            "data": {
              "mixedColors": {
                "targetColor": "rgba(160, 201, 217, 1)",
                "surroundingElementsColors": {
                  "top": "rgba(173, 216, 230, 1)",
                  "left": "rgba(173, 216, 230, 1)",
                  "right": "rgba(173, 216, 230, 1)",
                  "bottom": "rgba(173, 216, 230, 1)"
                }
              },
              "contrastRatio": {
                "top": 1.16,
                "left": 1.16,
                "right": 1.16,
                "bottom": 1.16
              }
            },
            "relatedNodes": [],
            "title": "Contrast issues with background",
            "description": "Contrast issues with background",
            "impact": "critical",
            "message": "Contrast ratio between the target's background and surrounding elements is less than 3"
          }
        ]
      }
    },
    {
      "code": "atlassian-color-contrast",
      "type": "error",
      "typeCode": 1,
      "message": "Controls border and background have minimal contrast ratio of 3.",
      "context": "<button class=\"aui-button\" resolved=\"\">View</button>",
      "selector": "#content > div > div > div > div > div:nth-child(1) > div:nth-child(2) > div:nth-child(3) > div > div > div:nth-child(2) > div > button:nth-child(2)",
      "runner": "atl-extended-axe-runner",
      "runnerExtras": {
        "impact": "critical",
        "help": "Controls border and background have minimal contrast ratio of 3.",
        "checks": [
          {
            "id": "border-contrast-ratio",
            "data": {
              "mixedColors": {
                "targetColor": "rgba(160, 201, 217, 1)",
                "surroundingElementsColors": {
                  "top": "rgba(173, 216, 230, 1)",
                  "left": "rgba(173, 216, 230, 1)",
                  "right": "rgba(173, 216, 230, 1)",
                  "bottom": "rgba(173, 216, 230, 1)"
                },
                "borderColors": {
                  "top": "rgba(160, 201, 217, 1)",
                  "left": "rgba(160, 201, 217, 1)",
                  "right": "rgba(160, 201, 217, 1)",
                  "bottom": "rgba(160, 201, 217, 1)"
                }
              },
              "contrastRatio": {
                "top": 1.16,
                "left": 1.16,
                "right": 1.16,
                "bottom": 1.16
              }
            },
            "relatedNodes": [],
            "title": "Contrast issues with border",
            "description": "Contrast issues with border",
            "impact": "critical",
            "message": "Contrast ratio between target's border and surrounding elements is less than 3"
          },
          {
            "id": "background-contrast-ratio",
            "data": {
              "mixedColors": {
                "targetColor": "rgba(160, 201, 217, 1)",
                "surroundingElementsColors": {
                  "top": "rgba(173, 216, 230, 1)",
                  "left": "rgba(173, 216, 230, 1)",
                  "right": "rgba(173, 216, 230, 1)",
                  "bottom": "rgba(173, 216, 230, 1)"
                }
              },
              "contrastRatio": {
                "top": 1.16,
                "left": 1.16,
                "right": 1.16,
                "bottom": 1.16
              }
            },
            "relatedNodes": [],
            "title": "Contrast issues with background",
            "description": "Contrast issues with background",
            "impact": "critical",
            "message": "Contrast ratio between the target's background and surrounding elements is less than 3"
          }
        ]
      }
    },
    {
      "code": "atlassian-color-contrast",
      "type": "error",
      "typeCode": 1,
      "message": "Controls border and background have minimal contrast ratio of 3.",
      "context": "<button class=\"aui-button\" resolved=\"\">More</button>",
      "selector": "#content > div > div > div > div > div:nth-child(1) > div:nth-child(2) > div:nth-child(3) > div > div > div:nth-child(2) > div > button:nth-child(3)",
      "runner": "atl-extended-axe-runner",
      "runnerExtras": {
        "impact": "critical",
        "help": "Controls border and background have minimal contrast ratio of 3.",
        "checks": [
          {
            "id": "border-contrast-ratio",
            "data": {
              "mixedColors": {
                "targetColor": "rgba(160, 201, 217, 1)",
                "surroundingElementsColors": {
                  "top": "rgba(173, 216, 230, 1)",
                  "left": "rgba(173, 216, 230, 1)",
                  "right": "rgba(255, 255, 255, 1)",
                  "bottom": "rgba(173, 216, 230, 1)"
                },
                "borderColors": {
                  "top": "rgba(160, 201, 217, 1)",
                  "left": "rgba(160, 201, 217, 1)",
                  "right": "rgba(160, 201, 217, 1)",
                  "bottom": "rgba(160, 201, 217, 1)"
                }
              },
              "contrastRatio": {
                "top": 1.16,
                "left": 1.16,
                "right": 1.77,
                "bottom": 1.16
              }
            },
            "relatedNodes": [],
            "title": "Contrast issues with border",
            "description": "Contrast issues with border",
            "impact": "critical",
            "message": "Contrast ratio between target's border and surrounding elements is less than 3"
          },
          {
            "id": "background-contrast-ratio",
            "data": {
              "mixedColors": {
                "targetColor": "rgba(160, 201, 217, 1)",
                "surroundingElementsColors": {
                  "top": "rgba(173, 216, 230, 1)",
                  "left": "rgba(173, 216, 230, 1)",
                  "right": "rgba(255, 255, 255, 1)",
                  "bottom": "rgba(173, 216, 230, 1)"
                }
              },
              "contrastRatio": {
                "top": 1.16,
                "left": 1.16,
                "right": 1.77,
                "bottom": 1.16
              }
            },
            "relatedNodes": [],
            "title": "Contrast issues with background",
            "description": "Contrast issues with background",
            "impact": "critical",
            "message": "Contrast ratio between the target's background and surrounding elements is less than 3"
          }
        ]
      }
    },
    {
      "code": "atlassian-color-contrast",
      "type": "error",
      "typeCode": 1,
      "message": "Controls border and background have minimal contrast ratio of 3.",
      "context": "<button class=\"aui-button\" resolved=\"\">Edit</button>",
      "selector": "#content > div > div > div > div > div:nth-child(2) > div:nth-child(1) > div:nth-child(1) > div:nth-child(2) > div > button:nth-child(1)",
      "runner": "atl-extended-axe-runner",
      "runnerExtras": {
        "impact": "critical",
        "help": "Controls border and background have minimal contrast ratio of 3.",
        "checks": [
          {
            "id": "border-contrast-ratio",
            "data": {
              "mixedColors": {
                "targetColor": "rgba(160, 201, 217, 1)",
                "surroundingElementsColors": {
                  "top": "rgba(173, 216, 230, 1)",
                  "left": "rgba(173, 216, 230, 1)",
                  "right": "rgba(173, 216, 230, 1)",
                  "bottom": "rgba(173, 216, 230, 1)"
                },
                "borderColors": {
                  "top": "rgba(160, 201, 217, 1)",
                  "left": "rgba(160, 201, 217, 1)",
                  "right": "rgba(160, 201, 217, 1)",
                  "bottom": "rgba(160, 201, 217, 1)"
                }
              },
              "contrastRatio": {
                "top": 1.16,
                "left": 1.16,
                "right": 1.16,
                "bottom": 1.16
              }
            },
            "relatedNodes": [],
            "title": "Contrast issues with border",
            "description": "Contrast issues with border",
            "impact": "critical",
            "message": "Contrast ratio between target's border and surrounding elements is less than 3"
          },
          {
            "id": "background-contrast-ratio",
            "data": {
              "mixedColors": {
                "targetColor": "rgba(160, 201, 217, 1)",
                "surroundingElementsColors": {
                  "top": "rgba(173, 216, 230, 1)",
                  "left": "rgba(173, 216, 230, 1)",
                  "right": "rgba(173, 216, 230, 1)",
                  "bottom": "rgba(173, 216, 230, 1)"
                }
              },
              "contrastRatio": {
                "top": 1.16,
                "left": 1.16,
                "right": 1.16,
                "bottom": 1.16
              }
            },
            "relatedNodes": [],
            "title": "Contrast issues with background",
            "description": "Contrast issues with background",
            "impact": "critical",
            "message": "Contrast ratio between the target's background and surrounding elements is less than 3"
          }
        ]
      }
    },
    {
      "code": "atlassian-color-contrast",
      "type": "error",
      "typeCode": 1,
      "message": "Controls border and background have minimal contrast ratio of 3.",
      "context": "<button class=\"aui-button\" resolved=\"\">View</button>",
      "selector": "#content > div > div > div > div > div:nth-child(2) > div:nth-child(1) > div:nth-child(1) > div:nth-child(2) > div > button:nth-child(2)",
      "runner": "atl-extended-axe-runner",
      "runnerExtras": {
        "impact": "critical",
        "help": "Controls border and background have minimal contrast ratio of 3.",
        "checks": [
          {
            "id": "border-contrast-ratio",
            "data": {
              "mixedColors": {
                "targetColor": "rgba(160, 201, 217, 1)",
                "surroundingElementsColors": {
                  "top": "rgba(173, 216, 230, 1)",
                  "left": "rgba(173, 216, 230, 1)",
                  "right": "rgba(173, 216, 230, 1)",
                  "bottom": "rgba(173, 216, 230, 1)"
                },
                "borderColors": {
                  "top": "rgba(160, 201, 217, 1)",
                  "left": "rgba(160, 201, 217, 1)",
                  "right": "rgba(160, 201, 217, 1)",
                  "bottom": "rgba(160, 201, 217, 1)"
                }
              },
              "contrastRatio": {
                "top": 1.16,
                "left": 1.16,
                "right": 1.16,
                "bottom": 1.16
              }
            },
            "relatedNodes": [],
            "title": "Contrast issues with border",
            "description": "Contrast issues with border",
            "impact": "critical",
            "message": "Contrast ratio between target's border and surrounding elements is less than 3"
          },
          {
            "id": "background-contrast-ratio",
            "data": {
              "mixedColors": {
                "targetColor": "rgba(160, 201, 217, 1)",
                "surroundingElementsColors": {
                  "top": "rgba(173, 216, 230, 1)",
                  "left": "rgba(173, 216, 230, 1)",
                  "right": "rgba(173, 216, 230, 1)",
                  "bottom": "rgba(173, 216, 230, 1)"
                }
              },
              "contrastRatio": {
                "top": 1.16,
                "left": 1.16,
                "right": 1.16,
                "bottom": 1.16
              }
            },
            "relatedNodes": [],
            "title": "Contrast issues with background",
            "description": "Contrast issues with background",
            "impact": "critical",
            "message": "Contrast ratio between the target's background and surrounding elements is less than 3"
          }
        ]
      }
    },
    {
      "code": "atlassian-color-contrast",
      "type": "error",
      "typeCode": 1,
      "message": "Controls border and background have minimal contrast ratio of 3.",
      "context": "<button class=\"aui-button\" resolved=\"\">More</button>",
      "selector": "#content > div > div > div > div > div:nth-child(2) > div:nth-child(1) > div:nth-child(1) > div:nth-child(2) > div > button:nth-child(3)",
      "runner": "atl-extended-axe-runner",
      "runnerExtras": {
        "impact": "critical",
        "help": "Controls border and background have minimal contrast ratio of 3.",
        "checks": [
          {
            "id": "border-contrast-ratio",
            "data": {
              "mixedColors": {
                "targetColor": "rgba(160, 201, 217, 1)",
                "surroundingElementsColors": {
                  "top": "rgba(173, 216, 230, 1)",
                  "left": "rgba(173, 216, 230, 1)",
                  "right": "rgba(255, 255, 255, 1)",
                  "bottom": "rgba(173, 216, 230, 1)"
                },
                "borderColors": {
                  "top": "rgba(160, 201, 217, 1)",
                  "left": "rgba(160, 201, 217, 1)",
                  "right": "rgba(160, 201, 217, 1)",
                  "bottom": "rgba(160, 201, 217, 1)"
                }
              },
              "contrastRatio": {
                "top": 1.16,
                "left": 1.16,
                "right": 1.77,
                "bottom": 1.16
              }
            },
            "relatedNodes": [],
            "title": "Contrast issues with border",
            "description": "Contrast issues with border",
            "impact": "critical",
            "message": "Contrast ratio between target's border and surrounding elements is less than 3"
          },
          {
            "id": "background-contrast-ratio",
            "data": {
              "mixedColors": {
                "targetColor": "rgba(160, 201, 217, 1)",
                "surroundingElementsColors": {
                  "top": "rgba(173, 216, 230, 1)",
                  "left": "rgba(173, 216, 230, 1)",
                  "right": "rgba(255, 255, 255, 1)",
                  "bottom": "rgba(173, 216, 230, 1)"
                }
              },
              "contrastRatio": {
                "top": 1.16,
                "left": 1.16,
                "right": 1.77,
                "bottom": 1.16
              }
            },
            "relatedNodes": [],
            "title": "Contrast issues with background",
            "description": "Contrast issues with background",
            "impact": "critical",
            "message": "Contrast ratio between the target's background and surrounding elements is less than 3"
          }
        ]
      }
    },
    {
      "code": "atlassian-color-contrast",
      "type": "error",
      "typeCode": 1,
      "message": "Controls border and background have minimal contrast ratio of 3.",
      "context": "<button class=\"aui-button\" resolved=\"\">Edit</button>",
      "selector": "#content > div > div > div > div > div:nth-child(2) > div:nth-child(2) > div:nth-child(1) > div > div > div:nth-child(2) > div > button:nth-child(1)",
      "runner": "atl-extended-axe-runner",
      "runnerExtras": {
        "impact": "critical",
        "help": "Controls border and background have minimal contrast ratio of 3.",
        "checks": [
          {
            "id": "border-contrast-ratio",
            "data": {
              "mixedColors": {
                "targetColor": "rgba(160, 201, 217, 1)",
                "surroundingElementsColors": {
                  "top": "rgba(173, 216, 230, 1)",
                  "left": "rgba(173, 216, 230, 1)",
                  "right": "rgba(173, 216, 230, 1)",
                  "bottom": "rgba(173, 216, 230, 1)"
                },
                "borderColors": {
                  "top": "rgba(160, 201, 217, 1)",
                  "left": "rgba(160, 201, 217, 1)",
                  "right": "rgba(160, 201, 217, 1)",
                  "bottom": "rgba(160, 201, 217, 1)"
                }
              },
              "contrastRatio": {
                "top": 1.16,
                "left": 1.16,
                "right": 1.16,
                "bottom": 1.16
              }
            },
            "relatedNodes": [],
            "title": "Contrast issues with border",
            "description": "Contrast issues with border",
            "impact": "critical",
            "message": "Contrast ratio between target's border and surrounding elements is less than 3"
          },
          {
            "id": "background-contrast-ratio",
            "data": {
              "mixedColors": {
                "targetColor": "rgba(160, 201, 217, 1)",
                "surroundingElementsColors": {
                  "top": "rgba(173, 216, 230, 1)",
                  "left": "rgba(173, 216, 230, 1)",
                  "right": "rgba(173, 216, 230, 1)",
                  "bottom": "rgba(173, 216, 230, 1)"
                }
              },
              "contrastRatio": {
                "top": 1.16,
                "left": 1.16,
                "right": 1.16,
                "bottom": 1.16
              }
            },
            "relatedNodes": [],
            "title": "Contrast issues with background",
            "description": "Contrast issues with background",
            "impact": "critical",
            "message": "Contrast ratio between the target's background and surrounding elements is less than 3"
          }
        ]
      }
    },
    {
      "code": "atlassian-color-contrast",
      "type": "error",
      "typeCode": 1,
      "message": "Controls border and background have minimal contrast ratio of 3.",
      "context": "<button class=\"aui-button\" resolved=\"\">View</button>",
      "selector": "#content > div > div > div > div > div:nth-child(2) > div:nth-child(2) > div:nth-child(1) > div > div > div:nth-child(2) > div > button:nth-child(2)",
      "runner": "atl-extended-axe-runner",
      "runnerExtras": {
        "impact": "critical",
        "help": "Controls border and background have minimal contrast ratio of 3.",
        "checks": [
          {
            "id": "border-contrast-ratio",
            "data": {
              "mixedColors": {
                "targetColor": "rgba(160, 201, 217, 1)",
                "surroundingElementsColors": {
                  "top": "rgba(173, 216, 230, 1)",
                  "left": "rgba(173, 216, 230, 1)",
                  "right": "rgba(173, 216, 230, 1)",
                  "bottom": "rgba(173, 216, 230, 1)"
                },
                "borderColors": {
                  "top": "rgba(160, 201, 217, 1)",
                  "left": "rgba(160, 201, 217, 1)",
                  "right": "rgba(160, 201, 217, 1)",
                  "bottom": "rgba(160, 201, 217, 1)"
                }
              },
              "contrastRatio": {
                "top": 1.16,
                "left": 1.16,
                "right": 1.16,
                "bottom": 1.16
              }
            },
            "relatedNodes": [],
            "title": "Contrast issues with border",
            "description": "Contrast issues with border",
            "impact": "critical",
            "message": "Contrast ratio between target's border and surrounding elements is less than 3"
          },
          {
            "id": "background-contrast-ratio",
            "data": {
              "mixedColors": {
                "targetColor": "rgba(160, 201, 217, 1)",
                "surroundingElementsColors": {
                  "top": "rgba(173, 216, 230, 1)",
                  "left": "rgba(173, 216, 230, 1)",
                  "right": "rgba(173, 216, 230, 1)",
                  "bottom": "rgba(173, 216, 230, 1)"
                }
              },
              "contrastRatio": {
                "top": 1.16,
                "left": 1.16,
                "right": 1.16,
                "bottom": 1.16
              }
            },
            "relatedNodes": [],
            "title": "Contrast issues with background",
            "description": "Contrast issues with background",
            "impact": "critical",
            "message": "Contrast ratio between the target's background and surrounding elements is less than 3"
          }
        ]
      }
    },
    {
      "code": "atlassian-color-contrast",
      "type": "error",
      "typeCode": 1,
      "message": "Controls border and background have minimal contrast ratio of 3.",
      "context": "<button class=\"aui-button\" resolved=\"\">More</button>",
      "selector": "#content > div > div > div > div > div:nth-child(2) > div:nth-child(2) > div:nth-child(1) > div > div > div:nth-child(2) > div > button:nth-child(3)",
      "runner": "atl-extended-axe-runner",
      "runnerExtras": {
        "impact": "critical",
        "help": "Controls border and background have minimal contrast ratio of 3.",
        "checks": [
          {
            "id": "border-contrast-ratio",
            "data": {
              "mixedColors": {
                "targetColor": "rgba(160, 201, 217, 1)",
                "surroundingElementsColors": {
                  "top": "rgba(173, 216, 230, 1)",
                  "left": "rgba(173, 216, 230, 1)",
                  "right": "rgba(255, 255, 255, 1)",
                  "bottom": "rgba(173, 216, 230, 1)"
                },
                "borderColors": {
                  "top": "rgba(160, 201, 217, 1)",
                  "left": "rgba(160, 201, 217, 1)",
                  "right": "rgba(160, 201, 217, 1)",
                  "bottom": "rgba(160, 201, 217, 1)"
                }
              },
              "contrastRatio": {
                "top": 1.16,
                "left": 1.16,
                "right": 1.77,
                "bottom": 1.16
              }
            },
            "relatedNodes": [],
            "title": "Contrast issues with border",
            "description": "Contrast issues with border",
            "impact": "critical",
            "message": "Contrast ratio between target's border and surrounding elements is less than 3"
          },
          {
            "id": "background-contrast-ratio",
            "data": {
              "mixedColors": {
                "targetColor": "rgba(160, 201, 217, 1)",
                "surroundingElementsColors": {
                  "top": "rgba(173, 216, 230, 1)",
                  "left": "rgba(173, 216, 230, 1)",
                  "right": "rgba(255, 255, 255, 1)",
                  "bottom": "rgba(173, 216, 230, 1)"
                }
              },
              "contrastRatio": {
                "top": 1.16,
                "left": 1.16,
                "right": 1.77,
                "bottom": 1.16
              }
            },
            "relatedNodes": [],
            "title": "Contrast issues with background",
            "description": "Contrast issues with background",
            "impact": "critical",
            "message": "Contrast ratio between the target's background and surrounding elements is less than 3"
          }
        ]
      }
    },
    {
      "code": "atlassian-color-contrast",
      "type": "error",
      "typeCode": 1,
      "message": "Controls border and background have minimal contrast ratio of 3.",
      "context": "<button class=\"aui-button\" resolved=\"\">Edit</button>",
      "selector": "#content > div > div > div > div > div:nth-child(3) > div:nth-child(1) > div:nth-child(1) > div > div > div:nth-child(2) > div > button:nth-child(1)",
      "runner": "atl-extended-axe-runner",
      "runnerExtras": {
        "impact": "critical",
        "help": "Controls border and background have minimal contrast ratio of 3.",
        "checks": [
          {
            "id": "border-contrast-ratio",
            "data": {
              "mixedColors": {
                "targetColor": "rgba(160, 201, 217, 1)",
                "surroundingElementsColors": {
                  "top": "rgba(173, 216, 230, 1)",
                  "left": "rgba(173, 216, 230, 1)",
                  "right": "rgba(173, 216, 230, 1)",
                  "bottom": "rgba(173, 216, 230, 1)"
                },
                "borderColors": {
                  "top": "rgba(160, 201, 217, 1)",
                  "left": "rgba(160, 201, 217, 1)",
                  "right": "rgba(160, 201, 217, 1)",
                  "bottom": "rgba(160, 201, 217, 1)"
                }
              },
              "contrastRatio": {
                "top": 1.16,
                "left": 1.16,
                "right": 1.16,
                "bottom": 1.16
              }
            },
            "relatedNodes": [],
            "title": "Contrast issues with border",
            "description": "Contrast issues with border",
            "impact": "critical",
            "message": "Contrast ratio between target's border and surrounding elements is less than 3"
          },
          {
            "id": "background-contrast-ratio",
            "data": {
              "mixedColors": {
                "targetColor": "rgba(160, 201, 217, 1)",
                "surroundingElementsColors": {
                  "top": "rgba(173, 216, 230, 1)",
                  "left": "rgba(173, 216, 230, 1)",
                  "right": "rgba(173, 216, 230, 1)",
                  "bottom": "rgba(173, 216, 230, 1)"
                }
              },
              "contrastRatio": {
                "top": 1.16,
                "left": 1.16,
                "right": 1.16,
                "bottom": 1.16
              }
            },
            "relatedNodes": [],
            "title": "Contrast issues with background",
            "description": "Contrast issues with background",
            "impact": "critical",
            "message": "Contrast ratio between the target's background and surrounding elements is less than 3"
          }
        ]
      }
    },
    {
      "code": "atlassian-color-contrast",
      "type": "error",
      "typeCode": 1,
      "message": "Controls border and background have minimal contrast ratio of 3.",
      "context": "<button class=\"aui-button\" resolved=\"\">View</button>",
      "selector": "#content > div > div > div > div > div:nth-child(3) > div:nth-child(1) > div:nth-child(1) > div > div > div:nth-child(2) > div > button:nth-child(2)",
      "runner": "atl-extended-axe-runner",
      "runnerExtras": {
        "impact": "critical",
        "help": "Controls border and background have minimal contrast ratio of 3.",
        "checks": [
          {
            "id": "border-contrast-ratio",
            "data": {
              "mixedColors": {
                "targetColor": "rgba(160, 201, 217, 1)",
                "surroundingElementsColors": {
                  "top": "rgba(173, 216, 230, 1)",
                  "left": "rgba(173, 216, 230, 1)",
                  "right": "rgba(173, 216, 230, 1)",
                  "bottom": "rgba(173, 216, 230, 1)"
                },
                "borderColors": {
                  "top": "rgba(160, 201, 217, 1)",
                  "left": "rgba(160, 201, 217, 1)",
                  "right": "rgba(160, 201, 217, 1)",
                  "bottom": "rgba(160, 201, 217, 1)"
                }
              },
              "contrastRatio": {
                "top": 1.16,
                "left": 1.16,
                "right": 1.16,
                "bottom": 1.16
              }
            },
            "relatedNodes": [],
            "title": "Contrast issues with border",
            "description": "Contrast issues with border",
            "impact": "critical",
            "message": "Contrast ratio between target's border and surrounding elements is less than 3"
          },
          {
            "id": "background-contrast-ratio",
            "data": {
              "mixedColors": {
                "targetColor": "rgba(160, 201, 217, 1)",
                "surroundingElementsColors": {
                  "top": "rgba(173, 216, 230, 1)",
                  "left": "rgba(173, 216, 230, 1)",
                  "right": "rgba(173, 216, 230, 1)",
                  "bottom": "rgba(173, 216, 230, 1)"
                }
              },
              "contrastRatio": {
                "top": 1.16,
                "left": 1.16,
                "right": 1.16,
                "bottom": 1.16
              }
            },
            "relatedNodes": [],
            "title": "Contrast issues with background",
            "description": "Contrast issues with background",
            "impact": "critical",
            "message": "Contrast ratio between the target's background and surrounding elements is less than 3"
          }
        ]
      }
    },
    {
      "code": "atlassian-color-contrast",
      "type": "error",
      "typeCode": 1,
      "message": "Controls border and background have minimal contrast ratio of 3.",
      "context": "<button class=\"aui-button\" resolved=\"\">More</button>",
      "selector": "#content > div > div > div > div > div:nth-child(3) > div:nth-child(1) > div:nth-child(1) > div > div > div:nth-child(2) > div > button:nth-child(3)",
      "runner": "atl-extended-axe-runner",
      "runnerExtras": {
        "impact": "critical",
        "help": "Controls border and background have minimal contrast ratio of 3.",
        "checks": [
          {
            "id": "border-contrast-ratio",
            "data": {
              "mixedColors": {
                "targetColor": "rgba(160, 201, 217, 1)",
                "surroundingElementsColors": {
                  "top": "rgba(173, 216, 230, 1)",
                  "left": "rgba(173, 216, 230, 1)",
                  "right": "rgba(255, 255, 255, 1)",
                  "bottom": "rgba(173, 216, 230, 1)"
                },
                "borderColors": {
                  "top": "rgba(160, 201, 217, 1)",
                  "left": "rgba(160, 201, 217, 1)",
                  "right": "rgba(160, 201, 217, 1)",
                  "bottom": "rgba(160, 201, 217, 1)"
                }
              },
              "contrastRatio": {
                "top": 1.16,
                "left": 1.16,
                "right": 1.77,
                "bottom": 1.16
              }
            },
            "relatedNodes": [],
            "title": "Contrast issues with border",
            "description": "Contrast issues with border",
            "impact": "critical",
            "message": "Contrast ratio between target's border and surrounding elements is less than 3"
          },
          {
            "id": "background-contrast-ratio",
            "data": {
              "mixedColors": {
                "targetColor": "rgba(160, 201, 217, 1)",
                "surroundingElementsColors": {
                  "top": "rgba(173, 216, 230, 1)",
                  "left": "rgba(173, 216, 230, 1)",
                  "right": "rgba(255, 255, 255, 1)",
                  "bottom": "rgba(173, 216, 230, 1)"
                }
              },
              "contrastRatio": {
                "top": 1.16,
                "left": 1.16,
                "right": 1.77,
                "bottom": 1.16
              }
            },
            "relatedNodes": [],
            "title": "Contrast issues with background",
            "description": "Contrast issues with background",
            "impact": "critical",
            "message": "Contrast ratio between the target's background and surrounding elements is less than 3"
          }
        ]
      }
    },
    {
      "code": "atlassian-color-contrast",
      "type": "error",
      "typeCode": 1,
      "message": "Controls border and background have minimal contrast ratio of 3.",
      "context": "<button class=\"aui-button\" resolved=\"\">Edit</button>",
      "selector": "#content > div > div > div > div > div:nth-child(3) > div:nth-child(2) > div:nth-child(1) > div > div > div:nth-child(2) > div > button:nth-child(1)",
      "runner": "atl-extended-axe-runner",
      "runnerExtras": {
        "impact": "critical",
        "help": "Controls border and background have minimal contrast ratio of 3.",
        "checks": [
          {
            "id": "border-contrast-ratio",
            "data": {
              "mixedColors": {
                "targetColor": "rgba(160, 201, 217, 1)",
                "surroundingElementsColors": {
                  "top": "rgba(173, 216, 230, 1)",
                  "left": "rgba(173, 216, 230, 1)",
                  "right": "rgba(173, 216, 230, 1)",
                  "bottom": "rgba(173, 216, 230, 1)"
                },
                "borderColors": {
                  "top": "rgba(160, 201, 217, 1)",
                  "left": "rgba(160, 201, 217, 1)",
                  "right": "rgba(160, 201, 217, 1)",
                  "bottom": "rgba(160, 201, 217, 1)"
                }
              },
              "contrastRatio": {
                "top": 1.16,
                "left": 1.16,
                "right": 1.16,
                "bottom": 1.16
              }
            },
            "relatedNodes": [],
            "title": "Contrast issues with border",
            "description": "Contrast issues with border",
            "impact": "critical",
            "message": "Contrast ratio between target's border and surrounding elements is less than 3"
          },
          {
            "id": "background-contrast-ratio",
            "data": {
              "mixedColors": {
                "targetColor": "rgba(160, 201, 217, 1)",
                "surroundingElementsColors": {
                  "top": "rgba(173, 216, 230, 1)",
                  "left": "rgba(173, 216, 230, 1)",
                  "right": "rgba(173, 216, 230, 1)",
                  "bottom": "rgba(173, 216, 230, 1)"
                }
              },
              "contrastRatio": {
                "top": 1.16,
                "left": 1.16,
                "right": 1.16,
                "bottom": 1.16
              }
            },
            "relatedNodes": [],
            "title": "Contrast issues with background",
            "description": "Contrast issues with background",
            "impact": "critical",
            "message": "Contrast ratio between the target's background and surrounding elements is less than 3"
          }
        ]
      }
    },
    {
      "code": "atlassian-color-contrast",
      "type": "error",
      "typeCode": 1,
      "message": "Controls border and background have minimal contrast ratio of 3.",
      "context": "<button class=\"aui-button\" resolved=\"\">View</button>",
      "selector": "#content > div > div > div > div > div:nth-child(3) > div:nth-child(2) > div:nth-child(1) > div > div > div:nth-child(2) > div > button:nth-child(2)",
      "runner": "atl-extended-axe-runner",
      "runnerExtras": {
        "impact": "critical",
        "help": "Controls border and background have minimal contrast ratio of 3.",
        "checks": [
          {
            "id": "border-contrast-ratio",
            "data": {
              "mixedColors": {
                "targetColor": "rgba(160, 201, 217, 1)",
                "surroundingElementsColors": {
                  "top": "rgba(173, 216, 230, 1)",
                  "left": "rgba(173, 216, 230, 1)",
                  "right": "rgba(173, 216, 230, 1)",
                  "bottom": "rgba(173, 216, 230, 1)"
                },
                "borderColors": {
                  "top": "rgba(160, 201, 217, 1)",
                  "left": "rgba(160, 201, 217, 1)",
                  "right": "rgba(160, 201, 217, 1)",
                  "bottom": "rgba(160, 201, 217, 1)"
                }
              },
              "contrastRatio": {
                "top": 1.16,
                "left": 1.16,
                "right": 1.16,
                "bottom": 1.16
              }
            },
            "relatedNodes": [],
            "title": "Contrast issues with border",
            "description": "Contrast issues with border",
            "impact": "critical",
            "message": "Contrast ratio between target's border and surrounding elements is less than 3"
          },
          {
            "id": "background-contrast-ratio",
            "data": {
              "mixedColors": {
                "targetColor": "rgba(160, 201, 217, 1)",
                "surroundingElementsColors": {
                  "top": "rgba(173, 216, 230, 1)",
                  "left": "rgba(173, 216, 230, 1)",
                  "right": "rgba(173, 216, 230, 1)",
                  "bottom": "rgba(173, 216, 230, 1)"
                }
              },
              "contrastRatio": {
                "top": 1.16,
                "left": 1.16,
                "right": 1.16,
                "bottom": 1.16
              }
            },
            "relatedNodes": [],
            "title": "Contrast issues with background",
            "description": "Contrast issues with background",
            "impact": "critical",
            "message": "Contrast ratio between the target's background and surrounding elements is less than 3"
          }
        ]
      }
    },
    {
      "code": "atlassian-color-contrast",
      "type": "error",
      "typeCode": 1,
      "message": "Controls border and background have minimal contrast ratio of 3.",
      "context": "<button class=\"aui-button\" resolved=\"\">More</button>",
      "selector": "#content > div > div > div > div > div:nth-child(3) > div:nth-child(2) > div:nth-child(1) > div > div > div:nth-child(2) > div > button:nth-child(3)",
      "runner": "atl-extended-axe-runner",
      "runnerExtras": {
        "impact": "critical",
        "help": "Controls border and background have minimal contrast ratio of 3.",
        "checks": [
          {
            "id": "border-contrast-ratio",
            "data": {
              "mixedColors": {
                "targetColor": "rgba(160, 201, 217, 1)",
                "surroundingElementsColors": {
                  "top": "rgba(173, 216, 230, 1)",
                  "left": "rgba(173, 216, 230, 1)",
                  "right": "rgba(255, 255, 255, 1)",
                  "bottom": "rgba(173, 216, 230, 1)"
                },
                "borderColors": {
                  "top": "rgba(160, 201, 217, 1)",
                  "left": "rgba(160, 201, 217, 1)",
                  "right": "rgba(160, 201, 217, 1)",
                  "bottom": "rgba(160, 201, 217, 1)"
                }
              },
              "contrastRatio": {
                "top": 1.16,
                "left": 1.16,
                "right": 1.77,
                "bottom": 1.16
              }
            },
            "relatedNodes": [],
            "title": "Contrast issues with border",
            "description": "Contrast issues with border",
            "impact": "critical",
            "message": "Contrast ratio between target's border and surrounding elements is less than 3"
          },
          {
            "id": "background-contrast-ratio",
            "data": {
              "mixedColors": {
                "targetColor": "rgba(160, 201, 217, 1)",
                "surroundingElementsColors": {
                  "top": "rgba(173, 216, 230, 1)",
                  "left": "rgba(173, 216, 230, 1)",
                  "right": "rgba(255, 255, 255, 1)",
                  "bottom": "rgba(173, 216, 230, 1)"
                }
              },
              "contrastRatio": {
                "top": 1.16,
                "left": 1.16,
                "right": 1.77,
                "bottom": 1.16
              }
            },
            "relatedNodes": [],
            "title": "Contrast issues with background",
            "description": "Contrast issues with background",
            "impact": "critical",
            "message": "Contrast ratio between the target's background and surrounding elements is less than 3"
          }
        ]
      }
    }
  ]
}