{
  "documentTitle": "AUI - Flatapp (aui)Progress Bar",
  "pageUrl": "http://127.0.0.1:7000/progressIndicator/",
  "issues": [
    {
      "code": "aria-progressbar-name",
      "type": "error",
      "typeCode": 1,
      "message": "ARIA progressbar nodes must have an accessible name",
      "context": "<div class=\"aui-progress-indicator\" data-value=\"0\" role=\"progressbar\" aria-valuemin=\"0\" aria-valuenow=\"0\" aria-valuemax=\"1\" tabindex=\"0\">\n        <span class=\"aui-progr...</div>",
      "selector": "#test-progress-bar > div",
      "runner": "atl-extended-axe-runner",
      "runnerExtras": {
        "description": "Ensures every ARIA progressbar node has an accessible name",
        "impact": "serious",
        "help": "ARIA progressbar nodes must have an accessible name",
        "helpUrl": "https://dequeuniversity.com/rules/axe/4.9/aria-progressbar-name?application=axeAPI"
      }
    },
    {
      "code": "aria-progressbar-name",
      "type": "error",
      "typeCode": 1,
      "message": "ARIA progressbar nodes must have an accessible name",
      "context": "<div class=\"aui-progress-indicator\" role=\"progressbar\" aria-valuemin=\"0\" aria-valuemax=\"1\" tabindex=\"0\">\n        <span class=\"aui-progr...</div>",
      "selector": "#pagecontent > div:nth-child(6) > aui-progressbar > div",
      "runner": "atl-extended-axe-runner",
      "runnerExtras": {
        "description": "Ensures every ARIA progressbar node has an accessible name",
        "impact": "serious",
        "help": "ARIA progressbar nodes must have an accessible name",
        "helpUrl": "https://dequeuniversity.com/rules/axe/4.9/aria-progressbar-name?application=axeAPI"
      }
    },
    {
      "code": "aria-progressbar-name",
      "type": "error",
      "typeCode": 1,
      "message": "ARIA progressbar nodes must have an accessible name",
      "context": "<div class=\"aui-progress-indicator\" role=\"progressbar\" aria-valuemin=\"0\" aria-valuemax=\"1\" tabindex=\"0\">\n        <span class=\"aui-progr...</div>",
      "selector": "#test-toggle-progress-bar > div",
      "runner": "atl-extended-axe-runner",
      "runnerExtras": {
        "description": "Ensures every ARIA progressbar node has an accessible name",
        "impact": "serious",
        "help": "ARIA progressbar nodes must have an accessible name",
        "helpUrl": "https://dequeuniversity.com/rules/axe/4.9/aria-progressbar-name?application=axeAPI"
      }
    },
    {
      "code": "aria-progressbar-name",
      "type": "error",
      "typeCode": 1,
      "message": "ARIA progressbar nodes must have an accessible name",
      "context": "<div class=\"aui-progress-indicator\" data-value=\"0\" role=\"progressbar\" aria-valuemin=\"0\" aria-valuenow=\"0\" aria-valuemax=\"1\" tabindex=\"0\">\n        <span class=\"aui-progr...</div>",
      "selector": "#small-toggle-progress-bar > div",
      "runner": "atl-extended-axe-runner",
      "runnerExtras": {
        "description": "Ensures every ARIA progressbar node has an accessible name",
        "impact": "serious",
        "help": "ARIA progressbar nodes must have an accessible name",
        "helpUrl": "https://dequeuniversity.com/rules/axe/4.9/aria-progressbar-name?application=axeAPI"
      }
    },
    {
      "code": "atlassian-color-contrast",
      "type": "error",
      "typeCode": 1,
      "message": "Controls border and background have minimal contrast ratio of 3.",
      "context": "<button id=\"minus-ten\" class=\"aui-button\" resolved=\"\"> - 10%</button>",
      "selector": "#minus-ten",
      "runner": "atl-extended-axe-runner",
      "runnerExtras": {
        "impact": "critical",
        "help": "Controls border and background have minimal contrast ratio of 3.",
        "checks": [
          {
            "id": "border-contrast-ratio",
            "data": {
              "mixedColors": {
                "targetColor": "rgba(235, 237, 240, 1)",
                "surroundingElementsColors": {
                  "top": "rgba(255, 255, 255, 1)",
                  "left": "rgba(255, 255, 255, 1)",
                  "right": "rgba(255, 255, 255, 1)",
                  "bottom": "rgba(255, 255, 255, 1)"
                },
                "borderColors": {
                  "top": "rgba(235, 237, 240, 1)",
                  "left": "rgba(235, 237, 240, 1)",
                  "right": "rgba(235, 237, 240, 1)",
                  "bottom": "rgba(235, 237, 240, 1)"
                }
              },
              "contrastRatio": {
                "top": 1.17,
                "left": 1.17,
                "right": 1.17,
                "bottom": 1.17
              }
            },
            "relatedNodes": [],
            "title": "Contrast issues with border",
            "description": "Contrast issues with border",
            "impact": "critical",
            "message": "Contrast ratio between target's border and surrounding elements is less than 3"
          },
          {
            "id": "background-contrast-ratio",
            "data": {
              "mixedColors": {
                "targetColor": "rgba(235, 237, 240, 1)",
                "surroundingElementsColors": {
                  "top": "rgba(255, 255, 255, 1)",
                  "left": "rgba(255, 255, 255, 1)",
                  "right": "rgba(255, 255, 255, 1)",
                  "bottom": "rgba(255, 255, 255, 1)"
                }
              },
              "contrastRatio": {
                "top": 1.17,
                "left": 1.17,
                "right": 1.17,
                "bottom": 1.17
              }
            },
            "relatedNodes": [],
            "title": "Contrast issues with background",
            "description": "Contrast issues with background",
            "impact": "critical",
            "message": "Contrast ratio between the target's background and surrounding elements is less than 3"
          }
        ]
      }
    },
    {
      "code": "atlassian-color-contrast",
      "type": "error",
      "typeCode": 1,
      "message": "Controls border and background have minimal contrast ratio of 3.",
      "context": "<button id=\"plus-ten\" class=\"aui-button\" resolved=\"\"> + 10% </button>",
      "selector": "#plus-ten",
      "runner": "atl-extended-axe-runner",
      "runnerExtras": {
        "impact": "critical",
        "help": "Controls border and background have minimal contrast ratio of 3.",
        "checks": [
          {
            "id": "border-contrast-ratio",
            "data": {
              "mixedColors": {
                "targetColor": "rgba(235, 237, 240, 1)",
                "surroundingElementsColors": {
                  "top": "rgba(255, 255, 255, 1)",
                  "left": "rgba(255, 255, 255, 1)",
                  "right": "rgba(255, 255, 255, 1)",
                  "bottom": "rgba(255, 255, 255, 1)"
                },
                "borderColors": {
                  "top": "rgba(235, 237, 240, 1)",
                  "left": "rgba(235, 237, 240, 1)",
                  "right": "rgba(235, 237, 240, 1)",
                  "bottom": "rgba(235, 237, 240, 1)"
                }
              },
              "contrastRatio": {
                "top": 1.17,
                "left": 1.17,
                "right": 1.17,
                "bottom": 1.17
              }
            },
            "relatedNodes": [],
            "title": "Contrast issues with border",
            "description": "Contrast issues with border",
            "impact": "critical",
            "message": "Contrast ratio between target's border and surrounding elements is less than 3"
          },
          {
            "id": "background-contrast-ratio",
            "data": {
              "mixedColors": {
                "targetColor": "rgba(235, 237, 240, 1)",
                "surroundingElementsColors": {
                  "top": "rgba(255, 255, 255, 1)",
                  "left": "rgba(255, 255, 255, 1)",
                  "right": "rgba(255, 255, 255, 1)",
                  "bottom": "rgba(255, 255, 255, 1)"
                }
              },
              "contrastRatio": {
                "top": 1.17,
                "left": 1.17,
                "right": 1.17,
                "bottom": 1.17
              }
            },
            "relatedNodes": [],
            "title": "Contrast issues with background",
            "description": "Contrast issues with background",
            "impact": "critical",
            "message": "Contrast ratio between the target's background and surrounding elements is less than 3"
          }
        ]
      }
    },
    {
      "code": "atlassian-color-contrast",
      "type": "error",
      "typeCode": 1,
      "message": "Controls border and background have minimal contrast ratio of 3.",
      "context": "<button id=\"toggle-progress-button\" class=\"aui-button\" resolved=\"\"> Toggle </button>",
      "selector": "#toggle-progress-button",
      "runner": "atl-extended-axe-runner",
      "runnerExtras": {
        "impact": "critical",
        "help": "Controls border and background have minimal contrast ratio of 3.",
        "checks": [
          {
            "id": "border-contrast-ratio",
            "data": {
              "mixedColors": {
                "targetColor": "rgba(235, 237, 240, 1)",
                "surroundingElementsColors": {
                  "top": "rgba(255, 255, 255, 1)",
                  "left": "rgba(255, 255, 255, 1)",
                  "right": "rgba(255, 255, 255, 1)",
                  "bottom": "rgba(255, 255, 255, 1)"
                },
                "borderColors": {
                  "top": "rgba(235, 237, 240, 1)",
                  "left": "rgba(235, 237, 240, 1)",
                  "right": "rgba(235, 237, 240, 1)",
                  "bottom": "rgba(235, 237, 240, 1)"
                }
              },
              "contrastRatio": {
                "top": 1.17,
                "left": 1.17,
                "right": 1.17,
                "bottom": 1.17
              }
            },
            "relatedNodes": [],
            "title": "Contrast issues with border",
            "description": "Contrast issues with border",
            "impact": "critical",
            "message": "Contrast ratio between target's border and surrounding elements is less than 3"
          },
          {
            "id": "background-contrast-ratio",
            "data": {
              "mixedColors": {
                "targetColor": "rgba(235, 237, 240, 1)",
                "surroundingElementsColors": {
                  "top": "rgba(255, 255, 255, 1)",
                  "left": "rgba(255, 255, 255, 1)",
                  "right": "rgba(255, 255, 255, 1)",
                  "bottom": "rgba(255, 255, 255, 1)"
                }
              },
              "contrastRatio": {
                "top": 1.17,
                "left": 1.17,
                "right": 1.17,
                "bottom": 1.17
              }
            },
            "relatedNodes": [],
            "title": "Contrast issues with background",
            "description": "Contrast issues with background",
            "impact": "critical",
            "message": "Contrast ratio between the target's background and surrounding elements is less than 3"
          }
        ]
      }
    },
    {
      "code": "atlassian-color-contrast",
      "type": "error",
      "typeCode": 1,
      "message": "Controls border and background have minimal contrast ratio of 3.",
      "context": "<button id=\"small-toggle-progress-button\" class=\"aui-button\" resolved=\"\"> Toggle </button>",
      "selector": "#small-toggle-progress-button",
      "runner": "atl-extended-axe-runner",
      "runnerExtras": {
        "impact": "critical",
        "help": "Controls border and background have minimal contrast ratio of 3.",
        "checks": [
          {
            "id": "border-contrast-ratio",
            "data": {
              "mixedColors": {
                "targetColor": "rgba(235, 237, 240, 1)",
                "surroundingElementsColors": {
                  "top": "rgba(255, 255, 255, 1)",
                  "left": "rgba(255, 255, 255, 1)",
                  "right": "rgba(255, 255, 255, 1)",
                  "bottom": "rgba(255, 255, 255, 1)"
                },
                "borderColors": {
                  "top": "rgba(235, 237, 240, 1)",
                  "left": "rgba(235, 237, 240, 1)",
                  "right": "rgba(235, 237, 240, 1)",
                  "bottom": "rgba(235, 237, 240, 1)"
                }
              },
              "contrastRatio": {
                "top": 1.17,
                "left": 1.17,
                "right": 1.17,
                "bottom": 1.17
              }
            },
            "relatedNodes": [],
            "title": "Contrast issues with border",
            "description": "Contrast issues with border",
            "impact": "critical",
            "message": "Contrast ratio between target's border and surrounding elements is less than 3"
          },
          {
            "id": "background-contrast-ratio",
            "data": {
              "mixedColors": {
                "targetColor": "rgba(235, 237, 240, 1)",
                "surroundingElementsColors": {
                  "top": "rgba(255, 255, 255, 1)",
                  "left": "rgba(255, 255, 255, 1)",
                  "right": "rgba(255, 255, 255, 1)",
                  "bottom": "rgba(255, 255, 255, 1)"
                }
              },
              "contrastRatio": {
                "top": 1.17,
                "left": 1.17,
                "right": 1.17,
                "bottom": 1.17
              }
            },
            "relatedNodes": [],
            "title": "Contrast issues with background",
            "description": "Contrast issues with background",
            "impact": "critical",
            "message": "Contrast ratio between the target's background and surrounding elements is less than 3"
          }
        ]
      }
    },
    {
      "code": "atlassian-color-contrast",
      "type": "error",
      "typeCode": 1,
      "message": "Controls border and background have minimal contrast ratio of 3.",
      "context": "<button id=\"minus-ten-static\" class=\"aui-button\" resolved=\"\"> - 10%</button>",
      "selector": "#minus-ten-static",
      "runner": "atl-extended-axe-runner",
      "runnerExtras": {
        "impact": "critical",
        "help": "Controls border and background have minimal contrast ratio of 3.",
        "checks": [
          {
            "id": "border-contrast-ratio",
            "data": {
              "mixedColors": {
                "targetColor": "rgba(235, 237, 240, 1)",
                "surroundingElementsColors": {
                  "top": "rgba(255, 255, 255, 1)",
                  "left": "rgba(255, 255, 255, 1)",
                  "right": "rgba(255, 255, 255, 1)",
                  "bottom": "rgba(255, 255, 255, 1)"
                },
                "borderColors": {
                  "top": "rgba(235, 237, 240, 1)",
                  "left": "rgba(235, 237, 240, 1)",
                  "right": "rgba(235, 237, 240, 1)",
                  "bottom": "rgba(235, 237, 240, 1)"
                }
              },
              "contrastRatio": {
                "top": 1.17,
                "left": 1.17,
                "right": 1.17,
                "bottom": 1.17
              }
            },
            "relatedNodes": [],
            "title": "Contrast issues with border",
            "description": "Contrast issues with border",
            "impact": "critical",
            "message": "Contrast ratio between target's border and surrounding elements is less than 3"
          },
          {
            "id": "background-contrast-ratio",
            "data": {
              "mixedColors": {
                "targetColor": "rgba(235, 237, 240, 1)",
                "surroundingElementsColors": {
                  "top": "rgba(255, 255, 255, 1)",
                  "left": "rgba(255, 255, 255, 1)",
                  "right": "rgba(255, 255, 255, 1)",
                  "bottom": "rgba(255, 255, 255, 1)"
                }
              },
              "contrastRatio": {
                "top": 1.17,
                "left": 1.17,
                "right": 1.17,
                "bottom": 1.17
              }
            },
            "relatedNodes": [],
            "title": "Contrast issues with background",
            "description": "Contrast issues with background",
            "impact": "critical",
            "message": "Contrast ratio between the target's background and surrounding elements is less than 3"
          }
        ]
      }
    },
    {
      "code": "atlassian-color-contrast",
      "type": "error",
      "typeCode": 1,
      "message": "Controls border and background have minimal contrast ratio of 3.",
      "context": "<button id=\"plus-ten-static\" class=\"aui-button\" resolved=\"\"> + 10% </button>",
      "selector": "#plus-ten-static",
      "runner": "atl-extended-axe-runner",
      "runnerExtras": {
        "impact": "critical",
        "help": "Controls border and background have minimal contrast ratio of 3.",
        "checks": [
          {
            "id": "border-contrast-ratio",
            "data": {
              "mixedColors": {
                "targetColor": "rgba(235, 237, 240, 1)",
                "surroundingElementsColors": {
                  "top": "rgba(255, 255, 255, 1)",
                  "left": "rgba(255, 255, 255, 1)",
                  "right": "rgba(255, 255, 255, 1)",
                  "bottom": "rgba(255, 255, 255, 1)"
                },
                "borderColors": {
                  "top": "rgba(235, 237, 240, 1)",
                  "left": "rgba(235, 237, 240, 1)",
                  "right": "rgba(235, 237, 240, 1)",
                  "bottom": "rgba(235, 237, 240, 1)"
                }
              },
              "contrastRatio": {
                "top": 1.17,
                "left": 1.17,
                "right": 1.17,
                "bottom": 1.17
              }
            },
            "relatedNodes": [],
            "title": "Contrast issues with border",
            "description": "Contrast issues with border",
            "impact": "critical",
            "message": "Contrast ratio between target's border and surrounding elements is less than 3"
          },
          {
            "id": "background-contrast-ratio",
            "data": {
              "mixedColors": {
                "targetColor": "rgba(235, 237, 240, 1)",
                "surroundingElementsColors": {
                  "top": "rgba(255, 255, 255, 1)",
                  "left": "rgba(255, 255, 255, 1)",
                  "right": "rgba(255, 255, 255, 1)",
                  "bottom": "rgba(255, 255, 255, 1)"
                }
              },
              "contrastRatio": {
                "top": 1.17,
                "left": 1.17,
                "right": 1.17,
                "bottom": 1.17
              }
            },
            "relatedNodes": [],
            "title": "Contrast issues with background",
            "description": "Contrast issues with background",
            "impact": "critical",
            "message": "Contrast ratio between the target's background and surrounding elements is less than 3"
          }
        ]
      }
    }
  ]
}