{
  "documentTitle": "AUI - Flatapp (aui)AUI Toolbar 2",
  "pageUrl": "http://127.0.0.1:7000/demonstration/toolbar2/",
  "issues": [
    {
      "code": "link-in-text-block",
      "type": "error",
      "typeCode": 1,
      "message": "Links must be distinguishable without relying on color",
      "context": "<a href=\"https://aui.atlassian.com/aui/latest/docs/toolbar2.html\">docs</a>",
      "selector": "#main > div:nth-child(1) > div > h1 > a",
      "runner": "atl-extended-axe-runner",
      "runnerExtras": {
        "description": "Ensure links are distinguished from surrounding text in a way that does not rely on color",
        "impact": "serious",
        "help": "Links must be distinguishable without relying on color",
        "helpUrl": "https://dequeuniversity.com/rules/axe/4.9/link-in-text-block?application=axeAPI"
      }
    }
  ]
}