{
  "documentTitle": "AUI - Flatapp (aui)AUI Date picker test page",
  "pageUrl": "http://127.0.0.1:7000/demonstration/datePicker/",
  "issues": [
    {
      "code": "aria-allowed-attr",
      "type": "error",
      "typeCode": 1,
      "message": "Elements must only use supported ARIA attributes",
      "context": "<input class=\"aui-date-picker\" id=\"test-basic-always\" type=\"text\" aria-controls=\"date-picker1\" placeholder=\"eg. 2020-01-30\" data-aui-dp-uuid=\"date-picker1\" aria-expanded=\"false\" aria-haspopup=\"true\">",
      "selector": "#test-basic-always",
      "runner": "atl-extended-axe-runner",
      "runnerExtras": {
        "description": "Ensures an element's role supports its ARIA attributes",
        "impact": "critical",
        "help": "Elements must only use supported ARIA attributes",
        "helpUrl": "https://dequeuniversity.com/rules/axe/4.9/aria-allowed-attr?application=axeAPI"
      }
    },
    {
      "code": "aria-allowed-attr",
      "type": "error",
      "typeCode": 1,
      "message": "Elements must only use supported ARIA attributes",
      "context": "<input class=\"aui-date-picker\" id=\"test-basic-always-custom-format-1\" type=\"text\" aria-controls=\"date-picker2\" placeholder=\"eg. 2020-01-20\" data-aui-dp-uuid=\"date-picker2\" aria-expanded=\"false\" aria-haspopup=\"true\">",
      "selector": "#test-basic-always-custom-format-1",
      "runner": "atl-extended-axe-runner",
      "runnerExtras": {
        "description": "Ensures an element's role supports its ARIA attributes",
        "impact": "critical",
        "help": "Elements must only use supported ARIA attributes",
        "helpUrl": "https://dequeuniversity.com/rules/axe/4.9/aria-allowed-attr?application=axeAPI"
      }
    },
    {
      "code": "aria-allowed-attr",
      "type": "error",
      "typeCode": 1,
      "message": "Elements must only use supported ARIA attributes",
      "context": "<input class=\"aui-date-picker\" id=\"test-basic-always-custom-format-2\" type=\"text\" aria-controls=\"date-picker3\" placeholder=\"eg. 00-10-30\" data-aui-dp-uuid=\"date-picker3\" aria-expanded=\"false\" aria-haspopup=\"true\">",
      "selector": "#test-basic-always-custom-format-2",
      "runner": "atl-extended-axe-runner",
      "runnerExtras": {
        "description": "Ensures an element's role supports its ARIA attributes",
        "impact": "critical",
        "help": "Elements must only use supported ARIA attributes",
        "helpUrl": "https://dequeuniversity.com/rules/axe/4.9/aria-allowed-attr?application=axeAPI"
      }
    },
    {
      "code": "aria-allowed-attr",
      "type": "error",
      "typeCode": 1,
      "message": "Elements must only use supported ARIA attributes",
      "context": "<input class=\"aui-date-picker\" id=\"test-two-1\" type=\"text\" aria-controls=\"date-picker4\" placeholder=\"eg. 2020-01-29\" data-aui-dp-uuid=\"date-picker4\" aria-expanded=\"false\" aria-haspopup=\"true\">",
      "selector": "#test-two-1",
      "runner": "atl-extended-axe-runner",
      "runnerExtras": {
        "description": "Ensures an element's role supports its ARIA attributes",
        "impact": "critical",
        "help": "Elements must only use supported ARIA attributes",
        "helpUrl": "https://dequeuniversity.com/rules/axe/4.9/aria-allowed-attr?application=axeAPI"
      }
    },
    {
      "code": "aria-allowed-attr",
      "type": "error",
      "typeCode": 1,
      "message": "Elements must only use supported ARIA attributes",
      "context": "<input class=\"aui-date-picker\" id=\"test-two-2\" type=\"text\" aria-controls=\"date-picker5\" placeholder=\"eg. 2020-01-31\" data-aui-dp-uuid=\"date-picker5\" aria-expanded=\"false\" aria-haspopup=\"true\">",
      "selector": "#test-two-2",
      "runner": "atl-extended-axe-runner",
      "runnerExtras": {
        "description": "Ensures an element's role supports its ARIA attributes",
        "impact": "critical",
        "help": "Elements must only use supported ARIA attributes",
        "helpUrl": "https://dequeuniversity.com/rules/axe/4.9/aria-allowed-attr?application=axeAPI"
      }
    },
    {
      "code": "aria-allowed-attr",
      "type": "error",
      "typeCode": 1,
      "message": "Elements must only use supported ARIA attributes",
      "context": "<input class=\"aui-date-picker\" id=\"test-dialog-alignment\" type=\"text\" aria-controls=\"date-picker6\" placeholder=\"eg. 2020-01-29\" data-aui-dp-uuid=\"date-picker6\" aria-expanded=\"false\" aria-haspopup=\"true\">",
      "selector": "#test-dialog-alignment",
      "runner": "atl-extended-axe-runner",
      "runnerExtras": {
        "description": "Ensures an element's role supports its ARIA attributes",
        "impact": "critical",
        "help": "Elements must only use supported ARIA attributes",
        "helpUrl": "https://dequeuniversity.com/rules/axe/4.9/aria-allowed-attr?application=axeAPI"
      }
    },
    {
      "code": "aria-allowed-attr",
      "type": "error",
      "typeCode": 1,
      "message": "Elements must only use supported ARIA attributes",
      "context": "<input class=\"aui-date-picker\" id=\"test-basic-always-hint\" type=\"text\" aria-controls=\"date-picker7\" placeholder=\"eg. 2020-01-29\" data-aui-dp-uuid=\"date-picker7\" aria-expanded=\"false\" aria-haspopup=\"true\">",
      "selector": "#test-basic-always-hint",
      "runner": "atl-extended-axe-runner",
      "runnerExtras": {
        "description": "Ensures an element's role supports its ARIA attributes",
        "impact": "critical",
        "help": "Elements must only use supported ARIA attributes",
        "helpUrl": "https://dequeuniversity.com/rules/axe/4.9/aria-allowed-attr?application=axeAPI"
      }
    },
    {
      "code": "aria-allowed-attr",
      "type": "error",
      "typeCode": 1,
      "message": "Elements must only use supported ARIA attributes",
      "context": "<input class=\"aui-date-picker\" id=\"test-default-always\" type=\"text\" value=\"2012-01-01\" aria-controls=\"date-picker10\" data-aui-dp-uuid=\"date-picker10\" aria-expanded=\"false\" aria-haspopup=\"true\">",
      "selector": "#test-default-always",
      "runner": "atl-extended-axe-runner",
      "runnerExtras": {
        "description": "Ensures an element's role supports its ARIA attributes",
        "impact": "critical",
        "help": "Elements must only use supported ARIA attributes",
        "helpUrl": "https://dequeuniversity.com/rules/axe/4.9/aria-allowed-attr?application=axeAPI"
      }
    },
    {
      "code": "aria-allowed-attr",
      "type": "error",
      "typeCode": 1,
      "message": "Elements must only use supported ARIA attributes",
      "context": "<input class=\"aui-date-picker\" id=\"test-range-always\" type=\"text\" max=\"2012-01-25\" min=\"2012-01-10\" aria-controls=\"date-picker12\" placeholder=\"eg. 2020-01-30\" data-aui-dp-uuid=\"date-picker12\" aria-expanded=\"false\" aria-haspopup=\"true\">",
      "selector": "#test-range-always",
      "runner": "atl-extended-axe-runner",
      "runnerExtras": {
        "description": "Ensures an element's role supports its ARIA attributes",
        "impact": "critical",
        "help": "Elements must only use supported ARIA attributes",
        "helpUrl": "https://dequeuniversity.com/rules/axe/4.9/aria-allowed-attr?application=axeAPI"
      }
    },
    {
      "code": "aria-allowed-attr",
      "type": "error",
      "typeCode": 1,
      "message": "Elements must only use supported ARIA attributes",
      "context": "<input class=\"aui-date-picker\" id=\"test-start-always\" type=\"text\" max=\"2012-01-31\" min=\"2012-01-01\" aria-controls=\"date-picker13\" placeholder=\"eg. 2020-01-30\" data-aui-dp-uuid=\"date-picker13\" aria-expanded=\"false\" aria-haspopup=\"true\">",
      "selector": "#test-start-always",
      "runner": "atl-extended-axe-runner",
      "runnerExtras": {
        "description": "Ensures an element's role supports its ARIA attributes",
        "impact": "critical",
        "help": "Elements must only use supported ARIA attributes",
        "helpUrl": "https://dequeuniversity.com/rules/axe/4.9/aria-allowed-attr?application=axeAPI"
      }
    },
    {
      "code": "aria-allowed-attr",
      "type": "error",
      "typeCode": 1,
      "message": "Elements must only use supported ARIA attributes",
      "context": "<input class=\"aui-date-picker\" id=\"test-lang-always\" type=\"text\" max=\"2012-01-31\" min=\"2012-01-01\" aria-controls=\"date-picker14\" placeholder=\"eg. 2020-01-30\" data-aui-dp-uuid=\"date-picker14\" aria-expanded=\"false\" aria-haspopup=\"true\">",
      "selector": "#test-lang-always",
      "runner": "atl-extended-axe-runner",
      "runnerExtras": {
        "description": "Ensures an element's role supports its ARIA attributes",
        "impact": "critical",
        "help": "Elements must only use supported ARIA attributes",
        "helpUrl": "https://dequeuniversity.com/rules/axe/4.9/aria-allowed-attr?application=axeAPI"
      }
    },
    {
      "code": "aria-allowed-attr",
      "type": "error",
      "typeCode": 1,
      "message": "Elements must only use supported ARIA attributes",
      "context": "<input type=\"text\" class=\"datepicker\" value=\"28 Jun 2000\" aria-controls=\"date-picker15\" data-aui-dp-uuid=\"date-picker15\" aria-expanded=\"false\" aria-haspopup=\"true\">",
      "selector": "#pagecontent > div:nth-child(18) > div:nth-child(3) > input",
      "runner": "atl-extended-axe-runner",
      "runnerExtras": {
        "description": "Ensures an element's role supports its ARIA attributes",
        "impact": "critical",
        "help": "Elements must only use supported ARIA attributes",
        "helpUrl": "https://dequeuniversity.com/rules/axe/4.9/aria-allowed-attr?application=axeAPI"
      }
    },
    {
      "code": "aria-allowed-attr",
      "type": "error",
      "typeCode": 1,
      "message": "Elements must only use supported ARIA attributes",
      "context": "<input type=\"text\" id=\"min-max-attributes\" value=\"26 Jun 2000\" min=\"22 Jun 2000\" max=\"29 Jun 2000\" aria-controls=\"date-picker16\" data-aui-dp-uuid=\"date-picker16\" aria-expanded=\"false\" aria-haspopup=\"true\">",
      "selector": "#min-max-attributes",
      "runner": "atl-extended-axe-runner",
      "runnerExtras": {
        "description": "Ensures an element's role supports its ARIA attributes",
        "impact": "critical",
        "help": "Elements must only use supported ARIA attributes",
        "helpUrl": "https://dequeuniversity.com/rules/axe/4.9/aria-allowed-attr?application=axeAPI"
      }
    },
    {
      "code": "aria-allowed-attr",
      "type": "error",
      "typeCode": 1,
      "message": "Elements must only use supported ARIA attributes",
      "context": "<input type=\"text\" id=\"min-max-config\" value=\"26 Jun 2000\" aria-controls=\"date-picker17\" data-aui-dp-uuid=\"date-picker17\" aria-expanded=\"false\" aria-haspopup=\"true\">",
      "selector": "#min-max-config",
      "runner": "atl-extended-axe-runner",
      "runnerExtras": {
        "description": "Ensures an element's role supports its ARIA attributes",
        "impact": "critical",
        "help": "Elements must only use supported ARIA attributes",
        "helpUrl": "https://dequeuniversity.com/rules/axe/4.9/aria-allowed-attr?application=axeAPI"
      }
    },
    {
      "code": "aria-allowed-attr",
      "type": "error",
      "typeCode": 1,
      "message": "Elements must only use supported ARIA attributes",
      "context": "<input type=\"text\" id=\"min-max-attributes-and-config-1\" value=\"26 Jun 2000\" min=\"22 Jun 2000\" aria-controls=\"date-picker18\" data-aui-dp-uuid=\"date-picker18\" aria-expanded=\"false\" aria-haspopup=\"true\">",
      "selector": "#min-max-attributes-and-config-1",
      "runner": "atl-extended-axe-runner",
      "runnerExtras": {
        "description": "Ensures an element's role supports its ARIA attributes",
        "impact": "critical",
        "help": "Elements must only use supported ARIA attributes",
        "helpUrl": "https://dequeuniversity.com/rules/axe/4.9/aria-allowed-attr?application=axeAPI"
      }
    },
    {
      "code": "aria-allowed-attr",
      "type": "error",
      "typeCode": 1,
      "message": "Elements must only use supported ARIA attributes",
      "context": "<input type=\"text\" id=\"min-max-attributes-and-config-2\" value=\"26 Jun 2000\" max=\"29 Jun 2000\" aria-controls=\"date-picker19\" data-aui-dp-uuid=\"date-picker19\" aria-expanded=\"false\" aria-haspopup=\"true\">",
      "selector": "#min-max-attributes-and-config-2",
      "runner": "atl-extended-axe-runner",
      "runnerExtras": {
        "description": "Ensures an element's role supports its ARIA attributes",
        "impact": "critical",
        "help": "Elements must only use supported ARIA attributes",
        "helpUrl": "https://dequeuniversity.com/rules/axe/4.9/aria-allowed-attr?application=axeAPI"
      }
    },
    {
      "code": "aria-allowed-attr",
      "type": "error",
      "typeCode": 1,
      "message": "Elements must only use supported ARIA attributes",
      "context": "<input type=\"text\" id=\"min-max-attributes-and-config-3\" value=\"26 Jun 2000\" min=\"22 Jun 2000\" max=\"29 Jun 2000\" aria-controls=\"date-picker20\" data-aui-dp-uuid=\"date-picker20\" aria-expanded=\"false\" aria-haspopup=\"true\">",
      "selector": "#min-max-attributes-and-config-3",
      "runner": "atl-extended-axe-runner",
      "runnerExtras": {
        "description": "Ensures an element's role supports its ARIA attributes",
        "impact": "critical",
        "help": "Elements must only use supported ARIA attributes",
        "helpUrl": "https://dequeuniversity.com/rules/axe/4.9/aria-allowed-attr?application=axeAPI"
      }
    },
    {
      "code": "color-contrast",
      "type": "error",
      "typeCode": 1,
      "message": "Elements must meet minimum color contrast ratio thresholds",
      "context": "<span class=\"ui-state-default\">10</span>",
      "selector": "#calendar-widget-container-1 > div:nth-child(1) > table > tbody > tr:nth-child(2) > td:nth-child(7) > span",
      "runner": "atl-extended-axe-runner",
      "runnerExtras": {
        "description": "Ensures the contrast between foreground and background colors meets WCAG 2 AA minimum contrast ratio thresholds",
        "impact": "serious",
        "help": "Elements must meet minimum color contrast ratio thresholds",
        "helpUrl": "https://dequeuniversity.com/rules/axe/4.9/color-contrast?application=axeAPI"
      }
    },
    {
      "code": "color-contrast",
      "type": "error",
      "typeCode": 1,
      "message": "Elements must meet minimum color contrast ratio thresholds",
      "context": "<span class=\"ui-state-default\">11</span>",
      "selector": "#calendar-widget-container-1 > div:nth-child(1) > table > tbody > tr:nth-child(3) > td:nth-child(1) > span",
      "runner": "atl-extended-axe-runner",
      "runnerExtras": {
        "description": "Ensures the contrast between foreground and background colors meets WCAG 2 AA minimum contrast ratio thresholds",
        "impact": "serious",
        "help": "Elements must meet minimum color contrast ratio thresholds",
        "helpUrl": "https://dequeuniversity.com/rules/axe/4.9/color-contrast?application=axeAPI"
      }
    },
    {
      "code": "color-contrast",
      "type": "error",
      "typeCode": 1,
      "message": "Elements must meet minimum color contrast ratio thresholds",
      "context": "<span class=\"ui-state-default\">12</span>",
      "selector": "#calendar-widget-container-1 > div:nth-child(1) > table > tbody > tr:nth-child(3) > td:nth-child(2) > span",
      "runner": "atl-extended-axe-runner",
      "runnerExtras": {
        "description": "Ensures the contrast between foreground and background colors meets WCAG 2 AA minimum contrast ratio thresholds",
        "impact": "serious",
        "help": "Elements must meet minimum color contrast ratio thresholds",
        "helpUrl": "https://dequeuniversity.com/rules/axe/4.9/color-contrast?application=axeAPI"
      }
    },
    {
      "code": "color-contrast",
      "type": "error",
      "typeCode": 1,
      "message": "Elements must meet minimum color contrast ratio thresholds",
      "context": "<span class=\"ui-state-default\">13</span>",
      "selector": "#calendar-widget-container-1 > div:nth-child(1) > table > tbody > tr:nth-child(3) > td:nth-child(3) > span",
      "runner": "atl-extended-axe-runner",
      "runnerExtras": {
        "description": "Ensures the contrast between foreground and background colors meets WCAG 2 AA minimum contrast ratio thresholds",
        "impact": "serious",
        "help": "Elements must meet minimum color contrast ratio thresholds",
        "helpUrl": "https://dequeuniversity.com/rules/axe/4.9/color-contrast?application=axeAPI"
      }
    },
    {
      "code": "color-contrast",
      "type": "error",
      "typeCode": 1,
      "message": "Elements must meet minimum color contrast ratio thresholds",
      "context": "<span class=\"ui-state-default\">14</span>",
      "selector": "#calendar-widget-container-1 > div:nth-child(1) > table > tbody > tr:nth-child(3) > td:nth-child(4) > span",
      "runner": "atl-extended-axe-runner",
      "runnerExtras": {
        "description": "Ensures the contrast between foreground and background colors meets WCAG 2 AA minimum contrast ratio thresholds",
        "impact": "serious",
        "help": "Elements must meet minimum color contrast ratio thresholds",
        "helpUrl": "https://dequeuniversity.com/rules/axe/4.9/color-contrast?application=axeAPI"
      }
    },
    {
      "code": "color-contrast",
      "type": "error",
      "typeCode": 1,
      "message": "Elements must meet minimum color contrast ratio thresholds",
      "context": "<span class=\"ui-state-default\">15</span>",
      "selector": "#calendar-widget-container-1 > div:nth-child(1) > table > tbody > tr:nth-child(3) > td:nth-child(5) > span",
      "runner": "atl-extended-axe-runner",
      "runnerExtras": {
        "description": "Ensures the contrast between foreground and background colors meets WCAG 2 AA minimum contrast ratio thresholds",
        "impact": "serious",
        "help": "Elements must meet minimum color contrast ratio thresholds",
        "helpUrl": "https://dequeuniversity.com/rules/axe/4.9/color-contrast?application=axeAPI"
      }
    },
    {
      "code": "color-contrast",
      "type": "error",
      "typeCode": 1,
      "message": "Elements must meet minimum color contrast ratio thresholds",
      "context": "<span class=\"ui-state-default\">16</span>",
      "selector": "#calendar-widget-container-1 > div:nth-child(1) > table > tbody > tr:nth-child(3) > td:nth-child(6) > span",
      "runner": "atl-extended-axe-runner",
      "runnerExtras": {
        "description": "Ensures the contrast between foreground and background colors meets WCAG 2 AA minimum contrast ratio thresholds",
        "impact": "serious",
        "help": "Elements must meet minimum color contrast ratio thresholds",
        "helpUrl": "https://dequeuniversity.com/rules/axe/4.9/color-contrast?application=axeAPI"
      }
    },
    {
      "code": "color-contrast",
      "type": "error",
      "typeCode": 1,
      "message": "Elements must meet minimum color contrast ratio thresholds",
      "context": "<span class=\"ui-state-default\">17</span>",
      "selector": "#calendar-widget-container-1 > div:nth-child(1) > table > tbody > tr:nth-child(3) > td:nth-child(7) > span",
      "runner": "atl-extended-axe-runner",
      "runnerExtras": {
        "description": "Ensures the contrast between foreground and background colors meets WCAG 2 AA minimum contrast ratio thresholds",
        "impact": "serious",
        "help": "Elements must meet minimum color contrast ratio thresholds",
        "helpUrl": "https://dequeuniversity.com/rules/axe/4.9/color-contrast?application=axeAPI"
      }
    },
    {
      "code": "color-contrast",
      "type": "error",
      "typeCode": 1,
      "message": "Elements must meet minimum color contrast ratio thresholds",
      "context": "<span class=\"ui-state-default\">18</span>",
      "selector": "#calendar-widget-container-1 > div:nth-child(1) > table > tbody > tr:nth-child(4) > td:nth-child(1) > span",
      "runner": "atl-extended-axe-runner",
      "runnerExtras": {
        "description": "Ensures the contrast between foreground and background colors meets WCAG 2 AA minimum contrast ratio thresholds",
        "impact": "serious",
        "help": "Elements must meet minimum color contrast ratio thresholds",
        "helpUrl": "https://dequeuniversity.com/rules/axe/4.9/color-contrast?application=axeAPI"
      }
    },
    {
      "code": "color-contrast",
      "type": "error",
      "typeCode": 1,
      "message": "Elements must meet minimum color contrast ratio thresholds",
      "context": "<span class=\"ui-state-default\">19</span>",
      "selector": "#calendar-widget-container-1 > div:nth-child(1) > table > tbody > tr:nth-child(4) > td:nth-child(2) > span",
      "runner": "atl-extended-axe-runner",
      "runnerExtras": {
        "description": "Ensures the contrast between foreground and background colors meets WCAG 2 AA minimum contrast ratio thresholds",
        "impact": "serious",
        "help": "Elements must meet minimum color contrast ratio thresholds",
        "helpUrl": "https://dequeuniversity.com/rules/axe/4.9/color-contrast?application=axeAPI"
      }
    },
    {
      "code": "color-contrast",
      "type": "error",
      "typeCode": 1,
      "message": "Elements must meet minimum color contrast ratio thresholds",
      "context": "<span class=\"ui-state-default\">20</span>",
      "selector": "#calendar-widget-container-1 > div:nth-child(1) > table > tbody > tr:nth-child(4) > td:nth-child(3) > span",
      "runner": "atl-extended-axe-runner",
      "runnerExtras": {
        "description": "Ensures the contrast between foreground and background colors meets WCAG 2 AA minimum contrast ratio thresholds",
        "impact": "serious",
        "help": "Elements must meet minimum color contrast ratio thresholds",
        "helpUrl": "https://dequeuniversity.com/rules/axe/4.9/color-contrast?application=axeAPI"
      }
    },
    {
      "code": "color-contrast",
      "type": "error",
      "typeCode": 1,
      "message": "Elements must meet minimum color contrast ratio thresholds",
      "context": "<span class=\"ui-state-default\">21</span>",
      "selector": "#calendar-widget-container-1 > div:nth-child(1) > table > tbody > tr:nth-child(4) > td:nth-child(4) > span",
      "runner": "atl-extended-axe-runner",
      "runnerExtras": {
        "description": "Ensures the contrast between foreground and background colors meets WCAG 2 AA minimum contrast ratio thresholds",
        "impact": "serious",
        "help": "Elements must meet minimum color contrast ratio thresholds",
        "helpUrl": "https://dequeuniversity.com/rules/axe/4.9/color-contrast?application=axeAPI"
      }
    },
    {
      "code": "color-contrast",
      "type": "error",
      "typeCode": 1,
      "message": "Elements must meet minimum color contrast ratio thresholds",
      "context": "<span class=\"ui-state-default\">22</span>",
      "selector": "#calendar-widget-container-1 > div:nth-child(1) > table > tbody > tr:nth-child(4) > td:nth-child(5) > span",
      "runner": "atl-extended-axe-runner",
      "runnerExtras": {
        "description": "Ensures the contrast between foreground and background colors meets WCAG 2 AA minimum contrast ratio thresholds",
        "impact": "serious",
        "help": "Elements must meet minimum color contrast ratio thresholds",
        "helpUrl": "https://dequeuniversity.com/rules/axe/4.9/color-contrast?application=axeAPI"
      }
    },
    {
      "code": "color-contrast",
      "type": "error",
      "typeCode": 1,
      "message": "Elements must meet minimum color contrast ratio thresholds",
      "context": "<span class=\"ui-state-default\">23</span>",
      "selector": "#calendar-widget-container-1 > div:nth-child(1) > table > tbody > tr:nth-child(4) > td:nth-child(6) > span",
      "runner": "atl-extended-axe-runner",
      "runnerExtras": {
        "description": "Ensures the contrast between foreground and background colors meets WCAG 2 AA minimum contrast ratio thresholds",
        "impact": "serious",
        "help": "Elements must meet minimum color contrast ratio thresholds",
        "helpUrl": "https://dequeuniversity.com/rules/axe/4.9/color-contrast?application=axeAPI"
      }
    },
    {
      "code": "color-contrast",
      "type": "error",
      "typeCode": 1,
      "message": "Elements must meet minimum color contrast ratio thresholds",
      "context": "<span class=\"ui-state-default\">29</span>",
      "selector": "#calendar-widget-container-1 > div:nth-child(1) > table > tbody > tr:nth-child(5) > td:nth-child(5) > span",
      "runner": "atl-extended-axe-runner",
      "runnerExtras": {
        "description": "Ensures the contrast between foreground and background colors meets WCAG 2 AA minimum contrast ratio thresholds",
        "impact": "serious",
        "help": "Elements must meet minimum color contrast ratio thresholds",
        "helpUrl": "https://dequeuniversity.com/rules/axe/4.9/color-contrast?application=axeAPI"
      }
    },
    {
      "code": "color-contrast",
      "type": "error",
      "typeCode": 1,
      "message": "Elements must meet minimum color contrast ratio thresholds",
      "context": "<span class=\"ui-state-default\">30</span>",
      "selector": "#calendar-widget-container-1 > div:nth-child(1) > table > tbody > tr:nth-child(5) > td:nth-child(6) > span",
      "runner": "atl-extended-axe-runner",
      "runnerExtras": {
        "description": "Ensures the contrast between foreground and background colors meets WCAG 2 AA minimum contrast ratio thresholds",
        "impact": "serious",
        "help": "Elements must meet minimum color contrast ratio thresholds",
        "helpUrl": "https://dequeuniversity.com/rules/axe/4.9/color-contrast?application=axeAPI"
      }
    },
    {
      "code": "color-contrast",
      "type": "error",
      "typeCode": 1,
      "message": "Elements must meet minimum color contrast ratio thresholds",
      "context": "<span class=\"ui-state-default\">10</span>",
      "selector": "#calendar-widget-container-2 > div:nth-child(1) > table > tbody > tr:nth-child(2) > td:nth-child(7) > span",
      "runner": "atl-extended-axe-runner",
      "runnerExtras": {
        "description": "Ensures the contrast between foreground and background colors meets WCAG 2 AA minimum contrast ratio thresholds",
        "impact": "serious",
        "help": "Elements must meet minimum color contrast ratio thresholds",
        "helpUrl": "https://dequeuniversity.com/rules/axe/4.9/color-contrast?application=axeAPI"
      }
    },
    {
      "code": "color-contrast",
      "type": "error",
      "typeCode": 1,
      "message": "Elements must meet minimum color contrast ratio thresholds",
      "context": "<span class=\"ui-state-default\">11</span>",
      "selector": "#calendar-widget-container-2 > div:nth-child(1) > table > tbody > tr:nth-child(3) > td:nth-child(1) > span",
      "runner": "atl-extended-axe-runner",
      "runnerExtras": {
        "description": "Ensures the contrast between foreground and background colors meets WCAG 2 AA minimum contrast ratio thresholds",
        "impact": "serious",
        "help": "Elements must meet minimum color contrast ratio thresholds",
        "helpUrl": "https://dequeuniversity.com/rules/axe/4.9/color-contrast?application=axeAPI"
      }
    },
    {
      "code": "color-contrast",
      "type": "error",
      "typeCode": 1,
      "message": "Elements must meet minimum color contrast ratio thresholds",
      "context": "<span class=\"ui-state-default\">12</span>",
      "selector": "#calendar-widget-container-2 > div:nth-child(1) > table > tbody > tr:nth-child(3) > td:nth-child(2) > span",
      "runner": "atl-extended-axe-runner",
      "runnerExtras": {
        "description": "Ensures the contrast between foreground and background colors meets WCAG 2 AA minimum contrast ratio thresholds",
        "impact": "serious",
        "help": "Elements must meet minimum color contrast ratio thresholds",
        "helpUrl": "https://dequeuniversity.com/rules/axe/4.9/color-contrast?application=axeAPI"
      }
    },
    {
      "code": "color-contrast",
      "type": "error",
      "typeCode": 1,
      "message": "Elements must meet minimum color contrast ratio thresholds",
      "context": "<span class=\"ui-state-default\">13</span>",
      "selector": "#calendar-widget-container-2 > div:nth-child(1) > table > tbody > tr:nth-child(3) > td:nth-child(3) > span",
      "runner": "atl-extended-axe-runner",
      "runnerExtras": {
        "description": "Ensures the contrast between foreground and background colors meets WCAG 2 AA minimum contrast ratio thresholds",
        "impact": "serious",
        "help": "Elements must meet minimum color contrast ratio thresholds",
        "helpUrl": "https://dequeuniversity.com/rules/axe/4.9/color-contrast?application=axeAPI"
      }
    },
    {
      "code": "color-contrast",
      "type": "error",
      "typeCode": 1,
      "message": "Elements must meet minimum color contrast ratio thresholds",
      "context": "<span class=\"ui-state-default\">14</span>",
      "selector": "#calendar-widget-container-2 > div:nth-child(1) > table > tbody > tr:nth-child(3) > td:nth-child(4) > span",
      "runner": "atl-extended-axe-runner",
      "runnerExtras": {
        "description": "Ensures the contrast between foreground and background colors meets WCAG 2 AA minimum contrast ratio thresholds",
        "impact": "serious",
        "help": "Elements must meet minimum color contrast ratio thresholds",
        "helpUrl": "https://dequeuniversity.com/rules/axe/4.9/color-contrast?application=axeAPI"
      }
    },
    {
      "code": "color-contrast",
      "type": "error",
      "typeCode": 1,
      "message": "Elements must meet minimum color contrast ratio thresholds",
      "context": "<span class=\"ui-state-default\">15</span>",
      "selector": "#calendar-widget-container-2 > div:nth-child(1) > table > tbody > tr:nth-child(3) > td:nth-child(5) > span",
      "runner": "atl-extended-axe-runner",
      "runnerExtras": {
        "description": "Ensures the contrast between foreground and background colors meets WCAG 2 AA minimum contrast ratio thresholds",
        "impact": "serious",
        "help": "Elements must meet minimum color contrast ratio thresholds",
        "helpUrl": "https://dequeuniversity.com/rules/axe/4.9/color-contrast?application=axeAPI"
      }
    },
    {
      "code": "color-contrast",
      "type": "error",
      "typeCode": 1,
      "message": "Elements must meet minimum color contrast ratio thresholds",
      "context": "<span class=\"ui-state-default\">16</span>",
      "selector": "#calendar-widget-container-2 > div:nth-child(1) > table > tbody > tr:nth-child(3) > td:nth-child(6) > span",
      "runner": "atl-extended-axe-runner",
      "runnerExtras": {
        "description": "Ensures the contrast between foreground and background colors meets WCAG 2 AA minimum contrast ratio thresholds",
        "impact": "serious",
        "help": "Elements must meet minimum color contrast ratio thresholds",
        "helpUrl": "https://dequeuniversity.com/rules/axe/4.9/color-contrast?application=axeAPI"
      }
    },
    {
      "code": "color-contrast",
      "type": "error",
      "typeCode": 1,
      "message": "Elements must meet minimum color contrast ratio thresholds",
      "context": "<span class=\"ui-state-default\">17</span>",
      "selector": "#calendar-widget-container-2 > div:nth-child(1) > table > tbody > tr:nth-child(3) > td:nth-child(7) > span",
      "runner": "atl-extended-axe-runner",
      "runnerExtras": {
        "description": "Ensures the contrast between foreground and background colors meets WCAG 2 AA minimum contrast ratio thresholds",
        "impact": "serious",
        "help": "Elements must meet minimum color contrast ratio thresholds",
        "helpUrl": "https://dequeuniversity.com/rules/axe/4.9/color-contrast?application=axeAPI"
      }
    },
    {
      "code": "color-contrast",
      "type": "error",
      "typeCode": 1,
      "message": "Elements must meet minimum color contrast ratio thresholds",
      "context": "<span class=\"ui-state-default\">18</span>",
      "selector": "#calendar-widget-container-2 > div:nth-child(1) > table > tbody > tr:nth-child(4) > td:nth-child(1) > span",
      "runner": "atl-extended-axe-runner",
      "runnerExtras": {
        "description": "Ensures the contrast between foreground and background colors meets WCAG 2 AA minimum contrast ratio thresholds",
        "impact": "serious",
        "help": "Elements must meet minimum color contrast ratio thresholds",
        "helpUrl": "https://dequeuniversity.com/rules/axe/4.9/color-contrast?application=axeAPI"
      }
    },
    {
      "code": "color-contrast",
      "type": "error",
      "typeCode": 1,
      "message": "Elements must meet minimum color contrast ratio thresholds",
      "context": "<span class=\"ui-state-default\">19</span>",
      "selector": "#calendar-widget-container-2 > div:nth-child(1) > table > tbody > tr:nth-child(4) > td:nth-child(2) > span",
      "runner": "atl-extended-axe-runner",
      "runnerExtras": {
        "description": "Ensures the contrast between foreground and background colors meets WCAG 2 AA minimum contrast ratio thresholds",
        "impact": "serious",
        "help": "Elements must meet minimum color contrast ratio thresholds",
        "helpUrl": "https://dequeuniversity.com/rules/axe/4.9/color-contrast?application=axeAPI"
      }
    },
    {
      "code": "color-contrast",
      "type": "error",
      "typeCode": 1,
      "message": "Elements must meet minimum color contrast ratio thresholds",
      "context": "<span class=\"ui-state-default\">20</span>",
      "selector": "#calendar-widget-container-2 > div:nth-child(1) > table > tbody > tr:nth-child(4) > td:nth-child(3) > span",
      "runner": "atl-extended-axe-runner",
      "runnerExtras": {
        "description": "Ensures the contrast between foreground and background colors meets WCAG 2 AA minimum contrast ratio thresholds",
        "impact": "serious",
        "help": "Elements must meet minimum color contrast ratio thresholds",
        "helpUrl": "https://dequeuniversity.com/rules/axe/4.9/color-contrast?application=axeAPI"
      }
    },
    {
      "code": "color-contrast",
      "type": "error",
      "typeCode": 1,
      "message": "Elements must meet minimum color contrast ratio thresholds",
      "context": "<span class=\"ui-state-default\">21</span>",
      "selector": "#calendar-widget-container-2 > div:nth-child(1) > table > tbody > tr:nth-child(4) > td:nth-child(4) > span",
      "runner": "atl-extended-axe-runner",
      "runnerExtras": {
        "description": "Ensures the contrast between foreground and background colors meets WCAG 2 AA minimum contrast ratio thresholds",
        "impact": "serious",
        "help": "Elements must meet minimum color contrast ratio thresholds",
        "helpUrl": "https://dequeuniversity.com/rules/axe/4.9/color-contrast?application=axeAPI"
      }
    },
    {
      "code": "color-contrast",
      "type": "error",
      "typeCode": 1,
      "message": "Elements must meet minimum color contrast ratio thresholds",
      "context": "<span class=\"ui-state-default\">22</span>",
      "selector": "#calendar-widget-container-2 > div:nth-child(1) > table > tbody > tr:nth-child(4) > td:nth-child(5) > span",
      "runner": "atl-extended-axe-runner",
      "runnerExtras": {
        "description": "Ensures the contrast between foreground and background colors meets WCAG 2 AA minimum contrast ratio thresholds",
        "impact": "serious",
        "help": "Elements must meet minimum color contrast ratio thresholds",
        "helpUrl": "https://dequeuniversity.com/rules/axe/4.9/color-contrast?application=axeAPI"
      }
    },
    {
      "code": "color-contrast",
      "type": "error",
      "typeCode": 1,
      "message": "Elements must meet minimum color contrast ratio thresholds",
      "context": "<span class=\"ui-state-default\">23</span>",
      "selector": "#calendar-widget-container-2 > div:nth-child(1) > table > tbody > tr:nth-child(4) > td:nth-child(6) > span",
      "runner": "atl-extended-axe-runner",
      "runnerExtras": {
        "description": "Ensures the contrast between foreground and background colors meets WCAG 2 AA minimum contrast ratio thresholds",
        "impact": "serious",
        "help": "Elements must meet minimum color contrast ratio thresholds",
        "helpUrl": "https://dequeuniversity.com/rules/axe/4.9/color-contrast?application=axeAPI"
      }
    },
    {
      "code": "color-contrast",
      "type": "error",
      "typeCode": 1,
      "message": "Elements must meet minimum color contrast ratio thresholds",
      "context": "<span class=\"ui-state-default\">29</span>",
      "selector": "#calendar-widget-container-2 > div:nth-child(1) > table > tbody > tr:nth-child(5) > td:nth-child(5) > span",
      "runner": "atl-extended-axe-runner",
      "runnerExtras": {
        "description": "Ensures the contrast between foreground and background colors meets WCAG 2 AA minimum contrast ratio thresholds",
        "impact": "serious",
        "help": "Elements must meet minimum color contrast ratio thresholds",
        "helpUrl": "https://dequeuniversity.com/rules/axe/4.9/color-contrast?application=axeAPI"
      }
    },
    {
      "code": "color-contrast",
      "type": "error",
      "typeCode": 1,
      "message": "Elements must meet minimum color contrast ratio thresholds",
      "context": "<span class=\"ui-state-default\">30</span>",
      "selector": "#calendar-widget-container-2 > div:nth-child(1) > table > tbody > tr:nth-child(5) > td:nth-child(6) > span",
      "runner": "atl-extended-axe-runner",
      "runnerExtras": {
        "description": "Ensures the contrast between foreground and background colors meets WCAG 2 AA minimum contrast ratio thresholds",
        "impact": "serious",
        "help": "Elements must meet minimum color contrast ratio thresholds",
        "helpUrl": "https://dequeuniversity.com/rules/axe/4.9/color-contrast?application=axeAPI"
      }
    },
    {
      "code": "label",
      "type": "error",
      "typeCode": 1,
      "message": "Form elements must have labels",
      "context": "<input class=\"aui-date-picker\" id=\"test-basic\" type=\"date\">",
      "selector": "#test-basic",
      "runner": "atl-extended-axe-runner",
      "runnerExtras": {
        "description": "Ensures every form element has a label",
        "impact": "critical",
        "help": "Form elements must have labels",
        "helpUrl": "https://dequeuniversity.com/rules/axe/4.9/label?application=axeAPI"
      }
    },
    {
      "code": "label",
      "type": "error",
      "typeCode": 1,
      "message": "Form elements must have labels",
      "context": "<input class=\"aui-date-picker\" id=\"test-default\" type=\"date\" value=\"2012-01-01\">",
      "selector": "#test-default",
      "runner": "atl-extended-axe-runner",
      "runnerExtras": {
        "description": "Ensures every form element has a label",
        "impact": "critical",
        "help": "Form elements must have labels",
        "helpUrl": "https://dequeuniversity.com/rules/axe/4.9/label?application=axeAPI"
      }
    },
    {
      "code": "label",
      "type": "error",
      "typeCode": 1,
      "message": "Form elements must have labels",
      "context": "<input class=\"aui-date-picker\" id=\"test-default-always\" type=\"text\" value=\"2012-01-01\" aria-controls=\"date-picker10\" data-aui-dp-uuid=\"date-picker10\" aria-expanded=\"false\" aria-haspopup=\"true\">",
      "selector": "#test-default-always",
      "runner": "atl-extended-axe-runner",
      "runnerExtras": {
        "description": "Ensures every form element has a label",
        "impact": "critical",
        "help": "Form elements must have labels",
        "helpUrl": "https://dequeuniversity.com/rules/axe/4.9/label?application=axeAPI"
      }
    },
    {
      "code": "label",
      "type": "error",
      "typeCode": 1,
      "message": "Form elements must have labels",
      "context": "<input class=\"aui-date-picker\" id=\"test-range\" type=\"date\" max=\"2012-01-25\" min=\"2012-01-10\">",
      "selector": "#test-range",
      "runner": "atl-extended-axe-runner",
      "runnerExtras": {
        "description": "Ensures every form element has a label",
        "impact": "critical",
        "help": "Form elements must have labels",
        "helpUrl": "https://dequeuniversity.com/rules/axe/4.9/label?application=axeAPI"
      }
    },
    {
      "code": "label",
      "type": "error",
      "typeCode": 1,
      "message": "Form elements must have labels",
      "context": "<input type=\"text\" class=\"datepicker\" value=\"28 Jun 2000\" aria-controls=\"date-picker15\" data-aui-dp-uuid=\"date-picker15\" aria-expanded=\"false\" aria-haspopup=\"true\">",
      "selector": "#pagecontent > div:nth-child(18) > div:nth-child(3) > input",
      "runner": "atl-extended-axe-runner",
      "runnerExtras": {
        "description": "Ensures every form element has a label",
        "impact": "critical",
        "help": "Form elements must have labels",
        "helpUrl": "https://dequeuniversity.com/rules/axe/4.9/label?application=axeAPI"
      }
    },
    {
      "code": "label",
      "type": "error",
      "typeCode": 1,
      "message": "Form elements must have labels",
      "context": "<input type=\"text\" id=\"min-max-attributes\" value=\"26 Jun 2000\" min=\"22 Jun 2000\" max=\"29 Jun 2000\" aria-controls=\"date-picker16\" data-aui-dp-uuid=\"date-picker16\" aria-expanded=\"false\" aria-haspopup=\"true\">",
      "selector": "#min-max-attributes",
      "runner": "atl-extended-axe-runner",
      "runnerExtras": {
        "description": "Ensures every form element has a label",
        "impact": "critical",
        "help": "Form elements must have labels",
        "helpUrl": "https://dequeuniversity.com/rules/axe/4.9/label?application=axeAPI"
      }
    },
    {
      "code": "label",
      "type": "error",
      "typeCode": 1,
      "message": "Form elements must have labels",
      "context": "<input type=\"text\" id=\"min-max-config\" value=\"26 Jun 2000\" aria-controls=\"date-picker17\" data-aui-dp-uuid=\"date-picker17\" aria-expanded=\"false\" aria-haspopup=\"true\">",
      "selector": "#min-max-config",
      "runner": "atl-extended-axe-runner",
      "runnerExtras": {
        "description": "Ensures every form element has a label",
        "impact": "critical",
        "help": "Form elements must have labels",
        "helpUrl": "https://dequeuniversity.com/rules/axe/4.9/label?application=axeAPI"
      }
    },
    {
      "code": "label",
      "type": "error",
      "typeCode": 1,
      "message": "Form elements must have labels",
      "context": "<input type=\"text\" id=\"min-max-attributes-and-config-1\" value=\"26 Jun 2000\" min=\"22 Jun 2000\" aria-controls=\"date-picker18\" data-aui-dp-uuid=\"date-picker18\" aria-expanded=\"false\" aria-haspopup=\"true\">",
      "selector": "#min-max-attributes-and-config-1",
      "runner": "atl-extended-axe-runner",
      "runnerExtras": {
        "description": "Ensures every form element has a label",
        "impact": "critical",
        "help": "Form elements must have labels",
        "helpUrl": "https://dequeuniversity.com/rules/axe/4.9/label?application=axeAPI"
      }
    },
    {
      "code": "label",
      "type": "error",
      "typeCode": 1,
      "message": "Form elements must have labels",
      "context": "<input type=\"text\" id=\"min-max-attributes-and-config-2\" value=\"26 Jun 2000\" max=\"29 Jun 2000\" aria-controls=\"date-picker19\" data-aui-dp-uuid=\"date-picker19\" aria-expanded=\"false\" aria-haspopup=\"true\">",
      "selector": "#min-max-attributes-and-config-2",
      "runner": "atl-extended-axe-runner",
      "runnerExtras": {
        "description": "Ensures every form element has a label",
        "impact": "critical",
        "help": "Form elements must have labels",
        "helpUrl": "https://dequeuniversity.com/rules/axe/4.9/label?application=axeAPI"
      }
    },
    {
      "code": "label",
      "type": "error",
      "typeCode": 1,
      "message": "Form elements must have labels",
      "context": "<input type=\"text\" id=\"min-max-attributes-and-config-3\" value=\"26 Jun 2000\" min=\"22 Jun 2000\" max=\"29 Jun 2000\" aria-controls=\"date-picker20\" data-aui-dp-uuid=\"date-picker20\" aria-expanded=\"false\" aria-haspopup=\"true\">",
      "selector": "#min-max-attributes-and-config-3",
      "runner": "atl-extended-axe-runner",
      "runnerExtras": {
        "description": "Ensures every form element has a label",
        "impact": "critical",
        "help": "Form elements must have labels",
        "helpUrl": "https://dequeuniversity.com/rules/axe/4.9/label?application=axeAPI"
      }
    },
    {
      "code": "link-in-text-block",
      "type": "error",
      "typeCode": 1,
      "message": "Links must be distinguishable without relying on color",
      "context": "<a href=\"https://aui.atlassian.com/aui/latest/docs/date-picker.html\">docs</a>",
      "selector": "#main > div:nth-child(1) > div > h1 > a",
      "runner": "atl-extended-axe-runner",
      "runnerExtras": {
        "description": "Ensure links are distinguished from surrounding text in a way that does not rely on color",
        "impact": "serious",
        "help": "Links must be distinguishable without relying on color",
        "helpUrl": "https://dequeuniversity.com/rules/axe/4.9/link-in-text-block?application=axeAPI"
      }
    },
    {
      "code": "link-in-text-block",
      "type": "error",
      "typeCode": 1,
      "message": "Links must be distinguishable without relying on color",
      "context": "<a href=\"https://ecosystem.atlassian.net/browse/AUI-2696\">AUI-2696</a>",
      "selector": "#pagecontent > div:nth-child(11) > p:nth-child(2) > a",
      "runner": "atl-extended-axe-runner",
      "runnerExtras": {
        "description": "Ensure links are distinguished from surrounding text in a way that does not rely on color",
        "impact": "serious",
        "help": "Links must be distinguishable without relying on color",
        "helpUrl": "https://dequeuniversity.com/rules/axe/4.9/link-in-text-block?application=axeAPI"
      }
    }
  ]
}