{
  "documentTitle": "AUI - Flatapp (aui)AUI Badge",
  "pageUrl": "http://127.0.0.1:7000/auiBadge/",
  "issues": [
    {
      "code": "aria-allowed-attr",
      "type": "error",
      "typeCode": 1,
      "message": "Elements must only use supported ARIA attributes",
      "context": "<div class=\"aui-sidebar-group aui-sidebar-group-actions\" aria-controls=\"sidebar-submenu0\" data-aui-trigger=\"\" resolved=\"\" aria-expanded=\"false\" aria-haspopup=\"true\"><!-- the AUI Nav heading will b...</div>",
      "selector": "#content > section > div > div:nth-child(1) > nav > div > div:nth-child(1)",
      "runner": "atl-extended-axe-runner",
      "runnerExtras": {
        "description": "Ensures an element's role supports its ARIA attributes",
        "impact": "critical",
        "help": "Elements must only use supported ARIA attributes",
        "helpUrl": "https://dequeuniversity.com/rules/axe/4.9/aria-allowed-attr?application=axeAPI"
      }
    },
    {
      "code": "color-contrast",
      "type": "error",
      "typeCode": 1,
      "message": "Elements must meet minimum color contrast ratio thresholds",
      "context": "<div style=\"padding: 5px; margin: 10px 0; background: rebeccapurple;\">Testing badge rgba colour on a ...</div>",
      "selector": "#pagecontent > div:nth-child(6)",
      "runner": "atl-extended-axe-runner",
      "runnerExtras": {
        "description": "Ensures the contrast between foreground and background colors meets WCAG 2 AA minimum contrast ratio thresholds",
        "impact": "serious",
        "help": "Elements must meet minimum color contrast ratio thresholds",
        "helpUrl": "https://dequeuniversity.com/rules/axe/4.9/color-contrast?application=axeAPI"
      }
    },
    {
      "code": "color-contrast",
      "type": "error",
      "typeCode": 1,
      "message": "Elements must meet minimum color contrast ratio thresholds",
      "context": "<aui-badge>123</aui-badge>",
      "selector": "#pagecontent > div:nth-child(6) > aui-badge",
      "runner": "atl-extended-axe-runner",
      "runnerExtras": {
        "description": "Ensures the contrast between foreground and background colors meets WCAG 2 AA minimum contrast ratio thresholds",
        "impact": "serious",
        "help": "Elements must meet minimum color contrast ratio thresholds",
        "helpUrl": "https://dequeuniversity.com/rules/axe/4.9/color-contrast?application=axeAPI"
      }
    },
    {
      "code": "color-contrast",
      "type": "error",
      "typeCode": 1,
      "message": "Elements must meet minimum color contrast ratio thresholds",
      "context": "<div style=\"padding: 5px; margin: 10px 0; background: forestgreen;\">Testing badge rgba colour on a ...</div>",
      "selector": "#pagecontent > div:nth-child(7)",
      "runner": "atl-extended-axe-runner",
      "runnerExtras": {
        "description": "Ensures the contrast between foreground and background colors meets WCAG 2 AA minimum contrast ratio thresholds",
        "impact": "serious",
        "help": "Elements must meet minimum color contrast ratio thresholds",
        "helpUrl": "https://dequeuniversity.com/rules/axe/4.9/color-contrast?application=axeAPI"
      }
    },
    {
      "code": "color-contrast",
      "type": "error",
      "typeCode": 1,
      "message": "Elements must meet minimum color contrast ratio thresholds",
      "context": "<aui-badge>123</aui-badge>",
      "selector": "#pagecontent > div:nth-child(7) > aui-badge",
      "runner": "atl-extended-axe-runner",
      "runnerExtras": {
        "description": "Ensures the contrast between foreground and background colors meets WCAG 2 AA minimum contrast ratio thresholds",
        "impact": "serious",
        "help": "Elements must meet minimum color contrast ratio thresholds",
        "helpUrl": "https://dequeuniversity.com/rules/axe/4.9/color-contrast?application=axeAPI"
      }
    },
    {
      "code": "color-contrast",
      "type": "error",
      "typeCode": 1,
      "message": "Elements must meet minimum color contrast ratio thresholds",
      "context": "<aui-badge>123</aui-badge>",
      "selector": "#pagecontent > p:nth-child(9) > button:nth-child(2) > aui-badge",
      "runner": "atl-extended-axe-runner",
      "runnerExtras": {
        "description": "Ensures the contrast between foreground and background colors meets WCAG 2 AA minimum contrast ratio thresholds",
        "impact": "serious",
        "help": "Elements must meet minimum color contrast ratio thresholds",
        "helpUrl": "https://dequeuniversity.com/rules/axe/4.9/color-contrast?application=axeAPI"
      }
    },
    {
      "code": "atlassian-color-contrast",
      "type": "error",
      "typeCode": 1,
      "message": "Controls border and background have minimal contrast ratio of 3.",
      "context": "<button class=\"aui-button aui-button-subtle aui-sidebar-toggle aui-sidebar-footer-tipsy\" title=\"Collapse sidebar ( [ )\" resolved=\"\"><span class=\"aui-icon aui-icon-...</button>",
      "selector": "#content > section > div > div:nth-child(2) > button",
      "runner": "atl-extended-axe-runner",
      "runnerExtras": {
        "impact": "critical",
        "help": "Controls border and background have minimal contrast ratio of 3.",
        "checks": [
          {
            "id": "border-contrast-ratio",
            "data": {
              "mixedColors": {
                "targetColor": "rgba(244, 245, 247, 1)",
                "surroundingElementsColors": {
                  "top": "rgba(244, 245, 247, 1)",
                  "left": "rgba(244, 245, 247, 1)",
                  "right": "rgba(244, 245, 247, 1)",
                  "bottom": "rgba(244, 245, 247, 1)"
                },
                "borderColors": {
                  "top": "rgba(244, 245, 247, 1)",
                  "left": "rgba(244, 245, 247, 1)",
                  "right": "rgba(244, 245, 247, 1)",
                  "bottom": "rgba(244, 245, 247, 1)"
                }
              },
              "contrastRatio": {
                "top": 1,
                "left": 1,
                "right": 1,
                "bottom": 1
              }
            },
            "relatedNodes": [],
            "title": "Contrast issues with border",
            "description": "Contrast issues with border",
            "impact": "critical",
            "message": "Contrast ratio between target's border and surrounding elements is less than 3"
          },
          {
            "id": "background-contrast-ratio",
            "data": {
              "mixedColors": {
                "targetColor": "rgba(244, 245, 247, 1)",
                "surroundingElementsColors": {
                  "top": "rgba(244, 245, 247, 1)",
                  "left": "rgba(244, 245, 247, 1)",
                  "right": "rgba(244, 245, 247, 1)",
                  "bottom": "rgba(244, 245, 247, 1)"
                }
              },
              "contrastRatio": {
                "top": 1,
                "left": 1,
                "right": 1,
                "bottom": 1
              }
            },
            "relatedNodes": [],
            "title": "Contrast issues with background",
            "description": "Contrast issues with background",
            "impact": "critical",
            "message": "Contrast ratio between the target's background and surrounding elements is less than 3"
          }
        ]
      }
    },
    {
      "code": "atlassian-color-contrast",
      "type": "error",
      "typeCode": 1,
      "message": "Controls border and background have minimal contrast ratio of 3.",
      "context": "<button class=\"aui-button\" resolved=\"\">Button <aui-badge>123</aui-badg...</button>",
      "selector": "#pagecontent > p:nth-child(9) > button:nth-child(1)",
      "runner": "atl-extended-axe-runner",
      "runnerExtras": {
        "impact": "critical",
        "help": "Controls border and background have minimal contrast ratio of 3.",
        "checks": [
          {
            "id": "border-contrast-ratio",
            "data": {
              "mixedColors": {
                "targetColor": "rgba(235, 237, 240, 1)",
                "surroundingElementsColors": {
                  "top": "rgba(255, 255, 255, 1)",
                  "left": "rgba(255, 255, 255, 1)",
                  "right": "rgba(255, 255, 255, 1)",
                  "bottom": "rgba(255, 255, 255, 1)"
                },
                "borderColors": {
                  "top": "rgba(235, 237, 240, 1)",
                  "left": "rgba(235, 237, 240, 1)",
                  "right": "rgba(235, 237, 240, 1)",
                  "bottom": "rgba(235, 237, 240, 1)"
                }
              },
              "contrastRatio": {
                "top": 1.17,
                "left": 1.17,
                "right": 1.17,
                "bottom": 1.17
              }
            },
            "relatedNodes": [],
            "title": "Contrast issues with border",
            "description": "Contrast issues with border",
            "impact": "critical",
            "message": "Contrast ratio between target's border and surrounding elements is less than 3"
          },
          {
            "id": "background-contrast-ratio",
            "data": {
              "mixedColors": {
                "targetColor": "rgba(235, 237, 240, 1)",
                "surroundingElementsColors": {
                  "top": "rgba(255, 255, 255, 1)",
                  "left": "rgba(255, 255, 255, 1)",
                  "right": "rgba(255, 255, 255, 1)",
                  "bottom": "rgba(255, 255, 255, 1)"
                }
              },
              "contrastRatio": {
                "top": 1.17,
                "left": 1.17,
                "right": 1.17,
                "bottom": 1.17
              }
            },
            "relatedNodes": [],
            "title": "Contrast issues with background",
            "description": "Contrast issues with background",
            "impact": "critical",
            "message": "Contrast ratio between the target's background and surrounding elements is less than 3"
          }
        ]
      }
    },
    {
      "code": "atlassian-color-contrast",
      "type": "error",
      "typeCode": 1,
      "message": "Controls border and background have minimal contrast ratio of 3.",
      "context": "<button class=\"aui-button\" aria-disabled=\"true\" disabled=\"\" resolved=\"\">Disabled Button <aui-badge>123<...</button>",
      "selector": "#pagecontent > p:nth-child(10) > button:nth-child(1)",
      "runner": "atl-extended-axe-runner",
      "runnerExtras": {
        "impact": "critical",
        "help": "Controls border and background have minimal contrast ratio of 3.",
        "checks": [
          {
            "id": "border-contrast-ratio",
            "data": {
              "mixedColors": {
                "targetColor": "rgba(245, 246, 247, 1)",
                "surroundingElementsColors": {
                  "top": "rgba(255, 255, 255, 1)",
                  "left": "rgba(255, 255, 255, 1)",
                  "right": "rgba(255, 255, 255, 1)",
                  "bottom": "rgba(255, 255, 255, 1)"
                },
                "borderColors": {
                  "top": "rgba(245, 246, 247, 1)",
                  "left": "rgba(245, 246, 247, 1)",
                  "right": "rgba(245, 246, 247, 1)",
                  "bottom": "rgba(245, 246, 247, 1)"
                }
              },
              "contrastRatio": {
                "top": 1.08,
                "left": 1.08,
                "right": 1.08,
                "bottom": 1.08
              }
            },
            "relatedNodes": [],
            "title": "Contrast issues with border",
            "description": "Contrast issues with border",
            "impact": "critical",
            "message": "Contrast ratio between target's border and surrounding elements is less than 3"
          },
          {
            "id": "background-contrast-ratio",
            "data": {
              "mixedColors": {
                "targetColor": "rgba(245, 246, 247, 1)",
                "surroundingElementsColors": {
                  "top": "rgba(255, 255, 255, 1)",
                  "left": "rgba(255, 255, 255, 1)",
                  "right": "rgba(255, 255, 255, 1)",
                  "bottom": "rgba(255, 255, 255, 1)"
                }
              },
              "contrastRatio": {
                "top": 1.08,
                "left": 1.08,
                "right": 1.08,
                "bottom": 1.08
              }
            },
            "relatedNodes": [],
            "title": "Contrast issues with background",
            "description": "Contrast issues with background",
            "impact": "critical",
            "message": "Contrast ratio between the target's background and surrounding elements is less than 3"
          }
        ]
      }
    },
    {
      "code": "atlassian-color-contrast",
      "type": "error",
      "typeCode": 1,
      "message": "Controls border and background have minimal contrast ratio of 3.",
      "context": "<button class=\"aui-button aui-button-primary\" aria-disabled=\"true\" disabled=\"\" resolved=\"\">Disabled Primary Button <aui-ba...</button>",
      "selector": "#pagecontent > p:nth-child(10) > button:nth-child(2)",
      "runner": "atl-extended-axe-runner",
      "runnerExtras": {
        "impact": "critical",
        "help": "Controls border and background have minimal contrast ratio of 3.",
        "checks": [
          {
            "id": "border-contrast-ratio",
            "data": {
              "mixedColors": {
                "targetColor": "rgba(245, 246, 247, 1)",
                "surroundingElementsColors": {
                  "top": "rgba(255, 255, 255, 1)",
                  "left": "rgba(255, 255, 255, 1)",
                  "right": "rgba(255, 255, 255, 1)",
                  "bottom": "rgba(255, 255, 255, 1)"
                },
                "borderColors": {
                  "top": "rgba(245, 246, 247, 1)",
                  "left": "rgba(245, 246, 247, 1)",
                  "right": "rgba(245, 246, 247, 1)",
                  "bottom": "rgba(245, 246, 247, 1)"
                }
              },
              "contrastRatio": {
                "top": 1.08,
                "left": 1.08,
                "right": 1.08,
                "bottom": 1.08
              }
            },
            "relatedNodes": [],
            "title": "Contrast issues with border",
            "description": "Contrast issues with border",
            "impact": "critical",
            "message": "Contrast ratio between target's border and surrounding elements is less than 3"
          },
          {
            "id": "background-contrast-ratio",
            "data": {
              "mixedColors": {
                "targetColor": "rgba(245, 246, 247, 1)",
                "surroundingElementsColors": {
                  "top": "rgba(255, 255, 255, 1)",
                  "left": "rgba(255, 255, 255, 1)",
                  "right": "rgba(255, 255, 255, 1)",
                  "bottom": "rgba(255, 255, 255, 1)"
                }
              },
              "contrastRatio": {
                "top": 1.08,
                "left": 1.08,
                "right": 1.08,
                "bottom": 1.08
              }
            },
            "relatedNodes": [],
            "title": "Contrast issues with background",
            "description": "Contrast issues with background",
            "impact": "critical",
            "message": "Contrast ratio between the target's background and surrounding elements is less than 3"
          }
        ]
      }
    }
  ]
}