{
  "documentTitle": "AUI - Flatapp (aui)Sidebar - copied from Confluence 6.7.0-m53",
  "pageUrl": "http://127.0.0.1:7000/sidebar/snapshots/confluence_6_7_0/",
  "issues": [
    {
      "code": "aria-allowed-attr",
      "type": "error",
      "typeCode": 1,
      "message": "Elements must only use supported ARIA attributes",
      "context": "<div id=\"nav-sidebar\" class=\"aui-sidebar\" aria-expanded=\"true\"><div class=\"aui-sidebar-wrapper...</div>",
      "selector": "#nav-sidebar",
      "runner": "atl-extended-axe-runner",
      "runnerExtras": {
        "description": "Ensures an element's role supports its ARIA attributes",
        "impact": "critical",
        "help": "Elements must only use supported ARIA attributes",
        "helpUrl": "https://dequeuniversity.com/rules/axe/4.9/aria-allowed-attr?application=axeAPI"
      }
    },
    {
      "code": "button-name",
      "type": "error",
      "typeCode": 1,
      "message": "Buttons must have discernible text",
      "context": "<button class=\"aui-button aui-button-subtle aui-sidebar-toggle aui-sidebar-footer-tipsy\" data-tooltip=\"Expand sidebar ( [ )\" original-title=\"\" resolved=\"\"><span class=\"aui-icon aui-icon-...</button>",
      "selector": "#nav-sidebar > div > div:nth-child(2) > button",
      "runner": "atl-extended-axe-runner",
      "runnerExtras": {
        "description": "Ensures buttons have discernible text",
        "impact": "critical",
        "help": "Buttons must have discernible text",
        "helpUrl": "https://dequeuniversity.com/rules/axe/4.9/button-name?application=axeAPI"
      }
    },
    {
      "code": "link-in-text-block",
      "type": "error",
      "typeCode": 1,
      "message": "Links must be distinguishable without relying on color",
      "context": "<a class=\"all-spaces-link\" href=\"/wiki/spacedirectory/view.action\" title=\"Space directory\">All</a>",
      "selector": "#sidebar-spaces > div > div > a",
      "runner": "atl-extended-axe-runner",
      "runnerExtras": {
        "description": "Ensure links are distinguished from surrounding text in a way that does not rely on color",
        "impact": "serious",
        "help": "Links must be distinguishable without relying on color",
        "helpUrl": "https://dequeuniversity.com/rules/axe/4.9/link-in-text-block?application=axeAPI"
      }
    },
    {
      "code": "atlassian-color-contrast",
      "type": "error",
      "typeCode": 1,
      "message": "Controls border and background have minimal contrast ratio of 3.",
      "context": "<button class=\"aui-button aui-button-subtle aui-sidebar-toggle aui-sidebar-footer-tipsy\" data-tooltip=\"Expand sidebar ( [ )\" original-title=\"\" resolved=\"\"><span class=\"aui-icon aui-icon-...</button>",
      "selector": "#nav-sidebar > div > div:nth-child(2) > button",
      "runner": "atl-extended-axe-runner",
      "runnerExtras": {
        "impact": "critical",
        "help": "Controls border and background have minimal contrast ratio of 3.",
        "checks": [
          {
            "id": "border-contrast-ratio",
            "data": {
              "mixedColors": {
                "targetColor": "rgba(244, 245, 247, 1)",
                "surroundingElementsColors": {
                  "top": "rgba(244, 245, 247, 1)",
                  "left": "rgba(244, 245, 247, 1)",
                  "right": "rgba(244, 245, 247, 1)",
                  "bottom": "rgba(244, 245, 247, 1)"
                },
                "borderColors": {
                  "top": "rgba(244, 245, 247, 1)",
                  "left": "rgba(244, 245, 247, 1)",
                  "right": "rgba(244, 245, 247, 1)",
                  "bottom": "rgba(244, 245, 247, 1)"
                }
              },
              "contrastRatio": {
                "top": 1,
                "left": 1,
                "right": 1,
                "bottom": 1
              }
            },
            "relatedNodes": [],
            "title": "Contrast issues with border",
            "description": "Contrast issues with border",
            "impact": "critical",
            "message": "Contrast ratio between target's border and surrounding elements is less than 3"
          },
          {
            "id": "background-contrast-ratio",
            "data": {
              "mixedColors": {
                "targetColor": "rgba(244, 245, 247, 1)",
                "surroundingElementsColors": {
                  "top": "rgba(244, 245, 247, 1)",
                  "left": "rgba(244, 245, 247, 1)",
                  "right": "rgba(244, 245, 247, 1)",
                  "bottom": "rgba(244, 245, 247, 1)"
                }
              },
              "contrastRatio": {
                "top": 1,
                "left": 1,
                "right": 1,
                "bottom": 1
              }
            },
            "relatedNodes": [],
            "title": "Contrast issues with background",
            "description": "Contrast issues with background",
            "impact": "critical",
            "message": "Contrast ratio between the target's background and surrounding elements is less than 3"
          }
        ]
      }
    },
    {
      "code": "atlassian-color-contrast",
      "type": "error",
      "typeCode": 1,
      "message": "Controls border and background have minimal contrast ratio of 3.",
      "context": "<input type=\"text\" class=\"text\" name=\"filter\" placeholder=\"Filter\" maxlength=\"40\">",
      "selector": "#content > div > div > div:nth-child(2) > div:nth-child(2) > div > section > div > header > form > div > input",
      "runner": "atl-extended-axe-runner",
      "runnerExtras": {
        "impact": "critical",
        "help": "Controls border and background have minimal contrast ratio of 3.",
        "checks": [
          {
            "id": "border-contrast-ratio",
            "data": {
              "mixedColors": {
                "targetColor": "rgba(250, 251, 252, 1)",
                "surroundingElementsColors": {
                  "top": "rgba(255, 255, 255, 1)",
                  "left": "rgba(255, 255, 255, 1)",
                  "right": "rgba(255, 255, 255, 1)",
                  "bottom": "rgba(255, 255, 255, 1)"
                },
                "borderColors": {
                  "top": "rgba(223, 225, 230, 1)",
                  "left": "rgba(223, 225, 230, 1)",
                  "right": "rgba(223, 225, 230, 1)",
                  "bottom": "rgba(223, 225, 230, 1)"
                }
              },
              "contrastRatio": {
                "top": 1.31,
                "left": 1.31,
                "right": 1.31,
                "bottom": 1.31
              }
            },
            "relatedNodes": [],
            "title": "Contrast issues with border",
            "description": "Contrast issues with border",
            "impact": "critical",
            "message": "Contrast ratio between target's border and surrounding elements is less than 3"
          },
          {
            "id": "background-contrast-ratio",
            "data": {
              "mixedColors": {
                "targetColor": "rgba(250, 251, 252, 1)",
                "surroundingElementsColors": {
                  "top": "rgba(255, 255, 255, 1)",
                  "left": "rgba(255, 255, 255, 1)",
                  "right": "rgba(255, 255, 255, 1)",
                  "bottom": "rgba(255, 255, 255, 1)"
                }
              },
              "contrastRatio": {
                "top": 1.04,
                "left": 1.04,
                "right": 1.04,
                "bottom": 1.04
              }
            },
            "relatedNodes": [],
            "title": "Contrast issues with background",
            "description": "Contrast issues with background",
            "impact": "critical",
            "message": "Contrast ratio between the target's background and surrounding elements is less than 3"
          }
        ]
      }
    }
  ]
}