{
  "documentTitle": "AUI - Flatapp (aui)Icons",
  "pageUrl": "http://127.0.0.1:7000/demonstration/icons/",
  "issues": [
    {
      "code": "color-contrast",
      "type": "error",
      "typeCode": 1,
      "message": "Elements must meet minimum color contrast ratio thresholds",
      "context": "<p class=\"font-demo-hover\"><span class=\"aui-icon aui-icon-...</p>",
      "selector": "#pagecontent > p:nth-child(15)",
      "runner": "atl-extended-axe-runner",
      "runnerExtras": {
        "description": "Ensures the contrast between foreground and background colors meets WCAG 2 AA minimum contrast ratio thresholds",
        "impact": "serious",
        "help": "Elements must meet minimum color contrast ratio thresholds",
        "helpUrl": "https://dequeuniversity.com/rules/axe/4.9/color-contrast?application=axeAPI"
      }
    },
    {
      "code": "atlassian-color-contrast",
      "type": "error",
      "typeCode": 1,
      "message": "Controls border and background have minimal contrast ratio of 3.",
      "context": "<input class=\"text aui-field-has-icon\" type=\"text\" name=\"test-icon-in-form\" id=\"test-icon-in-form\">",
      "selector": "#test-icon-in-form",
      "runner": "atl-extended-axe-runner",
      "runnerExtras": {
        "impact": "critical",
        "help": "Controls border and background have minimal contrast ratio of 3.",
        "checks": [
          {
            "id": "border-contrast-ratio",
            "data": {
              "mixedColors": {
                "targetColor": "rgba(255, 255, 255, 1)",
                "surroundingElementsColors": {
                  "top": "rgba(255, 255, 255, 1)",
                  "left": "rgba(255, 255, 255, 1)",
                  "right": "rgba(255, 255, 255, 1)",
                  "bottom": "rgba(255, 255, 255, 1)"
                },
                "borderColors": {
                  "top": "rgba(223, 225, 230, 1)",
                  "left": "rgba(223, 225, 230, 1)",
                  "right": "rgba(223, 225, 230, 1)",
                  "bottom": "rgba(223, 225, 230, 1)"
                }
              },
              "contrastRatio": {
                "top": 1.31,
                "left": 1.31,
                "right": 1.31,
                "bottom": 1.31
              }
            },
            "relatedNodes": [],
            "title": "Contrast issues with border",
            "description": "Contrast issues with border",
            "impact": "critical",
            "message": "Contrast ratio between target's border and surrounding elements is less than 3"
          },
          {
            "id": "background-contrast-ratio",
            "data": {
              "mixedColors": {
                "targetColor": "rgba(255, 255, 255, 1)",
                "surroundingElementsColors": {
                  "top": "rgba(255, 255, 255, 1)",
                  "left": "rgba(255, 255, 255, 1)",
                  "right": "rgba(255, 255, 255, 1)",
                  "bottom": "rgba(255, 255, 255, 1)"
                }
              },
              "contrastRatio": {
                "top": 1,
                "left": 1,
                "right": 1,
                "bottom": 1
              }
            },
            "relatedNodes": [],
            "title": "Contrast issues with background",
            "description": "Contrast issues with background",
            "impact": "critical",
            "message": "Contrast ratio between the target's background and surrounding elements is less than 3"
          }
        ]
      }
    },
    {
      "code": "atlassian-color-contrast",
      "type": "error",
      "typeCode": 1,
      "message": "Controls border and background have minimal contrast ratio of 3.",
      "context": "<input class=\"text aui-field-has-icon\" type=\"password\" name=\"test-icon-in-password-form\" id=\"test-icon-in-password-form\">",
      "selector": "#test-icon-in-password-form",
      "runner": "atl-extended-axe-runner",
      "runnerExtras": {
        "impact": "critical",
        "help": "Controls border and background have minimal contrast ratio of 3.",
        "checks": [
          {
            "id": "border-contrast-ratio",
            "data": {
              "mixedColors": {
                "targetColor": "rgba(255, 255, 255, 1)",
                "surroundingElementsColors": {
                  "top": "rgba(255, 255, 255, 1)",
                  "left": "rgba(255, 255, 255, 1)",
                  "right": "rgba(255, 255, 255, 1)",
                  "bottom": "rgba(255, 255, 255, 1)"
                },
                "borderColors": {
                  "top": "rgba(223, 225, 230, 1)",
                  "left": "rgba(223, 225, 230, 1)",
                  "right": "rgba(223, 225, 230, 1)",
                  "bottom": "rgba(223, 225, 230, 1)"
                }
              },
              "contrastRatio": {
                "top": 1.31,
                "left": 1.31,
                "right": 1.31,
                "bottom": 1.31
              }
            },
            "relatedNodes": [],
            "title": "Contrast issues with border",
            "description": "Contrast issues with border",
            "impact": "critical",
            "message": "Contrast ratio between target's border and surrounding elements is less than 3"
          },
          {
            "id": "background-contrast-ratio",
            "data": {
              "mixedColors": {
                "targetColor": "rgba(255, 255, 255, 1)",
                "surroundingElementsColors": {
                  "top": "rgba(255, 255, 255, 1)",
                  "left": "rgba(255, 255, 255, 1)",
                  "right": "rgba(255, 255, 255, 1)",
                  "bottom": "rgba(255, 255, 255, 1)"
                }
              },
              "contrastRatio": {
                "top": 1,
                "left": 1,
                "right": 1,
                "bottom": 1
              }
            },
            "relatedNodes": [],
            "title": "Contrast issues with background",
            "description": "Contrast issues with background",
            "impact": "critical",
            "message": "Contrast ratio between the target's background and surrounding elements is less than 3"
          }
        ]
      }
    },
    {
      "code": "atlassian-color-contrast",
      "type": "error",
      "typeCode": 1,
      "message": "Controls border and background have minimal contrast ratio of 3.",
      "context": "<textarea name=\"test-icon-in-textarea-form\" class=\"textarea aui-field-has-icon\" id=\"test-icon-in-textarea-form\"></textarea>",
      "selector": "#test-icon-in-textarea-form",
      "runner": "atl-extended-axe-runner",
      "runnerExtras": {
        "impact": "critical",
        "help": "Controls border and background have minimal contrast ratio of 3.",
        "checks": [
          {
            "id": "border-contrast-ratio",
            "data": {
              "mixedColors": {
                "targetColor": "rgba(255, 255, 255, 1)",
                "surroundingElementsColors": {
                  "top": "rgba(255, 255, 255, 1)",
                  "left": "rgba(255, 255, 255, 1)",
                  "right": "rgba(255, 255, 255, 1)",
                  "bottom": "rgba(255, 255, 255, 1)"
                },
                "borderColors": {
                  "top": "rgba(223, 225, 230, 1)",
                  "left": "rgba(223, 225, 230, 1)",
                  "right": "rgba(223, 225, 230, 1)",
                  "bottom": "rgba(223, 225, 230, 1)"
                }
              },
              "contrastRatio": {
                "top": 1.31,
                "left": 1.31,
                "right": 1.31,
                "bottom": 1.31
              }
            },
            "relatedNodes": [],
            "title": "Contrast issues with border",
            "description": "Contrast issues with border",
            "impact": "critical",
            "message": "Contrast ratio between target's border and surrounding elements is less than 3"
          },
          {
            "id": "background-contrast-ratio",
            "data": {
              "mixedColors": {
                "targetColor": "rgba(255, 255, 255, 1)",
                "surroundingElementsColors": {
                  "top": "rgba(255, 255, 255, 1)",
                  "left": "rgba(255, 255, 255, 1)",
                  "right": "rgba(255, 255, 255, 1)",
                  "bottom": "rgba(255, 255, 255, 1)"
                }
              },
              "contrastRatio": {
                "top": 1,
                "left": 1,
                "right": 1,
                "bottom": 1
              }
            },
            "relatedNodes": [],
            "title": "Contrast issues with background",
            "description": "Contrast issues with background",
            "impact": "critical",
            "message": "Contrast ratio between the target's background and surrounding elements is less than 3"
          }
        ]
      }
    }
  ]
}