{
  "documentTitle": "AUI - Flatapp (aui)Dropdown2 - Integration",
  "pageUrl": "http://127.0.0.1:7000/integrationExamples/dropdown2/",
  "issues": [
    {
      "code": "link-in-text-block",
      "type": "error",
      "typeCode": 1,
      "message": "Links must be distinguishable without relying on color",
      "context": "<a id=\"docs-link\" href=\"https://aui.atlassian.com/aui/latest/docs/dropdown.html\">docs</a>",
      "selector": "#docs-link",
      "runner": "atl-extended-axe-runner",
      "runnerExtras": {
        "description": "Ensure links are distinguished from surrounding text in a way that does not rely on color",
        "impact": "serious",
        "help": "Links must be distinguishable without relying on color",
        "helpUrl": "https://dequeuniversity.com/rules/axe/4.9/link-in-text-block?application=axeAPI"
      }
    }
  ]
}