{
  "documentTitle": "AUI - Flatapp (aui)Focused Task Page",
  "pageUrl": "http://127.0.0.1:7000/experimental/pageLayout/layouts/focused/",
  "issues": [
    {
      "code": "atlassian-color-contrast",
      "type": "error",
      "typeCode": 1,
      "message": "Controls border and background have minimal contrast ratio of 3.",
      "context": "<button id=\"aui-page-focused-small\" class=\"aui-button\" role=\"button\" resolved=\"\">Small</button>",
      "selector": "#aui-page-focused-small",
      "runner": "atl-extended-axe-runner",
      "runnerExtras": {
        "impact": "critical",
        "help": "Controls border and background have minimal contrast ratio of 3.",
        "checks": [
          {
            "id": "border-contrast-ratio",
            "data": {
              "mixedColors": {
                "targetColor": "rgba(225, 228, 233, 1)",
                "surroundingElementsColors": {
                  "top": "rgba(244, 245, 247, 1)",
                  "left": "rgba(244, 245, 247, 1)",
                  "right": "rgba(244, 245, 247, 1)",
                  "bottom": "rgba(244, 245, 247, 1)"
                },
                "borderColors": {
                  "top": "rgba(225, 228, 233, 1)",
                  "left": "rgba(225, 228, 233, 1)",
                  "right": "rgba(225, 228, 233, 1)",
                  "bottom": "rgba(225, 228, 233, 1)"
                }
              },
              "contrastRatio": {
                "top": 1.17,
                "left": 1.17,
                "right": 1.17,
                "bottom": 1.17
              }
            },
            "relatedNodes": [],
            "title": "Contrast issues with border",
            "description": "Contrast issues with border",
            "impact": "critical",
            "message": "Contrast ratio between target's border and surrounding elements is less than 3"
          },
          {
            "id": "background-contrast-ratio",
            "data": {
              "mixedColors": {
                "targetColor": "rgba(225, 228, 233, 1)",
                "surroundingElementsColors": {
                  "top": "rgba(244, 245, 247, 1)",
                  "left": "rgba(244, 245, 247, 1)",
                  "right": "rgba(244, 245, 247, 1)",
                  "bottom": "rgba(244, 245, 247, 1)"
                }
              },
              "contrastRatio": {
                "top": 1.17,
                "left": 1.17,
                "right": 1.17,
                "bottom": 1.17
              }
            },
            "relatedNodes": [],
            "title": "Contrast issues with background",
            "description": "Contrast issues with background",
            "impact": "critical",
            "message": "Contrast ratio between the target's background and surrounding elements is less than 3"
          }
        ]
      }
    },
    {
      "code": "atlassian-color-contrast",
      "type": "error",
      "typeCode": 1,
      "message": "Controls border and background have minimal contrast ratio of 3.",
      "context": "<button id=\"aui-page-focused-medium\" class=\"aui-button\" role=\"button\" resolved=\"\">Medium</button>",
      "selector": "#aui-page-focused-medium",
      "runner": "atl-extended-axe-runner",
      "runnerExtras": {
        "impact": "critical",
        "help": "Controls border and background have minimal contrast ratio of 3.",
        "checks": [
          {
            "id": "border-contrast-ratio",
            "data": {
              "mixedColors": {
                "targetColor": "rgba(225, 228, 233, 1)",
                "surroundingElementsColors": {
                  "top": "rgba(244, 245, 247, 1)",
                  "left": "rgba(244, 245, 247, 1)",
                  "right": "rgba(244, 245, 247, 1)",
                  "bottom": "rgba(244, 245, 247, 1)"
                },
                "borderColors": {
                  "top": "rgba(225, 228, 233, 1)",
                  "left": "rgba(225, 228, 233, 1)",
                  "right": "rgba(225, 228, 233, 1)",
                  "bottom": "rgba(225, 228, 233, 1)"
                }
              },
              "contrastRatio": {
                "top": 1.17,
                "left": 1.17,
                "right": 1.17,
                "bottom": 1.17
              }
            },
            "relatedNodes": [],
            "title": "Contrast issues with border",
            "description": "Contrast issues with border",
            "impact": "critical",
            "message": "Contrast ratio between target's border and surrounding elements is less than 3"
          },
          {
            "id": "background-contrast-ratio",
            "data": {
              "mixedColors": {
                "targetColor": "rgba(225, 228, 233, 1)",
                "surroundingElementsColors": {
                  "top": "rgba(244, 245, 247, 1)",
                  "left": "rgba(244, 245, 247, 1)",
                  "right": "rgba(244, 245, 247, 1)",
                  "bottom": "rgba(244, 245, 247, 1)"
                }
              },
              "contrastRatio": {
                "top": 1.17,
                "left": 1.17,
                "right": 1.17,
                "bottom": 1.17
              }
            },
            "relatedNodes": [],
            "title": "Contrast issues with background",
            "description": "Contrast issues with background",
            "impact": "critical",
            "message": "Contrast ratio between the target's background and surrounding elements is less than 3"
          }
        ]
      }
    },
    {
      "code": "atlassian-color-contrast",
      "type": "error",
      "typeCode": 1,
      "message": "Controls border and background have minimal contrast ratio of 3.",
      "context": "<button id=\"aui-page-focused-large\" class=\"aui-button\" role=\"button\" resolved=\"\">Large</button>",
      "selector": "#aui-page-focused-large",
      "runner": "atl-extended-axe-runner",
      "runnerExtras": {
        "impact": "critical",
        "help": "Controls border and background have minimal contrast ratio of 3.",
        "checks": [
          {
            "id": "border-contrast-ratio",
            "data": {
              "mixedColors": {
                "targetColor": "rgba(225, 228, 233, 1)",
                "surroundingElementsColors": {
                  "top": "rgba(244, 245, 247, 1)",
                  "left": "rgba(244, 245, 247, 1)",
                  "right": "rgba(244, 245, 247, 1)",
                  "bottom": "rgba(244, 245, 247, 1)"
                },
                "borderColors": {
                  "top": "rgba(225, 228, 233, 1)",
                  "left": "rgba(225, 228, 233, 1)",
                  "right": "rgba(225, 228, 233, 1)",
                  "bottom": "rgba(225, 228, 233, 1)"
                }
              },
              "contrastRatio": {
                "top": 1.17,
                "left": 1.17,
                "right": 1.17,
                "bottom": 1.17
              }
            },
            "relatedNodes": [],
            "title": "Contrast issues with border",
            "description": "Contrast issues with border",
            "impact": "critical",
            "message": "Contrast ratio between target's border and surrounding elements is less than 3"
          },
          {
            "id": "background-contrast-ratio",
            "data": {
              "mixedColors": {
                "targetColor": "rgba(225, 228, 233, 1)",
                "surroundingElementsColors": {
                  "top": "rgba(244, 245, 247, 1)",
                  "left": "rgba(244, 245, 247, 1)",
                  "right": "rgba(244, 245, 247, 1)",
                  "bottom": "rgba(244, 245, 247, 1)"
                }
              },
              "contrastRatio": {
                "top": 1.17,
                "left": 1.17,
                "right": 1.17,
                "bottom": 1.17
              }
            },
            "relatedNodes": [],
            "title": "Contrast issues with background",
            "description": "Contrast issues with background",
            "impact": "critical",
            "message": "Contrast ratio between the target's background and surrounding elements is less than 3"
          }
        ]
      }
    },
    {
      "code": "atlassian-color-contrast",
      "type": "error",
      "typeCode": 1,
      "message": "Controls border and background have minimal contrast ratio of 3.",
      "context": "<button id=\"aui-page-focused-xlarge\" class=\"aui-button\" role=\"button\" resolved=\"\">Extra Large (default)</button>",
      "selector": "#aui-page-focused-xlarge",
      "runner": "atl-extended-axe-runner",
      "runnerExtras": {
        "impact": "critical",
        "help": "Controls border and background have minimal contrast ratio of 3.",
        "checks": [
          {
            "id": "border-contrast-ratio",
            "data": {
              "mixedColors": {
                "targetColor": "rgba(225, 228, 233, 1)",
                "surroundingElementsColors": {
                  "top": "rgba(244, 245, 247, 1)",
                  "left": "rgba(244, 245, 247, 1)",
                  "right": "rgba(244, 245, 247, 1)",
                  "bottom": "rgba(244, 245, 247, 1)"
                },
                "borderColors": {
                  "top": "rgba(225, 228, 233, 1)",
                  "left": "rgba(225, 228, 233, 1)",
                  "right": "rgba(225, 228, 233, 1)",
                  "bottom": "rgba(225, 228, 233, 1)"
                }
              },
              "contrastRatio": {
                "top": 1.17,
                "left": 1.17,
                "right": 1.17,
                "bottom": 1.17
              }
            },
            "relatedNodes": [],
            "title": "Contrast issues with border",
            "description": "Contrast issues with border",
            "impact": "critical",
            "message": "Contrast ratio between target's border and surrounding elements is less than 3"
          },
          {
            "id": "background-contrast-ratio",
            "data": {
              "mixedColors": {
                "targetColor": "rgba(225, 228, 233, 1)",
                "surroundingElementsColors": {
                  "top": "rgba(244, 245, 247, 1)",
                  "left": "rgba(244, 245, 247, 1)",
                  "right": "rgba(244, 245, 247, 1)",
                  "bottom": "rgba(244, 245, 247, 1)"
                }
              },
              "contrastRatio": {
                "top": 1.17,
                "left": 1.17,
                "right": 1.17,
                "bottom": 1.17
              }
            },
            "relatedNodes": [],
            "title": "Contrast issues with background",
            "description": "Contrast issues with background",
            "impact": "critical",
            "message": "Contrast ratio between the target's background and surrounding elements is less than 3"
          }
        ]
      }
    },
    {
      "code": "atlassian-color-contrast",
      "type": "error",
      "typeCode": 1,
      "message": "Controls border and background have minimal contrast ratio of 3.",
      "context": "<button class=\"aui-button\" resolved=\"\">Edit</button>",
      "selector": "#main > header > div > div:nth-child(3) > div > button:nth-child(1)",
      "runner": "atl-extended-axe-runner",
      "runnerExtras": {
        "impact": "critical",
        "help": "Controls border and background have minimal contrast ratio of 3.",
        "checks": [
          {
            "id": "border-contrast-ratio",
            "data": {
              "mixedColors": {
                "targetColor": "rgba(235, 237, 240, 1)",
                "surroundingElementsColors": {
                  "top": "rgba(255, 255, 255, 1)",
                  "left": "rgba(255, 255, 255, 1)",
                  "right": "rgba(255, 255, 255, 1)",
                  "bottom": "rgba(255, 255, 255, 1)"
                },
                "borderColors": {
                  "top": "rgba(235, 237, 240, 1)",
                  "left": "rgba(235, 237, 240, 1)",
                  "right": "rgba(235, 237, 240, 1)",
                  "bottom": "rgba(235, 237, 240, 1)"
                }
              },
              "contrastRatio": {
                "top": 1.17,
                "left": 1.17,
                "right": 1.17,
                "bottom": 1.17
              }
            },
            "relatedNodes": [],
            "title": "Contrast issues with border",
            "description": "Contrast issues with border",
            "impact": "critical",
            "message": "Contrast ratio between target's border and surrounding elements is less than 3"
          },
          {
            "id": "background-contrast-ratio",
            "data": {
              "mixedColors": {
                "targetColor": "rgba(235, 237, 240, 1)",
                "surroundingElementsColors": {
                  "top": "rgba(255, 255, 255, 1)",
                  "left": "rgba(255, 255, 255, 1)",
                  "right": "rgba(255, 255, 255, 1)",
                  "bottom": "rgba(255, 255, 255, 1)"
                }
              },
              "contrastRatio": {
                "top": 1.17,
                "left": 1.17,
                "right": 1.17,
                "bottom": 1.17
              }
            },
            "relatedNodes": [],
            "title": "Contrast issues with background",
            "description": "Contrast issues with background",
            "impact": "critical",
            "message": "Contrast ratio between the target's background and surrounding elements is less than 3"
          }
        ]
      }
    },
    {
      "code": "atlassian-color-contrast",
      "type": "error",
      "typeCode": 1,
      "message": "Controls border and background have minimal contrast ratio of 3.",
      "context": "<button class=\"aui-button\" resolved=\"\">View</button>",
      "selector": "#main > header > div > div:nth-child(3) > div > button:nth-child(2)",
      "runner": "atl-extended-axe-runner",
      "runnerExtras": {
        "impact": "critical",
        "help": "Controls border and background have minimal contrast ratio of 3.",
        "checks": [
          {
            "id": "border-contrast-ratio",
            "data": {
              "mixedColors": {
                "targetColor": "rgba(235, 237, 240, 1)",
                "surroundingElementsColors": {
                  "top": "rgba(255, 255, 255, 1)",
                  "left": "rgba(255, 255, 255, 1)",
                  "right": "rgba(255, 255, 255, 1)",
                  "bottom": "rgba(255, 255, 255, 1)"
                },
                "borderColors": {
                  "top": "rgba(235, 237, 240, 1)",
                  "left": "rgba(235, 237, 240, 1)",
                  "right": "rgba(235, 237, 240, 1)",
                  "bottom": "rgba(235, 237, 240, 1)"
                }
              },
              "contrastRatio": {
                "top": 1.17,
                "left": 1.17,
                "right": 1.17,
                "bottom": 1.17
              }
            },
            "relatedNodes": [],
            "title": "Contrast issues with border",
            "description": "Contrast issues with border",
            "impact": "critical",
            "message": "Contrast ratio between target's border and surrounding elements is less than 3"
          },
          {
            "id": "background-contrast-ratio",
            "data": {
              "mixedColors": {
                "targetColor": "rgba(235, 237, 240, 1)",
                "surroundingElementsColors": {
                  "top": "rgba(255, 255, 255, 1)",
                  "left": "rgba(255, 255, 255, 1)",
                  "right": "rgba(255, 255, 255, 1)",
                  "bottom": "rgba(255, 255, 255, 1)"
                }
              },
              "contrastRatio": {
                "top": 1.17,
                "left": 1.17,
                "right": 1.17,
                "bottom": 1.17
              }
            },
            "relatedNodes": [],
            "title": "Contrast issues with background",
            "description": "Contrast issues with background",
            "impact": "critical",
            "message": "Contrast ratio between the target's background and surrounding elements is less than 3"
          }
        ]
      }
    },
    {
      "code": "atlassian-color-contrast",
      "type": "error",
      "typeCode": 1,
      "message": "Controls border and background have minimal contrast ratio of 3.",
      "context": "<button class=\"aui-button\" resolved=\"\">More</button>",
      "selector": "#main > header > div > div:nth-child(3) > div > button:nth-child(3)",
      "runner": "atl-extended-axe-runner",
      "runnerExtras": {
        "impact": "critical",
        "help": "Controls border and background have minimal contrast ratio of 3.",
        "checks": [
          {
            "id": "border-contrast-ratio",
            "data": {
              "mixedColors": {
                "targetColor": "rgba(235, 237, 240, 1)",
                "surroundingElementsColors": {
                  "top": "rgba(255, 255, 255, 1)",
                  "left": "rgba(255, 255, 255, 1)",
                  "right": "rgba(255, 255, 255, 1)",
                  "bottom": "rgba(255, 255, 255, 1)"
                },
                "borderColors": {
                  "top": "rgba(235, 237, 240, 1)",
                  "left": "rgba(235, 237, 240, 1)",
                  "right": "rgba(235, 237, 240, 1)",
                  "bottom": "rgba(235, 237, 240, 1)"
                }
              },
              "contrastRatio": {
                "top": 1.17,
                "left": 1.17,
                "right": 1.17,
                "bottom": 1.17
              }
            },
            "relatedNodes": [],
            "title": "Contrast issues with border",
            "description": "Contrast issues with border",
            "impact": "critical",
            "message": "Contrast ratio between target's border and surrounding elements is less than 3"
          },
          {
            "id": "background-contrast-ratio",
            "data": {
              "mixedColors": {
                "targetColor": "rgba(235, 237, 240, 1)",
                "surroundingElementsColors": {
                  "top": "rgba(255, 255, 255, 1)",
                  "left": "rgba(255, 255, 255, 1)",
                  "right": "rgba(255, 255, 255, 1)",
                  "bottom": "rgba(255, 255, 255, 1)"
                }
              },
              "contrastRatio": {
                "top": 1.17,
                "left": 1.17,
                "right": 1.17,
                "bottom": 1.17
              }
            },
            "relatedNodes": [],
            "title": "Contrast issues with background",
            "description": "Contrast issues with background",
            "impact": "critical",
            "message": "Contrast ratio between the target's background and surrounding elements is less than 3"
          }
        ]
      }
    }
  ]
}